[ Error ] Receive unkown message : FriendsGetListMessage | Length : 0
[ Error ] Receive unkown message : ClientKeyMessage | Length : 20
[ Error ] Receive unkown message : FriendsGetListMessage | Length : 0
[ Error ] Receive unkown message : ClientKeyMessage | Length : 20
[ Error ] Receive unkown message : FriendsGetListMessage | Length : 0
[ Error ] Receive unkown message : ClientKeyMessage | Length : 20
[ Error ] Receive unkown message : FriendsGetListMessage | Length : 0
[ Error ] Receive unkown message : ClientKeyMessage | Length : 20
[ Error ] Receive unkown message : FriendsGetListMessage | Length : 0
[ Error ] Receive unkown message : ClientKeyMessage | Length : 20
[ Error ] Receive unkown message : FriendsGetListMessage | Length : 0
[ Error ] Receive unkown message : ClientKeyMessage | Length : 20
[ Error ] Receive unkown message : PrismWorldInformationRequestMessage | Length : 1
[ Error ] Receive unkown message : PrismWorldInformationRequestMessage | Length : 1
[ Error ] Receive unkown message : FriendsGetListMessage | Length : 0
[ Error ] Receive unkown message : ClientKeyMessage | Length : 20
[ Error ] Receive unkown message : FriendsGetListMessage | Length : 0
[ Error ] Receive unkown message : ClientKeyMessage | Length : 20
[ Error ] Receive unkown message : FriendsGetListMessage | Length : 0
[ Error ] Receive unkown message : ClientKeyMessage | Length : 20
[ Error ] Receive unkown message : PrismWorldInformationRequestMessage | Length : 1
[ Error ] Receive unkown message : PrismWorldInformationRequestMessage | Length : 1
[ Error ] Receive unkown message : FriendsGetListMessage | Length : 0
[ Error ] Receive unkown message : ClientKeyMessage | Length : 20
[ Error ] Receive unkown message : FriendsGetListMessage | Length : 0
[ Error ] Receive unkown message : ClientKeyMessage | Length : 20
[ Error ] System.NullReferenceException: La référence d'objet n'est pas définie à une instance d'un objet.
   à Sunshine.Protocol.Types.InteractiveElement.Serialize(IDataWriter writer) dans C:\Users\Alphonce\Desktop\Sunshine\Sunshine.Protocol\Types\game\interactive\InteractiveElement.cs:ligne 64
   à Sunshine.Protocol.Messages.MapComplementaryInformationsDataMessage.Serialize(IDataWriter writer) dans C:\Users\Alphonce\Desktop\Sunshine\Sunshine.Protocol\Messages\game\context\roleplay\MapComplementaryInformationsDataMessage.cs:ligne 106
   à Sunshine.Protocol.Messages.Message.Pack(BigEndianWriter writer) dans C:\Users\Alphonce\Desktop\Sunshine\Sunshine.Protocol\Messages\Message.cs:ligne 20
   à Sunshine.WorldServer.Client.WorldClient.Send(Message message) dans C:\Users\Alphonce\Desktop\Sunshine\Sunshine.WorldServer\Client\WorldClient.cs:ligne 79
[ Error ] Cannot build the message Id : 225 | Length : 0
[ Error ] Receive unkown message : FriendsGetListMessage | Length : 0
[ Error ] Receive unkown message : ClientKeyMessage | Length : 20
[ Error ] Receive unkown message : FriendsGetListMessage | Length : 0
[ Error ] Receive unkown message : ClientKeyMessage | Length : 20
[ Error ] Receive unkown message : FriendsGetListMessage | Length : 0
[ Error ] Receive unkown message : ClientKeyMessage | Length : 20
[ Error ] Receive unkown message : FriendsGetListMessage | Length : 0
[ Error ] Receive unkown message : ClientKeyMessage | Length : 20
[ Error ] Receive unkown message : PrismWorldInformationRequestMessage | Length : 1
[ Error ] Receive unkown message : PrismWorldInformationRequestMessage | Length : 1
[ Error ] Receive unkown message : FriendsGetListMessage | Length : 0
[ Error ] Receive unkown message : ClientKeyMessage | Length : 20
[ Error ] Receive unkown message : PrismWorldInformationRequestMessage | Length : 1
[ Error ] Receive unkown message : PrismWorldInformationRequestMessage | Length : 1
[ Error ] Receive unkown message : FriendsGetListMessage | Length : 0
[ Error ] Receive unkown message : ClientKeyMessage | Length : 20
[ Error ] Receive unkown message : PrismWorldInformationRequestMessage | Length : 1
[ Error ] Receive unkown message : PrismWorldInformationRequestMessage | Length : 1
[ Error ] Receive unkown message : FriendsGetListMessage | Length : 0
[ Error ] Receive unkown message : ClientKeyMessage | Length : 20
[ Error ] Receive unkown message : PrismWorldInformationRequestMessage | Length : 1
[ Error ] Receive unkown message : PrismWorldInformationRequestMessage | Length : 1
[ Error ] Receive unkown message : FriendsGetListMessage | Length : 0
[ Error ] Receive unkown message : ClientKeyMessage | Length : 20
[ Error ] Receive unkown message : PrismWorldInformationRequestMessage | Length : 1
[ Error ] Receive unkown message : PrismWorldInformationRequestMessage | Length : 1
[ Error ] Receive unkown message : FriendsGetListMessage | Length : 0
[ Error ] Receive unkown message : ClientKeyMessage | Length : 20
[ Error ] Receive unkown message : PrismWorldInformationRequestMessage | Length : 1
[ Error ] Receive unkown message : PrismWorldInformationRequestMessage | Length : 1
