[ Error ] Receive unkown message : FriendsGetListMessage | Length : 0
[ Error ] Receive unkown message : ClientKeyMessage | Length : 23
[ Error ] System.FormatException: Le format de la chaîne d'entrée est incorrect.
   à System.Number.StringToNumber(String str, NumberStyles options, NumberBuffer& number, NumberFormatInfo info, Boolean parseDecimal)
   à System.Number.ParseInt32(String s, NumberStyles style, NumberFormatInfo info)
   à System.Int16.Parse(String s, NumberStyles style, NumberFormatInfo info)
   à System.Int16.Parse(String s)
   à Sunshine.WorldServer.Game.Actors.Characters.Quests.QuestManager.ParseCriteria(String criteria, Character character) dans C:\Users\ludovic\Desktop\Sunshine\Sunshine.WorldServer\Game\Actors\Characters\Quests\QuestManager.cs:ligne 147
   à Sunshine.WorldServer.Game.Actors.Characters.Quests.QuestsCollection.<GetQuestStepInfos>b__7_1(QuestObjectiveRecord x) dans C:\Users\ludovic\Desktop\Sunshine\Sunshine.WorldServer\Game\Actors\Characters\Quests\QuestsCollection.cs:ligne 65
   à System.Linq.Enumerable.WhereSelectEnumerableIterator`2.MoveNext()
   à Sunshine.Protocol.Messages.QuestStepInfoMessage.Serialize(IDataWriter writer) dans C:\Users\ludovic\Desktop\Sunshine\Sunshine.Protocol\Messages\game\context\roleplay\quest\QuestStepInfoMessage.cs:ligne 65
   à Sunshine.Protocol.Messages.Message.Pack(BigEndianWriter writer) dans C:\Users\ludovic\Desktop\Sunshine\Sunshine.Protocol\Messages\Message.cs:ligne 20
   à Sunshine.WorldServer.Client.WorldClient.Send(Message message) dans C:\Users\ludovic\Desktop\Sunshine\Sunshine.WorldServer\Client\WorldClient.cs:ligne 79
[ Error ] Receive unkown message : FriendsGetListMessage | Length : 0
[ Error ] Receive unkown message : ClientKeyMessage | Length : 23
[ Error ] Receive unkown message : FriendsGetListMessage | Length : 0
[ Error ] Receive unkown message : ClientKeyMessage | Length : 23
[ Error ] Receive unkown message : FriendsGetListMessage | Length : 0
[ Error ] Receive unkown message : ClientKeyMessage | Length : 23
[ Error ] Receive unkown message : FriendsGetListMessage | Length : 0
[ Error ] Receive unkown message : ClientKeyMessage | Length : 23
[ Error ] Receive unkown message : FriendsGetListMessage | Length : 0
[ Error ] Receive unkown message : ClientKeyMessage | Length : 23
[ Error ] Receive unkown message : FriendsGetListMessage | Length : 0
[ Error ] Receive unkown message : ClientKeyMessage | Length : 23
[ Error ] System.ArgumentOutOfRangeException: L'index était hors limites. Il ne doit pas être négatif et doit être inférieur à la taille de la collection.
Nom du paramètre : index
   à System.ThrowHelper.ThrowArgumentOutOfRangeException(ExceptionArgument argument, ExceptionResource resource)
   à System.Collections.Generic.List`1.get_Item(Int32 index)
   à Sunshine.WorldServer.Game.Actors.Characters.Quests.QuestsCollection.GetStepStartedObjectives(Int16 questId, Int16 stepId) dans C:\Users\ludovic\Desktop\Sunshine\Sunshine.WorldServer\Game\Actors\Characters\Quests\QuestsCollection.cs:ligne 50
   à Sunshine.WorldServer.Game.Actors.Characters.Quests.QuestsCollection.GetQuestStepInfos(Int16 questId) dans C:\Users\ludovic\Desktop\Sunshine\Sunshine.WorldServer\Game\Actors\Characters\Quests\QuestsCollection.cs:ligne 78
   à Sunshine.WorldServer.Handlers.Characters.Quests.QuestHandler.HandleQuestStepInfoRequestMessage(WorldClient client, QuestStepInfoRequestMessage message) dans C:\Users\ludovic\Desktop\Sunshine\Sunshine.WorldServer\Handlers\Characters\Quests\QuestHandler.cs:ligne 26
   à (Object , IBaseClient , Message )
   à Sunshine.Protocol.Messages.MessageDispatcher.HandledMessage(IBaseClient client, Message message) dans C:\Users\ludovic\Desktop\Sunshine\Sunshine.Protocol\Messages\MessageDispatcher.cs:ligne 99
   à Sunshine.Protocol.Messages.MessageDispatcher.Dispatch(IBaseClient client, Byte[] data) dans C:\Users\ludovic\Desktop\Sunshine\Sunshine.Protocol\Messages\MessageDispatcher.cs:ligne 48
[ Error ] Receive unkown message : FriendsGetListMessage | Length : 0
[ Error ] Receive unkown message : ClientKeyMessage | Length : 23
[ Error ] Receive unkown message : FriendsGetListMessage | Length : 0
[ Error ] Receive unkown message : ClientKeyMessage | Length : 23
[ Error ] Receive unkown message : FriendsGetListMessage | Length : 0
[ Error ] Receive unkown message : ClientKeyMessage | Length : 23
