[ Info ] Starting IPC Auth 127.0.0.1:443
[ Info ] Starting IPC World 127.0.0.1:5556
[ Info ] Client <127.0.0.1:59541> connected to AuthServer...
[ AuthServer ] <127.0.0.1:443> Send ProtocolRequired
[ AuthServer ] <127.0.0.1:443> Send HelloConnectMessage
[ AuthServer ] <127.0.0.1:59541> Receive IdentificationMessage
[ AuthServer ] <127.0.0.1:443> Send IdentificationSuccessMessage
[ AuthServer ] <127.0.0.1:443> Send ServersListMessage
[ AuthServer ] <127.0.0.1:59541> Receive ServerSelectionMessage
[ AuthServer ] <127.0.0.1:443> Send SelectedServerDataMessage
[ Info ] Client <127.0.0.1:59541> disconnected from AuthServer...
[ Info ] Client <127.0.0.1:59543> connected to WorldServer...
[ WorldServer ] <127.0.0.1:5556> Send ProtocolRequired
[ WorldServer ] <127.0.0.1:5556> Send HelloGameMessage
[ WorldServer ] <127.0.0.1:59543> Receive AuthenticationTicketMessage
[ WorldServer ] <127.0.0.1:5556> Send AuthenticationTicketAcceptedMessage
[ WorldServer ] <127.0.0.1:5556> Send BasicTimeMessage
[ WorldServer ] <127.0.0.1:5556> Send AccountCapabilitiesMessage
[ WorldServer ] <127.0.0.1:5556> Send TrustStatusMessage
[ WorldServer ] <127.0.0.1:59543> Receive CharactersListRequestMessage
[ WorldServer ] <127.0.0.1:5556> Send CharactersListMessage
[ WorldServer ] <127.0.0.1:59543> Receive CharacterSelectionMessage
[ WorldServer ] <127.0.0.1:5556> Send CharacterSelectedSuccessMessage
[ WorldServer ] <127.0.0.1:5556> Send InventoryContentMessage
[ WorldServer ] <127.0.0.1:5556> Send ShortcutBarContentMessage
[ WorldServer ] <127.0.0.1:5556> Send ShortcutBarContentMessage
[ WorldServer ] <127.0.0.1:5556> Send EmoteListMessage
[ WorldServer ] <127.0.0.1:5556> Send EnabledChannelsMessage
[ WorldServer ] <127.0.0.1:5556> Send AlignmentRankUpdateMessage
[ WorldServer ] <127.0.0.1:5556> Send AlignmentSubAreasListMessage
[ WorldServer ] <127.0.0.1:5556> Send SpellListMessage
[ WorldServer ] <127.0.0.1:5556> Send InventoryWeightMessage
[ WorldServer ] <127.0.0.1:5556> Send CharacterStatsListMessage
[ WorldServer ] <127.0.0.1:5556> Send JobDescriptionMessage
[ WorldServer ] <127.0.0.1:5556> Send JobExperienceMultiUpdateMessage
[ WorldServer ] <127.0.0.1:5556> Send JobCrafterDirectorySettingsMessage
[ WorldServer ] <127.0.0.1:5556> Send TextInformationMessage
[ WorldServer ] <127.0.0.1:5556> Send LifePointsRegenBeginMessage
[ WorldServer ] <127.0.0.1:59543> Receive IgnoredGetListMessage
[ WorldServer ] <127.0.0.1:5556> Send IgnoredListMessage
[ WorldServer ] <127.0.0.1:59543> Receive GameContextCreateRequestMessage
[ WorldServer ] <127.0.0.1:5556> Send GameContextDestroyMessage
[ WorldServer ] <127.0.0.1:5556> Send GameContextCreateMessage
[ WorldServer ] <127.0.0.1:5556> Send CurrentMapMessage
[ WorldServer ] <127.0.0.1:59543> Receive ChannelEnablingMessage
[ WorldServer ] <127.0.0.1:59543> Receive ChannelEnablingMessage
[ WorldServer ] <127.0.0.1:59543> Receive QuestListRequestMessage
[ WorldServer ] <127.0.0.1:5556> Send QuestListMessage
[ WorldServer ] <127.0.0.1:59543> Receive QuestListRequestMessage
[ WorldServer ] <127.0.0.1:5556> Send QuestListMessage
[ WorldServer ] <127.0.0.1:59543> Receive MapInformationsRequestMessage
[ WorldServer ] <127.0.0.1:5556> Send MapComplementaryInformationsDataMessage
[ WorldServer ] <127.0.0.1:5556> Send GameRolePlayShowActorMessage
[ WorldServer ] <127.0.0.1:59543> Receive ChatClientMultiMessage
[ WorldServer ] <127.0.0.1:5556> Send GameRolePlayShowActorMessage
[ WorldServer ] <127.0.0.1:5556> Send TextInformationMessage
[ WorldServer ] <127.0.0.1:59543> Receive GameMapMovementRequestMessage
[ WorldServer ] <127.0.0.1:5556> Send GameMapMovementMessage
[ WorldServer ] <127.0.0.1:59543> Receive GameMapMovementConfirmMessage
[ WorldServer ] <127.0.0.1:5556> Send BasicNoOperationMessage
[ WorldServer ] <127.0.0.1:5556> Send LifePointsRegenEndMessage
[ WorldServer ] <127.0.0.1:5556> Send GameContextDestroyMessage
[ WorldServer ] <127.0.0.1:5556> Send GameContextCreateMessage
[ WorldServer ] <127.0.0.1:5556> Send GameFightStartingMessage
[ WorldServer ] <127.0.0.1:5556> Send GameFightJoinMessage
[ WorldServer ] <127.0.0.1:5556> Send GameFightPlacementPossiblePositionsMessage
[ WorldServer ] <127.0.0.1:5556> Send GameFightShowFighterMessage
[ WorldServer ] <127.0.0.1:5556> Send GameFightShowFighterMessage
[ WorldServer ] <127.0.0.1:5556> Send GameFightShowFighterMessage
[ WorldServer ] <127.0.0.1:5556> Send GameFightShowFighterMessage
[ WorldServer ] <127.0.0.1:5556> Send GameEntitiesDispositionMessage
[ WorldServer ] <127.0.0.1:5556> Send GameFightUpdateTeamMessage
[ WorldServer ] <127.0.0.1:5556> Send GameFightUpdateTeamMessage
[ WorldServer ] <127.0.0.1:5556> Send GameFightTurnListMessage
[ WorldServer ] <127.0.0.1:59543> Receive GameFightReadyMessage
[ WorldServer ] <127.0.0.1:5556> Send GameFightHumanReadyStateMessage
[ WorldServer ] <127.0.0.1:5556> Send GameEntitiesDispositionMessage
[ WorldServer ] <127.0.0.1:5556> Send GameFightStartMessage
[ WorldServer ] <127.0.0.1:5556> Send GameFightTurnListMessage
[ WorldServer ] <127.0.0.1:5556> Send GameFightSynchronizeMessage
[ WorldServer ] <127.0.0.1:5556> Send GameFightNewRoundMessage
[ WorldServer ] <127.0.0.1:5556> Send GameFightTurnStartMessage
[ WorldServer ] <127.0.0.1:5556> Send GameFightSynchronizeMessage
[ WorldServer ] <127.0.0.1:5556> Send CharacterStatsListMessage
[ WorldServer ] <127.0.0.1:59543> Receive GameMapMovementRequestMessage
[ WorldServer ] <127.0.0.1:5556> Send SequenceStartMessage
[ WorldServer ] <127.0.0.1:5556> Send GameActionFightPointsVariationMessage
[ WorldServer ] <127.0.0.1:5556> Send GameMapMovementMessage
[ WorldServer ] <127.0.0.1:5556> Send SequenceEndMessage
[ WorldServer ] <127.0.0.1:59543> Receive GameActionAcknowledgementMessage
[ WorldServer ] <127.0.0.1:59543> Receive GameFightTurnFinishMessage
[ WorldServer ] <127.0.0.1:5556> Send GameFightTurnEndMessage
[ WorldServer ] <127.0.0.1:5556> Send GameFightTurnReadyRequestMessage
[ WorldServer ] <127.0.0.1:5556> Send GameFightTurnStartMessage
[ WorldServer ] <127.0.0.1:5556> Send GameFightSynchronizeMessage
[ WorldServer ] <127.0.0.1:5556> Send CharacterStatsListMessage
[ WorldServer ] <127.0.0.1:5556> Send GameFightTurnEndMessage
[ WorldServer ] <127.0.0.1:5556> Send GameFightTurnReadyRequestMessage
[ WorldServer ] <127.0.0.1:5556> Send GameFightTurnStartMessage
[ WorldServer ] <127.0.0.1:5556> Send GameFightSynchronizeMessage
[ WorldServer ] <127.0.0.1:5556> Send CharacterStatsListMessage
[ WorldServer ] <127.0.0.1:5556> Send GameFightTurnEndMessage
[ WorldServer ] <127.0.0.1:5556> Send GameFightTurnReadyRequestMessage
[ WorldServer ] <127.0.0.1:5556> Send GameFightTurnStartMessage
[ WorldServer ] <127.0.0.1:5556> Send GameFightSynchronizeMessage
[ WorldServer ] <127.0.0.1:5556> Send CharacterStatsListMessage
[ WorldServer ] <127.0.0.1:5556> Send GameFightTurnEndMessage
[ WorldServer ] <127.0.0.1:5556> Send GameFightTurnReadyRequestMessage
[ WorldServer ] <127.0.0.1:5556> Send GameFightNewRoundMessage
[ WorldServer ] <127.0.0.1:5556> Send GameFightTurnStartMessage
[ WorldServer ] <127.0.0.1:5556> Send GameFightSynchronizeMessage
[ WorldServer ] <127.0.0.1:5556> Send CharacterStatsListMessage
[ WorldServer ] <127.0.0.1:59543> Receive GameFightTurnReadyMessage
[ WorldServer ] <127.0.0.1:59543> Receive GameFightTurnReadyMessage
[ WorldServer ] <127.0.0.1:59543> Receive GameFightTurnReadyMessage
[ WorldServer ] <127.0.0.1:59543> Receive GameFightTurnReadyMessage
[ WorldServer ] <127.0.0.1:59543> Receive GameMapMovementRequestMessage
[ WorldServer ] <127.0.0.1:5556> Send SequenceStartMessage
[ WorldServer ] <127.0.0.1:5556> Send GameActionFightPointsVariationMessage
[ WorldServer ] <127.0.0.1:5556> Send GameMapMovementMessage
[ WorldServer ] <127.0.0.1:5556> Send SequenceEndMessage
[ WorldServer ] <127.0.0.1:59543> Receive GameActionAcknowledgementMessage
[ WorldServer ] <127.0.0.1:59543> Receive GameActionFightCastRequestMessage
[ WorldServer ] <127.0.0.1:5556> Send SequenceStartMessage
[ WorldServer ] <127.0.0.1:5556> Send GameActionFightSpellCastMessage
[ WorldServer ] <127.0.0.1:5556> Send GameActionFightPointsVariationMessage
[ WorldServer ] <127.0.0.1:5556> Send GameActionFightLifePointsVariationMessage
[ WorldServer ] <127.0.0.1:5556> Send SequenceStartMessage
[ WorldServer ] <127.0.0.1:5556> Send GameActionFightDeathMessage
[ WorldServer ] <127.0.0.1:5556> Send SequenceEndMessage
[ WorldServer ] <127.0.0.1:5556> Send SequenceEndMessage
[ WorldServer ] <127.0.0.1:59543> Receive GameActionAcknowledgementMessage
[ WorldServer ] <127.0.0.1:59543> Receive GameActionFightCastRequestMessage
[ WorldServer ] <127.0.0.1:5556> Send SequenceStartMessage
[ WorldServer ] <127.0.0.1:5556> Send GameActionFightSpellCastMessage
[ WorldServer ] <127.0.0.1:5556> Send GameActionFightPointsVariationMessage
[ WorldServer ] <127.0.0.1:5556> Send SequenceEndMessage
[ WorldServer ] <127.0.0.1:59543> Receive GameActionAcknowledgementMessage
[ WorldServer ] <127.0.0.1:59543> Receive GameFightTurnFinishMessage
[ WorldServer ] <127.0.0.1:5556> Send GameFightTurnEndMessage
[ WorldServer ] <127.0.0.1:5556> Send GameFightTurnReadyRequestMessage
[ WorldServer ] <127.0.0.1:5556> Send GameFightTurnStartMessage
[ WorldServer ] <127.0.0.1:5556> Send GameFightSynchronizeMessage
[ WorldServer ] <127.0.0.1:5556> Send CharacterStatsListMessage
[ WorldServer ] <127.0.0.1:5556> Send GameFightTurnEndMessage
[ WorldServer ] <127.0.0.1:5556> Send GameFightTurnReadyRequestMessage
[ WorldServer ] <127.0.0.1:5556> Send GameFightTurnStartMessage
[ WorldServer ] <127.0.0.1:5556> Send GameFightSynchronizeMessage
[ WorldServer ] <127.0.0.1:5556> Send CharacterStatsListMessage
[ WorldServer ] <127.0.0.1:5556> Send GameFightTurnEndMessage
[ WorldServer ] <127.0.0.1:5556> Send GameFightTurnReadyRequestMessage
[ WorldServer ] <127.0.0.1:5556> Send GameFightNewRoundMessage
[ WorldServer ] <127.0.0.1:5556> Send GameFightTurnStartMessage
[ WorldServer ] <127.0.0.1:5556> Send GameFightSynchronizeMessage
[ WorldServer ] <127.0.0.1:5556> Send CharacterStatsListMessage
[ WorldServer ] <127.0.0.1:59543> Receive GameFightTurnReadyMessage
[ WorldServer ] <127.0.0.1:59543> Receive GameFightTurnReadyMessage
[ WorldServer ] <127.0.0.1:59543> Receive GameFightTurnReadyMessage
[ WorldServer ] <127.0.0.1:59543> Receive GameMapMovementRequestMessage
[ WorldServer ] <127.0.0.1:5556> Send SequenceStartMessage
[ WorldServer ] <127.0.0.1:5556> Send GameActionFightPointsVariationMessage
[ WorldServer ] <127.0.0.1:5556> Send GameMapMovementMessage
[ WorldServer ] <127.0.0.1:5556> Send SequenceEndMessage
[ WorldServer ] <127.0.0.1:59543> Receive GameActionAcknowledgementMessage
[ WorldServer ] <127.0.0.1:59543> Receive GameActionFightCastRequestMessage
[ WorldServer ] <127.0.0.1:5556> Send SequenceStartMessage
[ WorldServer ] <127.0.0.1:5556> Send GameActionFightSpellCastMessage
[ WorldServer ] <127.0.0.1:5556> Send GameActionFightPointsVariationMessage
[ WorldServer ] <127.0.0.1:5556> Send GameActionFightLifePointsVariationMessage
[ WorldServer ] <127.0.0.1:5556> Send SequenceStartMessage
[ WorldServer ] <127.0.0.1:5556> Send GameActionFightDeathMessage
[ WorldServer ] <127.0.0.1:5556> Send SequenceEndMessage
[ WorldServer ] <127.0.0.1:5556> Send SequenceEndMessage
[ WorldServer ] <127.0.0.1:59543> Receive GameActionAcknowledgementMessage
[ WorldServer ] <127.0.0.1:59543> Receive GameMapMovementRequestMessage
[ WorldServer ] <127.0.0.1:5556> Send SequenceStartMessage
[ WorldServer ] <127.0.0.1:5556> Send GameActionFightPointsVariationMessage
[ WorldServer ] <127.0.0.1:5556> Send GameMapMovementMessage
[ WorldServer ] <127.0.0.1:5556> Send SequenceEndMessage
[ WorldServer ] <127.0.0.1:59543> Receive GameActionAcknowledgementMessage
[ WorldServer ] <127.0.0.1:59543> Receive GameFightTurnFinishMessage
[ WorldServer ] <127.0.0.1:5556> Send GameFightTurnEndMessage
[ WorldServer ] <127.0.0.1:5556> Send GameFightTurnReadyRequestMessage
[ WorldServer ] <127.0.0.1:5556> Send GameFightTurnStartMessage
[ WorldServer ] <127.0.0.1:5556> Send GameFightSynchronizeMessage
[ WorldServer ] <127.0.0.1:5556> Send CharacterStatsListMessage
[ WorldServer ] <127.0.0.1:5556> Send GameFightTurnEndMessage
[ WorldServer ] <127.0.0.1:5556> Send GameFightTurnReadyRequestMessage
[ WorldServer ] <127.0.0.1:5556> Send GameFightNewRoundMessage
[ WorldServer ] <127.0.0.1:5556> Send GameFightTurnStartMessage
[ WorldServer ] <127.0.0.1:5556> Send GameFightSynchronizeMessage
[ WorldServer ] <127.0.0.1:5556> Send CharacterStatsListMessage
[ WorldServer ] <127.0.0.1:59543> Receive GameFightTurnReadyMessage
[ WorldServer ] <127.0.0.1:59543> Receive GameFightTurnReadyMessage
[ WorldServer ] <127.0.0.1:59543> Receive GameMapMovementRequestMessage
[ WorldServer ] <127.0.0.1:5556> Send SequenceStartMessage
[ WorldServer ] <127.0.0.1:5556> Send GameActionFightPointsVariationMessage
[ WorldServer ] <127.0.0.1:5556> Send GameMapMovementMessage
[ WorldServer ] <127.0.0.1:5556> Send SequenceEndMessage
[ WorldServer ] <127.0.0.1:59543> Receive GameActionAcknowledgementMessage
[ WorldServer ] <127.0.0.1:59543> Receive GameActionFightCastRequestMessage
[ WorldServer ] <127.0.0.1:5556> Send SequenceStartMessage
[ WorldServer ] <127.0.0.1:5556> Send GameActionFightSpellCastMessage
[ WorldServer ] <127.0.0.1:5556> Send GameActionFightPointsVariationMessage
[ WorldServer ] <127.0.0.1:5556> Send GameActionFightLifePointsVariationMessage
[ WorldServer ] <127.0.0.1:5556> Send SequenceStartMessage
[ WorldServer ] <127.0.0.1:5556> Send GameActionFightDeathMessage
[ WorldServer ] <127.0.0.1:5556> Send SequenceEndMessage
[ WorldServer ] <127.0.0.1:5556> Send SequenceEndMessage
[ WorldServer ] <127.0.0.1:5556> Send ObjectAddedMessage
[ WorldServer ] <127.0.0.1:5556> Send InventoryWeightMessage
[ WorldServer ] <127.0.0.1:5556> Send ObjectAddedMessage
[ WorldServer ] <127.0.0.1:5556> Send InventoryWeightMessage
[ WorldServer ] <127.0.0.1:5556> Send ObjectModifiedMessage
[ WorldServer ] <127.0.0.1:5556> Send InventoryWeightMessage
[ WorldServer ] <127.0.0.1:5556> Send ObjectModifiedMessage
[ WorldServer ] <127.0.0.1:5556> Send InventoryWeightMessage
[ WorldServer ] <127.0.0.1:5556> Send ObjectModifiedMessage
[ WorldServer ] <127.0.0.1:5556> Send InventoryWeightMessage
[ WorldServer ] <127.0.0.1:5556> Send QuestObjectiveValidatedMessage
[ Info ] Starting IPC Auth 127.0.0.1:443
[ Info ] Starting IPC World 127.0.0.1:5556
[ Info ] Client <127.0.0.1:59594> connected to AuthServer...
[ AuthServer ] <127.0.0.1:443> Send ProtocolRequired
[ AuthServer ] <127.0.0.1:443> Send HelloConnectMessage
[ AuthServer ] <127.0.0.1:59594> Receive IdentificationMessage
[ AuthServer ] <127.0.0.1:443> Send IdentificationSuccessMessage
[ AuthServer ] <127.0.0.1:443> Send ServersListMessage
[ AuthServer ] <127.0.0.1:59594> Receive ServerSelectionMessage
[ AuthServer ] <127.0.0.1:443> Send SelectedServerDataMessage
[ Info ] Client <127.0.0.1:59594> disconnected from AuthServer...
[ Info ] Client <127.0.0.1:59596> connected to WorldServer...
[ WorldServer ] <127.0.0.1:5556> Send ProtocolRequired
[ WorldServer ] <127.0.0.1:5556> Send HelloGameMessage
[ WorldServer ] <127.0.0.1:59596> Receive AuthenticationTicketMessage
[ WorldServer ] <127.0.0.1:5556> Send AuthenticationTicketAcceptedMessage
[ WorldServer ] <127.0.0.1:5556> Send BasicTimeMessage
[ WorldServer ] <127.0.0.1:5556> Send AccountCapabilitiesMessage
[ WorldServer ] <127.0.0.1:5556> Send TrustStatusMessage
[ WorldServer ] <127.0.0.1:59596> Receive CharactersListRequestMessage
[ WorldServer ] <127.0.0.1:5556> Send CharactersListMessage
[ WorldServer ] <127.0.0.1:59596> Receive CharacterSelectionMessage
[ WorldServer ] <127.0.0.1:5556> Send CharacterSelectedSuccessMessage
[ WorldServer ] <127.0.0.1:5556> Send InventoryContentMessage
[ WorldServer ] <127.0.0.1:5556> Send ShortcutBarContentMessage
[ WorldServer ] <127.0.0.1:5556> Send ShortcutBarContentMessage
[ WorldServer ] <127.0.0.1:5556> Send EmoteListMessage
[ WorldServer ] <127.0.0.1:5556> Send EnabledChannelsMessage
[ WorldServer ] <127.0.0.1:5556> Send AlignmentRankUpdateMessage
[ WorldServer ] <127.0.0.1:5556> Send AlignmentSubAreasListMessage
[ WorldServer ] <127.0.0.1:5556> Send SpellListMessage
[ WorldServer ] <127.0.0.1:5556> Send InventoryWeightMessage
[ WorldServer ] <127.0.0.1:5556> Send CharacterStatsListMessage
[ WorldServer ] <127.0.0.1:5556> Send JobDescriptionMessage
[ WorldServer ] <127.0.0.1:5556> Send JobExperienceMultiUpdateMessage
[ WorldServer ] <127.0.0.1:5556> Send JobCrafterDirectorySettingsMessage
[ WorldServer ] <127.0.0.1:5556> Send TextInformationMessage
[ WorldServer ] <127.0.0.1:5556> Send LifePointsRegenBeginMessage
[ WorldServer ] <127.0.0.1:59596> Receive IgnoredGetListMessage
[ WorldServer ] <127.0.0.1:5556> Send IgnoredListMessage
[ WorldServer ] <127.0.0.1:59596> Receive GameContextCreateRequestMessage
[ WorldServer ] <127.0.0.1:5556> Send GameContextDestroyMessage
[ WorldServer ] <127.0.0.1:5556> Send GameContextCreateMessage
[ WorldServer ] <127.0.0.1:5556> Send CurrentMapMessage
[ WorldServer ] <127.0.0.1:59596> Receive QuestListRequestMessage
[ WorldServer ] <127.0.0.1:5556> Send QuestListMessage
[ WorldServer ] <127.0.0.1:59596> Receive ChannelEnablingMessage
[ WorldServer ] <127.0.0.1:59596> Receive ChannelEnablingMessage
[ WorldServer ] <127.0.0.1:59596> Receive QuestListRequestMessage
[ WorldServer ] <127.0.0.1:5556> Send QuestListMessage
[ WorldServer ] <127.0.0.1:59596> Receive MapInformationsRequestMessage
[ WorldServer ] <127.0.0.1:5556> Send MapComplementaryInformationsDataMessage
[ WorldServer ] <127.0.0.1:5556> Send GameRolePlayShowActorMessage
[ WorldServer ] <127.0.0.1:59596> Receive ChatClientMultiMessage
[ WorldServer ] <127.0.0.1:5556> Send GameRolePlayShowActorMessage
[ WorldServer ] <127.0.0.1:5556> Send TextInformationMessage
[ WorldServer ] <127.0.0.1:59596> Receive GameMapMovementRequestMessage
[ WorldServer ] <127.0.0.1:5556> Send GameMapMovementMessage
[ WorldServer ] <127.0.0.1:59596> Receive GameMapMovementConfirmMessage
[ WorldServer ] <127.0.0.1:5556> Send BasicNoOperationMessage
[ WorldServer ] <127.0.0.1:5556> Send LifePointsRegenEndMessage
[ WorldServer ] <127.0.0.1:5556> Send GameContextDestroyMessage
[ WorldServer ] <127.0.0.1:5556> Send GameContextCreateMessage
[ WorldServer ] <127.0.0.1:5556> Send GameFightStartingMessage
[ WorldServer ] <127.0.0.1:5556> Send GameFightJoinMessage
[ WorldServer ] <127.0.0.1:5556> Send GameFightPlacementPossiblePositionsMessage
[ WorldServer ] <127.0.0.1:5556> Send GameFightShowFighterMessage
[ WorldServer ] <127.0.0.1:5556> Send GameFightShowFighterMessage
[ WorldServer ] <127.0.0.1:5556> Send GameEntitiesDispositionMessage
[ WorldServer ] <127.0.0.1:5556> Send GameFightUpdateTeamMessage
[ WorldServer ] <127.0.0.1:5556> Send GameFightUpdateTeamMessage
[ WorldServer ] <127.0.0.1:5556> Send GameFightTurnListMessage
[ WorldServer ] <127.0.0.1:59596> Receive GameFightReadyMessage
[ WorldServer ] <127.0.0.1:5556> Send GameFightHumanReadyStateMessage
[ WorldServer ] <127.0.0.1:5556> Send GameEntitiesDispositionMessage
[ WorldServer ] <127.0.0.1:5556> Send GameFightStartMessage
[ WorldServer ] <127.0.0.1:5556> Send GameFightTurnListMessage
[ WorldServer ] <127.0.0.1:5556> Send GameFightSynchronizeMessage
[ WorldServer ] <127.0.0.1:5556> Send GameFightNewRoundMessage
[ WorldServer ] <127.0.0.1:5556> Send GameFightTurnStartMessage
[ WorldServer ] <127.0.0.1:5556> Send GameFightSynchronizeMessage
[ WorldServer ] <127.0.0.1:5556> Send CharacterStatsListMessage
[ WorldServer ] <127.0.0.1:59596> Receive GameMapMovementRequestMessage
[ WorldServer ] <127.0.0.1:5556> Send SequenceStartMessage
[ WorldServer ] <127.0.0.1:5556> Send GameActionFightPointsVariationMessage
[ WorldServer ] <127.0.0.1:5556> Send GameMapMovementMessage
[ WorldServer ] <127.0.0.1:5556> Send SequenceEndMessage
[ WorldServer ] <127.0.0.1:59596> Receive GameActionAcknowledgementMessage
[ WorldServer ] <127.0.0.1:59596> Receive GameFightTurnFinishMessage
[ WorldServer ] <127.0.0.1:5556> Send GameFightTurnEndMessage
[ WorldServer ] <127.0.0.1:5556> Send GameFightTurnReadyRequestMessage
[ WorldServer ] <127.0.0.1:5556> Send GameFightTurnStartMessage
[ WorldServer ] <127.0.0.1:5556> Send GameFightSynchronizeMessage
[ WorldServer ] <127.0.0.1:5556> Send CharacterStatsListMessage
[ WorldServer ] <127.0.0.1:5556> Send GameFightTurnEndMessage
[ WorldServer ] <127.0.0.1:5556> Send GameFightTurnReadyRequestMessage
[ WorldServer ] <127.0.0.1:5556> Send GameFightNewRoundMessage
[ WorldServer ] <127.0.0.1:5556> Send GameFightTurnStartMessage
[ WorldServer ] <127.0.0.1:5556> Send GameFightSynchronizeMessage
[ WorldServer ] <127.0.0.1:5556> Send CharacterStatsListMessage
[ WorldServer ] <127.0.0.1:59596> Receive GameFightTurnReadyMessage
[ WorldServer ] <127.0.0.1:59596> Receive GameFightTurnReadyMessage
[ WorldServer ] <127.0.0.1:59596> Receive GameMapMovementRequestMessage
[ WorldServer ] <127.0.0.1:5556> Send SequenceStartMessage
[ WorldServer ] <127.0.0.1:5556> Send GameActionFightPointsVariationMessage
[ WorldServer ] <127.0.0.1:5556> Send GameMapMovementMessage
[ WorldServer ] <127.0.0.1:5556> Send SequenceEndMessage
[ WorldServer ] <127.0.0.1:59596> Receive GameActionAcknowledgementMessage
[ WorldServer ] <127.0.0.1:59596> Receive GameFightTurnFinishMessage
[ WorldServer ] <127.0.0.1:5556> Send GameFightTurnEndMessage
[ WorldServer ] <127.0.0.1:5556> Send GameFightTurnReadyRequestMessage
[ WorldServer ] <127.0.0.1:5556> Send GameFightTurnStartMessage
[ WorldServer ] <127.0.0.1:5556> Send GameFightSynchronizeMessage
[ WorldServer ] <127.0.0.1:5556> Send CharacterStatsListMessage
[ WorldServer ] <127.0.0.1:5556> Send GameFightTurnEndMessage
[ WorldServer ] <127.0.0.1:5556> Send GameFightTurnReadyRequestMessage
[ WorldServer ] <127.0.0.1:5556> Send GameFightNewRoundMessage
[ WorldServer ] <127.0.0.1:5556> Send GameFightTurnStartMessage
[ WorldServer ] <127.0.0.1:5556> Send GameFightSynchronizeMessage
[ WorldServer ] <127.0.0.1:5556> Send CharacterStatsListMessage
[ WorldServer ] <127.0.0.1:59596> Receive GameFightTurnReadyMessage
[ WorldServer ] <127.0.0.1:59596> Receive GameFightTurnReadyMessage
[ WorldServer ] <127.0.0.1:59596> Receive GameMapMovementRequestMessage
[ WorldServer ] <127.0.0.1:5556> Send SequenceStartMessage
[ WorldServer ] <127.0.0.1:5556> Send GameActionFightPointsVariationMessage
[ WorldServer ] <127.0.0.1:5556> Send GameMapMovementMessage
[ WorldServer ] <127.0.0.1:5556> Send SequenceEndMessage
[ WorldServer ] <127.0.0.1:59596> Receive GameActionAcknowledgementMessage
[ WorldServer ] <127.0.0.1:59596> Receive GameFightTurnFinishMessage
[ WorldServer ] <127.0.0.1:5556> Send GameFightTurnEndMessage
[ WorldServer ] <127.0.0.1:5556> Send GameFightTurnReadyRequestMessage
[ WorldServer ] <127.0.0.1:5556> Send GameFightTurnStartMessage
[ WorldServer ] <127.0.0.1:5556> Send GameFightSynchronizeMessage
[ WorldServer ] <127.0.0.1:5556> Send CharacterStatsListMessage
[ WorldServer ] <127.0.0.1:5556> Send GameFightTurnEndMessage
[ WorldServer ] <127.0.0.1:5556> Send GameFightTurnReadyRequestMessage
[ WorldServer ] <127.0.0.1:5556> Send GameFightNewRoundMessage
[ WorldServer ] <127.0.0.1:5556> Send GameFightTurnStartMessage
[ WorldServer ] <127.0.0.1:5556> Send GameFightSynchronizeMessage
[ WorldServer ] <127.0.0.1:5556> Send CharacterStatsListMessage
[ WorldServer ] <127.0.0.1:59596> Receive GameFightTurnReadyMessage
[ WorldServer ] <127.0.0.1:59596> Receive GameFightTurnReadyMessage
[ WorldServer ] <127.0.0.1:59596> Receive GameMapMovementRequestMessage
[ WorldServer ] <127.0.0.1:5556> Send SequenceStartMessage
[ WorldServer ] <127.0.0.1:5556> Send GameActionFightPointsVariationMessage
[ WorldServer ] <127.0.0.1:5556> Send GameMapMovementMessage
[ WorldServer ] <127.0.0.1:5556> Send SequenceEndMessage
[ WorldServer ] <127.0.0.1:59596> Receive GameActionAcknowledgementMessage
[ WorldServer ] <127.0.0.1:59596> Receive GameActionFightCastRequestMessage
[ WorldServer ] <127.0.0.1:5556> Send SequenceStartMessage
[ WorldServer ] <127.0.0.1:5556> Send GameActionFightSpellCastMessage
[ WorldServer ] <127.0.0.1:5556> Send GameActionFightPointsVariationMessage
[ WorldServer ] <127.0.0.1:5556> Send GameActionFightLifePointsVariationMessage
[ WorldServer ] <127.0.0.1:5556> Send SequenceEndMessage
[ WorldServer ] <127.0.0.1:59596> Receive GameActionAcknowledgementMessage
[ WorldServer ] <127.0.0.1:59596> Receive GameFightTurnFinishMessage
[ WorldServer ] <127.0.0.1:5556> Send GameFightTurnEndMessage
[ WorldServer ] <127.0.0.1:5556> Send GameFightTurnReadyRequestMessage
[ WorldServer ] <127.0.0.1:5556> Send GameFightTurnStartMessage
[ WorldServer ] <127.0.0.1:5556> Send GameFightSynchronizeMessage
[ WorldServer ] <127.0.0.1:5556> Send CharacterStatsListMessage
[ WorldServer ] <127.0.0.1:5556> Send GameFightTurnEndMessage
[ WorldServer ] <127.0.0.1:5556> Send GameFightTurnReadyRequestMessage
[ WorldServer ] <127.0.0.1:5556> Send GameFightNewRoundMessage
[ WorldServer ] <127.0.0.1:5556> Send GameFightTurnStartMessage
[ WorldServer ] <127.0.0.1:5556> Send GameFightSynchronizeMessage
[ WorldServer ] <127.0.0.1:5556> Send CharacterStatsListMessage
[ WorldServer ] <127.0.0.1:59596> Receive GameFightTurnReadyMessage
[ WorldServer ] <127.0.0.1:59596> Receive GameFightTurnReadyMessage
[ WorldServer ] <127.0.0.1:59596> Receive GameActionFightCastRequestMessage
[ WorldServer ] <127.0.0.1:5556> Send SequenceStartMessage
[ WorldServer ] <127.0.0.1:5556> Send GameActionFightSpellCastMessage
[ WorldServer ] <127.0.0.1:5556> Send GameActionFightPointsVariationMessage
[ WorldServer ] <127.0.0.1:5556> Send GameActionFightLifePointsVariationMessage
[ WorldServer ] <127.0.0.1:5556> Send SequenceStartMessage
[ WorldServer ] <127.0.0.1:5556> Send GameActionFightDeathMessage
[ WorldServer ] <127.0.0.1:5556> Send SequenceEndMessage
[ WorldServer ] <127.0.0.1:5556> Send SequenceEndMessage
[ WorldServer ] <127.0.0.1:5556> Send ObjectAddedMessage
[ WorldServer ] <127.0.0.1:5556> Send InventoryWeightMessage
[ WorldServer ] <127.0.0.1:5556> Send ObjectAddedMessage
[ WorldServer ] <127.0.0.1:5556> Send InventoryWeightMessage
[ WorldServer ] <127.0.0.1:5556> Send QuestObjectiveValidatedMessage
[ WorldServer ] <127.0.0.1:5556> Send GameFightEndMessage
[ WorldServer ] <127.0.0.1:5556> Send GameContextDestroyMessage
[ WorldServer ] <127.0.0.1:5556> Send GameContextCreateMessage
[ WorldServer ] <127.0.0.1:5556> Send CharacterStatsListMessage
[ WorldServer ] <127.0.0.1:5556> Send CurrentMapMessage
[ WorldServer ] <127.0.0.1:59596> Receive GameActionAcknowledgementMessage
[ WorldServer ] <127.0.0.1:59596> Receive MapInformationsRequestMessage
[ WorldServer ] <127.0.0.1:5556> Send MapComplementaryInformationsDataMessage
[ WorldServer ] <127.0.0.1:5556> Send GameRolePlayShowActorMessage
[ WorldServer ] <127.0.0.1:59596> Receive GameMapMovementRequestMessage
[ WorldServer ] <127.0.0.1:5556> Send GameMapMovementMessage
[ WorldServer ] <127.0.0.1:59596> Receive GameMapMovementConfirmMessage
[ WorldServer ] <127.0.0.1:5556> Send BasicNoOperationMessage
[ Info ] Starting IPC Auth 127.0.0.1:443
[ Info ] Starting IPC World 127.0.0.1:5556
[ Info ] Client <127.0.0.1:59639> connected to AuthServer...
[ AuthServer ] <127.0.0.1:443> Send ProtocolRequired
[ AuthServer ] <127.0.0.1:443> Send HelloConnectMessage
[ AuthServer ] <127.0.0.1:59639> Receive IdentificationMessage
[ AuthServer ] <127.0.0.1:443> Send IdentificationSuccessMessage
[ AuthServer ] <127.0.0.1:443> Send ServersListMessage
[ AuthServer ] <127.0.0.1:59639> Receive ServerSelectionMessage
[ AuthServer ] <127.0.0.1:443> Send SelectedServerDataMessage
[ Info ] Client <127.0.0.1:59639> disconnected from AuthServer...
[ Info ] Client <127.0.0.1:59640> connected to WorldServer...
[ WorldServer ] <127.0.0.1:5556> Send ProtocolRequired
[ WorldServer ] <127.0.0.1:5556> Send HelloGameMessage
[ WorldServer ] <127.0.0.1:59640> Receive AuthenticationTicketMessage
[ WorldServer ] <127.0.0.1:5556> Send AuthenticationTicketAcceptedMessage
[ WorldServer ] <127.0.0.1:5556> Send BasicTimeMessage
[ WorldServer ] <127.0.0.1:5556> Send AccountCapabilitiesMessage
[ WorldServer ] <127.0.0.1:5556> Send TrustStatusMessage
[ WorldServer ] <127.0.0.1:59640> Receive CharactersListRequestMessage
[ WorldServer ] <127.0.0.1:5556> Send CharactersListMessage
[ WorldServer ] <127.0.0.1:59640> Receive CharacterSelectionMessage
[ WorldServer ] <127.0.0.1:5556> Send CharacterSelectedSuccessMessage
[ WorldServer ] <127.0.0.1:5556> Send InventoryContentMessage
[ WorldServer ] <127.0.0.1:5556> Send ShortcutBarContentMessage
[ WorldServer ] <127.0.0.1:5556> Send ShortcutBarContentMessage
[ WorldServer ] <127.0.0.1:5556> Send EmoteListMessage
[ WorldServer ] <127.0.0.1:5556> Send EnabledChannelsMessage
[ WorldServer ] <127.0.0.1:5556> Send AlignmentRankUpdateMessage
[ WorldServer ] <127.0.0.1:5556> Send AlignmentSubAreasListMessage
[ WorldServer ] <127.0.0.1:5556> Send SpellListMessage
[ WorldServer ] <127.0.0.1:5556> Send InventoryWeightMessage
[ WorldServer ] <127.0.0.1:5556> Send CharacterStatsListMessage
[ WorldServer ] <127.0.0.1:5556> Send JobDescriptionMessage
[ WorldServer ] <127.0.0.1:5556> Send JobExperienceMultiUpdateMessage
[ WorldServer ] <127.0.0.1:5556> Send JobCrafterDirectorySettingsMessage
[ WorldServer ] <127.0.0.1:5556> Send TextInformationMessage
[ WorldServer ] <127.0.0.1:5556> Send LifePointsRegenBeginMessage
[ WorldServer ] <127.0.0.1:59640> Receive IgnoredGetListMessage
[ WorldServer ] <127.0.0.1:5556> Send IgnoredListMessage
[ WorldServer ] <127.0.0.1:59640> Receive GameContextCreateRequestMessage
[ WorldServer ] <127.0.0.1:5556> Send GameContextDestroyMessage
[ WorldServer ] <127.0.0.1:5556> Send GameContextCreateMessage
[ WorldServer ] <127.0.0.1:5556> Send CurrentMapMessage
[ WorldServer ] <127.0.0.1:59640> Receive QuestListRequestMessage
[ WorldServer ] <127.0.0.1:5556> Send QuestListMessage
[ WorldServer ] <127.0.0.1:59640> Receive ChannelEnablingMessage
[ WorldServer ] <127.0.0.1:59640> Receive ChannelEnablingMessage
[ WorldServer ] <127.0.0.1:59640> Receive QuestListRequestMessage
[ WorldServer ] <127.0.0.1:5556> Send QuestListMessage
[ WorldServer ] <127.0.0.1:59640> Receive MapInformationsRequestMessage
[ WorldServer ] <127.0.0.1:5556> Send MapComplementaryInformationsDataMessage
[ WorldServer ] <127.0.0.1:5556> Send GameRolePlayShowActorMessage
[ WorldServer ] <127.0.0.1:59640> Receive ChatClientMultiMessage
[ WorldServer ] <127.0.0.1:5556> Send GameRolePlayShowActorMessage
[ WorldServer ] <127.0.0.1:5556> Send TextInformationMessage
[ WorldServer ] <127.0.0.1:59640> Receive ChatClientMultiMessage
[ WorldServer ] <127.0.0.1:5556> Send GameRolePlayShowActorMessage
[ WorldServer ] <127.0.0.1:5556> Send TextInformationMessage
[ WorldServer ] <127.0.0.1:59640> Receive ChatClientMultiMessage
[ WorldServer ] <127.0.0.1:5556> Send GameRolePlayShowActorMessage
[ WorldServer ] <127.0.0.1:5556> Send TextInformationMessage
[ WorldServer ] <127.0.0.1:59640> Receive GameMapMovementRequestMessage
[ WorldServer ] <127.0.0.1:5556> Send GameMapMovementMessage
[ WorldServer ] <127.0.0.1:59640> Receive GameMapMovementConfirmMessage
[ WorldServer ] <127.0.0.1:5556> Send BasicNoOperationMessage
[ WorldServer ] <127.0.0.1:5556> Send LifePointsRegenEndMessage
[ WorldServer ] <127.0.0.1:5556> Send GameContextDestroyMessage
[ WorldServer ] <127.0.0.1:5556> Send GameContextCreateMessage
[ WorldServer ] <127.0.0.1:5556> Send GameFightStartingMessage
[ WorldServer ] <127.0.0.1:5556> Send GameFightJoinMessage
[ WorldServer ] <127.0.0.1:5556> Send GameFightPlacementPossiblePositionsMessage
[ WorldServer ] <127.0.0.1:5556> Send GameFightShowFighterMessage
[ WorldServer ] <127.0.0.1:5556> Send GameFightShowFighterMessage
[ WorldServer ] <127.0.0.1:5556> Send GameFightShowFighterMessage
[ WorldServer ] <127.0.0.1:5556> Send GameFightShowFighterMessage
[ WorldServer ] <127.0.0.1:5556> Send GameFightShowFighterMessage
[ WorldServer ] <127.0.0.1:5556> Send GameEntitiesDispositionMessage
[ WorldServer ] <127.0.0.1:5556> Send GameFightUpdateTeamMessage
[ WorldServer ] <127.0.0.1:5556> Send GameFightUpdateTeamMessage
[ WorldServer ] <127.0.0.1:5556> Send GameFightTurnListMessage
[ WorldServer ] <127.0.0.1:59640> Receive GameFightReadyMessage
[ WorldServer ] <127.0.0.1:5556> Send GameFightHumanReadyStateMessage
[ WorldServer ] <127.0.0.1:5556> Send GameEntitiesDispositionMessage
[ WorldServer ] <127.0.0.1:5556> Send GameFightStartMessage
[ WorldServer ] <127.0.0.1:5556> Send GameFightTurnListMessage
[ WorldServer ] <127.0.0.1:5556> Send GameFightSynchronizeMessage
[ WorldServer ] <127.0.0.1:5556> Send GameFightNewRoundMessage
[ WorldServer ] <127.0.0.1:5556> Send GameFightTurnStartMessage
[ WorldServer ] <127.0.0.1:5556> Send GameFightSynchronizeMessage
[ WorldServer ] <127.0.0.1:5556> Send CharacterStatsListMessage
[ WorldServer ] <127.0.0.1:59640> Receive GameMapMovementRequestMessage
[ WorldServer ] <127.0.0.1:5556> Send SequenceStartMessage
[ WorldServer ] <127.0.0.1:5556> Send GameActionFightPointsVariationMessage
[ WorldServer ] <127.0.0.1:5556> Send GameMapMovementMessage
[ WorldServer ] <127.0.0.1:5556> Send SequenceEndMessage
[ WorldServer ] <127.0.0.1:59640> Receive GameActionAcknowledgementMessage
[ WorldServer ] <127.0.0.1:59640> Receive GameFightTurnFinishMessage
[ WorldServer ] <127.0.0.1:5556> Send GameFightTurnEndMessage
[ WorldServer ] <127.0.0.1:5556> Send GameFightTurnReadyRequestMessage
[ WorldServer ] <127.0.0.1:5556> Send GameFightTurnStartMessage
[ WorldServer ] <127.0.0.1:5556> Send GameFightSynchronizeMessage
[ WorldServer ] <127.0.0.1:5556> Send CharacterStatsListMessage
[ WorldServer ] <127.0.0.1:5556> Send GameFightTurnEndMessage
[ WorldServer ] <127.0.0.1:5556> Send GameFightTurnReadyRequestMessage
[ WorldServer ] <127.0.0.1:5556> Send GameFightTurnStartMessage
[ WorldServer ] <127.0.0.1:5556> Send GameFightSynchronizeMessage
[ WorldServer ] <127.0.0.1:5556> Send CharacterStatsListMessage
[ WorldServer ] <127.0.0.1:5556> Send GameFightTurnEndMessage
[ WorldServer ] <127.0.0.1:5556> Send GameFightTurnReadyRequestMessage
[ WorldServer ] <127.0.0.1:5556> Send GameFightTurnStartMessage
[ WorldServer ] <127.0.0.1:5556> Send GameFightSynchronizeMessage
[ WorldServer ] <127.0.0.1:5556> Send CharacterStatsListMessage
[ WorldServer ] <127.0.0.1:5556> Send GameFightTurnEndMessage
[ WorldServer ] <127.0.0.1:5556> Send GameFightTurnReadyRequestMessage
[ WorldServer ] <127.0.0.1:5556> Send GameFightTurnStartMessage
[ WorldServer ] <127.0.0.1:5556> Send GameFightSynchronizeMessage
[ WorldServer ] <127.0.0.1:5556> Send CharacterStatsListMessage
[ WorldServer ] <127.0.0.1:5556> Send GameFightTurnEndMessage
[ WorldServer ] <127.0.0.1:5556> Send GameFightTurnReadyRequestMessage
[ WorldServer ] <127.0.0.1:5556> Send GameFightNewRoundMessage
[ WorldServer ] <127.0.0.1:5556> Send GameFightTurnStartMessage
[ WorldServer ] <127.0.0.1:5556> Send GameFightSynchronizeMessage
[ WorldServer ] <127.0.0.1:5556> Send CharacterStatsListMessage
[ WorldServer ] <127.0.0.1:59640> Receive GameFightTurnReadyMessage
[ WorldServer ] <127.0.0.1:59640> Receive GameFightTurnReadyMessage
[ WorldServer ] <127.0.0.1:59640> Receive GameFightTurnReadyMessage
[ WorldServer ] <127.0.0.1:59640> Receive GameFightTurnReadyMessage
[ WorldServer ] <127.0.0.1:59640> Receive GameFightTurnReadyMessage
[ WorldServer ] <127.0.0.1:59640> Receive GameMapMovementRequestMessage
[ WorldServer ] <127.0.0.1:5556> Send SequenceStartMessage
[ WorldServer ] <127.0.0.1:5556> Send GameActionFightPointsVariationMessage
[ WorldServer ] <127.0.0.1:5556> Send GameMapMovementMessage
[ WorldServer ] <127.0.0.1:5556> Send SequenceEndMessage
[ WorldServer ] <127.0.0.1:59640> Receive GameActionAcknowledgementMessage
[ WorldServer ] <127.0.0.1:59640> Receive GameActionFightCastRequestMessage
[ WorldServer ] <127.0.0.1:5556> Send SequenceStartMessage
[ WorldServer ] <127.0.0.1:5556> Send GameActionFightSpellCastMessage
[ WorldServer ] <127.0.0.1:5556> Send GameActionFightPointsVariationMessage
[ WorldServer ] <127.0.0.1:5556> Send GameActionFightLifePointsVariationMessage
[ WorldServer ] <127.0.0.1:5556> Send SequenceStartMessage
[ WorldServer ] <127.0.0.1:5556> Send GameActionFightDeathMessage
[ WorldServer ] <127.0.0.1:5556> Send SequenceEndMessage
[ WorldServer ] <127.0.0.1:5556> Send SequenceEndMessage
[ WorldServer ] <127.0.0.1:59640> Receive GameFightTurnFinishMessage
[ WorldServer ] <127.0.0.1:5556> Send GameFightTurnEndMessage
[ WorldServer ] <127.0.0.1:5556> Send GameFightTurnReadyRequestMessage
[ WorldServer ] <127.0.0.1:5556> Send GameFightTurnStartMessage
[ WorldServer ] <127.0.0.1:5556> Send GameFightSynchronizeMessage
[ WorldServer ] <127.0.0.1:5556> Send CharacterStatsListMessage
[ WorldServer ] <127.0.0.1:5556> Send GameFightTurnEndMessage
[ WorldServer ] <127.0.0.1:5556> Send GameFightTurnReadyRequestMessage
[ WorldServer ] <127.0.0.1:5556> Send GameFightTurnStartMessage
[ WorldServer ] <127.0.0.1:5556> Send GameFightSynchronizeMessage
[ WorldServer ] <127.0.0.1:5556> Send CharacterStatsListMessage
[ WorldServer ] <127.0.0.1:5556> Send GameFightTurnEndMessage
[ WorldServer ] <127.0.0.1:5556> Send GameFightTurnReadyRequestMessage
[ WorldServer ] <127.0.0.1:5556> Send GameFightTurnStartMessage
[ WorldServer ] <127.0.0.1:5556> Send GameFightSynchronizeMessage
[ WorldServer ] <127.0.0.1:5556> Send CharacterStatsListMessage
[ WorldServer ] <127.0.0.1:5556> Send GameFightTurnEndMessage
[ WorldServer ] <127.0.0.1:5556> Send GameFightTurnReadyRequestMessage
[ WorldServer ] <127.0.0.1:5556> Send GameFightNewRoundMessage
[ WorldServer ] <127.0.0.1:5556> Send GameFightTurnStartMessage
[ WorldServer ] <127.0.0.1:5556> Send GameFightSynchronizeMessage
[ WorldServer ] <127.0.0.1:5556> Send CharacterStatsListMessage
[ WorldServer ] <127.0.0.1:59640> Receive GameActionAcknowledgementMessage
[ WorldServer ] <127.0.0.1:59640> Receive GameFightTurnReadyMessage
[ WorldServer ] <127.0.0.1:59640> Receive GameFightTurnReadyMessage
[ WorldServer ] <127.0.0.1:59640> Receive GameFightTurnReadyMessage
[ WorldServer ] <127.0.0.1:59640> Receive GameFightTurnReadyMessage
[ WorldServer ] <127.0.0.1:59640> Receive GameMapMovementRequestMessage
[ WorldServer ] <127.0.0.1:5556> Send SequenceStartMessage
[ WorldServer ] <127.0.0.1:5556> Send GameActionFightPointsVariationMessage
[ WorldServer ] <127.0.0.1:5556> Send GameMapMovementMessage
[ WorldServer ] <127.0.0.1:5556> Send SequenceEndMessage
[ WorldServer ] <127.0.0.1:59640> Receive GameActionAcknowledgementMessage
[ WorldServer ] <127.0.0.1:59640> Receive GameActionFightCastRequestMessage
[ WorldServer ] <127.0.0.1:5556> Send SequenceStartMessage
[ WorldServer ] <127.0.0.1:5556> Send GameActionFightSpellCastMessage
[ WorldServer ] <127.0.0.1:5556> Send GameActionFightPointsVariationMessage
[ WorldServer ] <127.0.0.1:5556> Send GameActionFightLifePointsVariationMessage
[ WorldServer ] <127.0.0.1:5556> Send GameActionFightLifePointsVariationMessage
[ WorldServer ] <127.0.0.1:5556> Send SequenceStartMessage
[ WorldServer ] <127.0.0.1:5556> Send GameActionFightDeathMessage
[ WorldServer ] <127.0.0.1:5556> Send SequenceEndMessage
[ WorldServer ] <127.0.0.1:5556> Send SequenceEndMessage
[ WorldServer ] <127.0.0.1:59640> Receive GameFightTurnFinishMessage
[ WorldServer ] <127.0.0.1:5556> Send GameFightTurnEndMessage
[ WorldServer ] <127.0.0.1:5556> Send GameFightTurnReadyRequestMessage
[ WorldServer ] <127.0.0.1:5556> Send GameFightTurnStartMessage
[ WorldServer ] <127.0.0.1:5556> Send GameFightSynchronizeMessage
[ WorldServer ] <127.0.0.1:5556> Send CharacterStatsListMessage
[ WorldServer ] <127.0.0.1:5556> Send GameFightTurnEndMessage
[ WorldServer ] <127.0.0.1:5556> Send GameFightTurnReadyRequestMessage
[ WorldServer ] <127.0.0.1:5556> Send GameFightTurnStartMessage
[ WorldServer ] <127.0.0.1:5556> Send GameFightSynchronizeMessage
[ WorldServer ] <127.0.0.1:5556> Send CharacterStatsListMessage
[ WorldServer ] <127.0.0.1:5556> Send GameFightTurnEndMessage
[ WorldServer ] <127.0.0.1:5556> Send GameFightTurnReadyRequestMessage
[ WorldServer ] <127.0.0.1:5556> Send GameFightNewRoundMessage
[ WorldServer ] <127.0.0.1:5556> Send GameFightTurnStartMessage
[ WorldServer ] <127.0.0.1:5556> Send GameFightSynchronizeMessage
[ WorldServer ] <127.0.0.1:5556> Send CharacterStatsListMessage
[ WorldServer ] <127.0.0.1:59640> Receive GameActionAcknowledgementMessage
[ WorldServer ] <127.0.0.1:59640> Receive GameFightTurnReadyMessage
[ WorldServer ] <127.0.0.1:59640> Receive GameFightTurnReadyMessage
[ WorldServer ] <127.0.0.1:59640> Receive GameFightTurnReadyMessage
[ WorldServer ] <127.0.0.1:59640> Receive GameMapMovementRequestMessage
[ WorldServer ] <127.0.0.1:5556> Send SequenceStartMessage
[ WorldServer ] <127.0.0.1:5556> Send GameActionFightPointsVariationMessage
[ WorldServer ] <127.0.0.1:5556> Send GameMapMovementMessage
[ WorldServer ] <127.0.0.1:5556> Send SequenceEndMessage
[ WorldServer ] <127.0.0.1:59640> Receive GameActionAcknowledgementMessage
[ WorldServer ] <127.0.0.1:59640> Receive GameActionFightCastRequestMessage
[ WorldServer ] <127.0.0.1:5556> Send SequenceStartMessage
[ WorldServer ] <127.0.0.1:5556> Send GameActionFightSpellCastMessage
[ WorldServer ] <127.0.0.1:5556> Send GameActionFightPointsVariationMessage
[ WorldServer ] <127.0.0.1:5556> Send GameActionFightLifePointsVariationMessage
[ WorldServer ] <127.0.0.1:5556> Send SequenceStartMessage
[ WorldServer ] <127.0.0.1:5556> Send GameActionFightDeathMessage
[ WorldServer ] <127.0.0.1:5556> Send SequenceEndMessage
[ WorldServer ] <127.0.0.1:5556> Send GameActionFightLifePointsVariationMessage
[ WorldServer ] <127.0.0.1:5556> Send SequenceStartMessage
[ WorldServer ] <127.0.0.1:5556> Send GameActionFightDeathMessage
[ WorldServer ] <127.0.0.1:5556> Send SequenceEndMessage
[ WorldServer ] <127.0.0.1:5556> Send SequenceEndMessage
[ WorldServer ] <127.0.0.1:5556> Send ObjectAddedMessage
[ WorldServer ] <127.0.0.1:5556> Send InventoryWeightMessage
[ WorldServer ] <127.0.0.1:5556> Send ObjectModifiedMessage
[ WorldServer ] <127.0.0.1:5556> Send InventoryWeightMessage
[ WorldServer ] <127.0.0.1:5556> Send ObjectAddedMessage
[ WorldServer ] <127.0.0.1:5556> Send InventoryWeightMessage
[ WorldServer ] <127.0.0.1:5556> Send ObjectAddedMessage
[ WorldServer ] <127.0.0.1:5556> Send InventoryWeightMessage
[ WorldServer ] <127.0.0.1:5556> Send ObjectModifiedMessage
[ WorldServer ] <127.0.0.1:5556> Send InventoryWeightMessage
[ WorldServer ] <127.0.0.1:5556> Send ObjectModifiedMessage
[ WorldServer ] <127.0.0.1:5556> Send InventoryWeightMessage
[ WorldServer ] <127.0.0.1:5556> Send ObjectModifiedMessage
[ WorldServer ] <127.0.0.1:5556> Send InventoryWeightMessage
[ WorldServer ] <127.0.0.1:5556> Send QuestObjectiveValidatedMessage
[ WorldServer ] <127.0.0.1:5556> Send GameFightEndMessage
[ WorldServer ] <127.0.0.1:5556> Send GameContextDestroyMessage
[ WorldServer ] <127.0.0.1:5556> Send GameContextCreateMessage
[ WorldServer ] <127.0.0.1:5556> Send CharacterStatsListMessage
[ WorldServer ] <127.0.0.1:5556> Send CurrentMapMessage
[ WorldServer ] <127.0.0.1:59640> Receive GameActionAcknowledgementMessage
[ WorldServer ] <127.0.0.1:59640> Receive MapInformationsRequestMessage
[ WorldServer ] <127.0.0.1:5556> Send MapComplementaryInformationsDataMessage
[ WorldServer ] <127.0.0.1:5556> Send GameRolePlayShowActorMessage
[ WorldServer ] <127.0.0.1:59640> Receive QuestListRequestMessage
[ WorldServer ] <127.0.0.1:5556> Send QuestListMessage
[ WorldServer ] <127.0.0.1:59640> Receive QuestStepInfoRequestMessage
[ WorldServer ] <127.0.0.1:59640> Receive GameMapMovementRequestMessage
[ WorldServer ] <127.0.0.1:5556> Send GameMapMovementMessage
[ WorldServer ] <127.0.0.1:59640> Receive GameMapMovementConfirmMessage
[ WorldServer ] <127.0.0.1:5556> Send BasicNoOperationMessage
[ Info ] Starting IPC Auth 127.0.0.1:443
[ Info ] Starting IPC World 127.0.0.1:5556
[ Info ] Client <127.0.0.1:59663> connected to AuthServer...
[ AuthServer ] <127.0.0.1:443> Send ProtocolRequired
[ AuthServer ] <127.0.0.1:443> Send HelloConnectMessage
[ AuthServer ] <127.0.0.1:59663> Receive IdentificationMessage
[ AuthServer ] <127.0.0.1:443> Send IdentificationSuccessMessage
[ AuthServer ] <127.0.0.1:443> Send ServersListMessage
[ AuthServer ] <127.0.0.1:59663> Receive ServerSelectionMessage
[ AuthServer ] <127.0.0.1:443> Send SelectedServerDataMessage
[ Info ] Client <127.0.0.1:59663> disconnected from AuthServer...
[ Info ] Client <127.0.0.1:59664> connected to WorldServer...
[ WorldServer ] <127.0.0.1:5556> Send ProtocolRequired
[ WorldServer ] <127.0.0.1:5556> Send HelloGameMessage
[ WorldServer ] <127.0.0.1:59664> Receive AuthenticationTicketMessage
[ WorldServer ] <127.0.0.1:5556> Send AuthenticationTicketAcceptedMessage
[ WorldServer ] <127.0.0.1:5556> Send BasicTimeMessage
[ WorldServer ] <127.0.0.1:5556> Send AccountCapabilitiesMessage
[ WorldServer ] <127.0.0.1:5556> Send TrustStatusMessage
[ WorldServer ] <127.0.0.1:59664> Receive CharactersListRequestMessage
[ WorldServer ] <127.0.0.1:5556> Send CharactersListMessage
[ WorldServer ] <127.0.0.1:59664> Receive CharacterSelectionMessage
[ WorldServer ] <127.0.0.1:5556> Send CharacterSelectedSuccessMessage
[ WorldServer ] <127.0.0.1:5556> Send InventoryContentMessage
[ WorldServer ] <127.0.0.1:5556> Send ShortcutBarContentMessage
[ WorldServer ] <127.0.0.1:5556> Send ShortcutBarContentMessage
[ WorldServer ] <127.0.0.1:5556> Send EmoteListMessage
[ WorldServer ] <127.0.0.1:5556> Send EnabledChannelsMessage
[ WorldServer ] <127.0.0.1:5556> Send AlignmentRankUpdateMessage
[ WorldServer ] <127.0.0.1:5556> Send AlignmentSubAreasListMessage
[ WorldServer ] <127.0.0.1:5556> Send SpellListMessage
[ WorldServer ] <127.0.0.1:5556> Send InventoryWeightMessage
[ WorldServer ] <127.0.0.1:5556> Send CharacterStatsListMessage
[ WorldServer ] <127.0.0.1:5556> Send JobDescriptionMessage
[ WorldServer ] <127.0.0.1:5556> Send JobExperienceMultiUpdateMessage
[ WorldServer ] <127.0.0.1:5556> Send JobCrafterDirectorySettingsMessage
[ WorldServer ] <127.0.0.1:5556> Send TextInformationMessage
[ WorldServer ] <127.0.0.1:5556> Send LifePointsRegenBeginMessage
[ WorldServer ] <127.0.0.1:59664> Receive IgnoredGetListMessage
[ WorldServer ] <127.0.0.1:5556> Send IgnoredListMessage
[ WorldServer ] <127.0.0.1:59664> Receive GameContextCreateRequestMessage
[ WorldServer ] <127.0.0.1:5556> Send GameContextDestroyMessage
[ WorldServer ] <127.0.0.1:5556> Send GameContextCreateMessage
[ WorldServer ] <127.0.0.1:5556> Send CurrentMapMessage
[ WorldServer ] <127.0.0.1:59664> Receive QuestListRequestMessage
[ WorldServer ] <127.0.0.1:5556> Send QuestListMessage
[ WorldServer ] <127.0.0.1:59664> Receive ChannelEnablingMessage
[ WorldServer ] <127.0.0.1:59664> Receive ChannelEnablingMessage
[ WorldServer ] <127.0.0.1:59664> Receive QuestListRequestMessage
[ WorldServer ] <127.0.0.1:5556> Send QuestListMessage
[ WorldServer ] <127.0.0.1:59664> Receive MapInformationsRequestMessage
[ WorldServer ] <127.0.0.1:5556> Send MapComplementaryInformationsDataMessage
[ WorldServer ] <127.0.0.1:5556> Send GameRolePlayShowActorMessage
[ WorldServer ] <127.0.0.1:59664> Receive ChatClientMultiMessage
[ WorldServer ] <127.0.0.1:5556> Send GameRolePlayShowActorMessage
[ WorldServer ] <127.0.0.1:5556> Send TextInformationMessage
[ WorldServer ] <127.0.0.1:59664> Receive ChatClientMultiMessage
[ WorldServer ] <127.0.0.1:5556> Send GameRolePlayShowActorMessage
[ WorldServer ] <127.0.0.1:5556> Send TextInformationMessage
[ WorldServer ] <127.0.0.1:59664> Receive GameMapMovementRequestMessage
[ WorldServer ] <127.0.0.1:5556> Send GameMapMovementMessage
[ WorldServer ] <127.0.0.1:59664> Receive GameMapMovementConfirmMessage
[ WorldServer ] <127.0.0.1:5556> Send BasicNoOperationMessage
[ WorldServer ] <127.0.0.1:59664> Receive GameMapMovementRequestMessage
[ WorldServer ] <127.0.0.1:5556> Send GameMapMovementMessage
[ WorldServer ] <127.0.0.1:59664> Receive GameMapMovementConfirmMessage
[ WorldServer ] <127.0.0.1:5556> Send BasicNoOperationMessage
[ WorldServer ] <127.0.0.1:5556> Send LifePointsRegenEndMessage
[ WorldServer ] <127.0.0.1:5556> Send GameContextDestroyMessage
[ WorldServer ] <127.0.0.1:5556> Send GameContextCreateMessage
[ WorldServer ] <127.0.0.1:5556> Send GameFightStartingMessage
[ WorldServer ] <127.0.0.1:5556> Send GameFightJoinMessage
[ WorldServer ] <127.0.0.1:5556> Send GameFightPlacementPossiblePositionsMessage
[ WorldServer ] <127.0.0.1:5556> Send GameFightShowFighterMessage
[ WorldServer ] <127.0.0.1:5556> Send GameFightShowFighterMessage
[ WorldServer ] <127.0.0.1:5556> Send GameFightShowFighterMessage
[ WorldServer ] <127.0.0.1:5556> Send GameEntitiesDispositionMessage
[ WorldServer ] <127.0.0.1:5556> Send GameFightUpdateTeamMessage
[ WorldServer ] <127.0.0.1:5556> Send GameFightUpdateTeamMessage
[ WorldServer ] <127.0.0.1:5556> Send GameFightTurnListMessage
[ WorldServer ] <127.0.0.1:59664> Receive GameFightReadyMessage
[ WorldServer ] <127.0.0.1:5556> Send GameFightHumanReadyStateMessage
[ WorldServer ] <127.0.0.1:5556> Send GameEntitiesDispositionMessage
[ WorldServer ] <127.0.0.1:5556> Send GameFightStartMessage
[ WorldServer ] <127.0.0.1:5556> Send GameFightTurnListMessage
[ WorldServer ] <127.0.0.1:5556> Send GameFightSynchronizeMessage
[ WorldServer ] <127.0.0.1:5556> Send GameFightNewRoundMessage
[ WorldServer ] <127.0.0.1:5556> Send GameFightTurnStartMessage
[ WorldServer ] <127.0.0.1:5556> Send GameFightSynchronizeMessage
[ WorldServer ] <127.0.0.1:5556> Send CharacterStatsListMessage
[ WorldServer ] <127.0.0.1:59664> Receive GameMapMovementRequestMessage
[ WorldServer ] <127.0.0.1:5556> Send SequenceStartMessage
[ WorldServer ] <127.0.0.1:5556> Send GameActionFightPointsVariationMessage
[ WorldServer ] <127.0.0.1:5556> Send GameMapMovementMessage
[ WorldServer ] <127.0.0.1:5556> Send SequenceEndMessage
[ WorldServer ] <127.0.0.1:59664> Receive GameActionAcknowledgementMessage
[ WorldServer ] <127.0.0.1:59664> Receive GameFightTurnFinishMessage
[ WorldServer ] <127.0.0.1:5556> Send GameFightTurnEndMessage
[ WorldServer ] <127.0.0.1:5556> Send GameFightTurnReadyRequestMessage
[ WorldServer ] <127.0.0.1:5556> Send GameFightTurnStartMessage
[ WorldServer ] <127.0.0.1:5556> Send GameFightSynchronizeMessage
[ WorldServer ] <127.0.0.1:5556> Send CharacterStatsListMessage
[ WorldServer ] <127.0.0.1:5556> Send GameFightTurnEndMessage
[ WorldServer ] <127.0.0.1:5556> Send GameFightTurnReadyRequestMessage
[ WorldServer ] <127.0.0.1:5556> Send GameFightTurnStartMessage
[ WorldServer ] <127.0.0.1:5556> Send GameFightSynchronizeMessage
[ WorldServer ] <127.0.0.1:5556> Send CharacterStatsListMessage
[ WorldServer ] <127.0.0.1:5556> Send GameFightTurnEndMessage
[ WorldServer ] <127.0.0.1:5556> Send GameFightTurnReadyRequestMessage
[ WorldServer ] <127.0.0.1:5556> Send GameFightNewRoundMessage
[ WorldServer ] <127.0.0.1:5556> Send GameFightTurnStartMessage
[ WorldServer ] <127.0.0.1:5556> Send GameFightSynchronizeMessage
[ WorldServer ] <127.0.0.1:5556> Send CharacterStatsListMessage
[ WorldServer ] <127.0.0.1:59664> Receive GameFightTurnReadyMessage
[ WorldServer ] <127.0.0.1:59664> Receive GameFightTurnReadyMessage
[ WorldServer ] <127.0.0.1:59664> Receive GameFightTurnReadyMessage
[ WorldServer ] <127.0.0.1:59664> Receive GameMapMovementRequestMessage
[ WorldServer ] <127.0.0.1:5556> Send SequenceStartMessage
[ WorldServer ] <127.0.0.1:5556> Send GameActionFightPointsVariationMessage
[ WorldServer ] <127.0.0.1:5556> Send GameMapMovementMessage
[ WorldServer ] <127.0.0.1:5556> Send SequenceEndMessage
[ WorldServer ] <127.0.0.1:59664> Receive GameActionAcknowledgementMessage
[ WorldServer ] <127.0.0.1:59664> Receive GameActionFightCastRequestMessage
[ WorldServer ] <127.0.0.1:5556> Send SequenceStartMessage
[ WorldServer ] <127.0.0.1:5556> Send GameActionFightSpellCastMessage
[ WorldServer ] <127.0.0.1:5556> Send GameActionFightPointsVariationMessage
[ WorldServer ] <127.0.0.1:5556> Send GameActionFightLifePointsVariationMessage
[ WorldServer ] <127.0.0.1:5556> Send SequenceStartMessage
[ WorldServer ] <127.0.0.1:5556> Send GameActionFightDeathMessage
[ WorldServer ] <127.0.0.1:5556> Send SequenceEndMessage
[ WorldServer ] <127.0.0.1:5556> Send SequenceEndMessage
[ WorldServer ] <127.0.0.1:59664> Receive GameFightTurnFinishMessage
[ WorldServer ] <127.0.0.1:5556> Send GameFightTurnEndMessage
[ WorldServer ] <127.0.0.1:5556> Send GameFightTurnReadyRequestMessage
[ WorldServer ] <127.0.0.1:5556> Send GameFightTurnStartMessage
[ WorldServer ] <127.0.0.1:5556> Send GameFightSynchronizeMessage
[ WorldServer ] <127.0.0.1:5556> Send CharacterStatsListMessage
[ WorldServer ] <127.0.0.1:5556> Send GameFightTurnEndMessage
[ WorldServer ] <127.0.0.1:5556> Send GameFightTurnReadyRequestMessage
[ WorldServer ] <127.0.0.1:5556> Send GameFightNewRoundMessage
[ WorldServer ] <127.0.0.1:5556> Send GameFightTurnStartMessage
[ WorldServer ] <127.0.0.1:5556> Send GameFightSynchronizeMessage
[ WorldServer ] <127.0.0.1:5556> Send CharacterStatsListMessage
[ WorldServer ] <127.0.0.1:59664> Receive GameActionAcknowledgementMessage
[ WorldServer ] <127.0.0.1:59664> Receive GameFightTurnReadyMessage
[ WorldServer ] <127.0.0.1:59664> Receive GameFightTurnReadyMessage
[ WorldServer ] <127.0.0.1:59664> Receive GameMapMovementRequestMessage
[ WorldServer ] <127.0.0.1:5556> Send SequenceStartMessage
[ WorldServer ] <127.0.0.1:5556> Send GameActionFightPointsVariationMessage
[ WorldServer ] <127.0.0.1:5556> Send GameMapMovementMessage
[ WorldServer ] <127.0.0.1:5556> Send SequenceEndMessage
[ WorldServer ] <127.0.0.1:59664> Receive GameActionAcknowledgementMessage
[ WorldServer ] <127.0.0.1:59664> Receive GameFightTurnFinishMessage
[ WorldServer ] <127.0.0.1:5556> Send GameFightTurnEndMessage
[ WorldServer ] <127.0.0.1:5556> Send GameFightTurnReadyRequestMessage
[ WorldServer ] <127.0.0.1:5556> Send GameFightTurnStartMessage
[ WorldServer ] <127.0.0.1:5556> Send GameFightSynchronizeMessage
[ WorldServer ] <127.0.0.1:5556> Send CharacterStatsListMessage
[ WorldServer ] <127.0.0.1:5556> Send GameFightTurnEndMessage
[ WorldServer ] <127.0.0.1:5556> Send GameFightTurnReadyRequestMessage
[ WorldServer ] <127.0.0.1:5556> Send GameFightNewRoundMessage
[ WorldServer ] <127.0.0.1:5556> Send GameFightTurnStartMessage
[ WorldServer ] <127.0.0.1:5556> Send GameFightSynchronizeMessage
[ WorldServer ] <127.0.0.1:5556> Send CharacterStatsListMessage
[ WorldServer ] <127.0.0.1:59664> Receive GameFightTurnReadyMessage
[ WorldServer ] <127.0.0.1:59664> Receive GameFightTurnReadyMessage
[ WorldServer ] <127.0.0.1:59664> Receive GameMapMovementRequestMessage
[ WorldServer ] <127.0.0.1:5556> Send SequenceStartMessage
[ WorldServer ] <127.0.0.1:5556> Send GameActionFightPointsVariationMessage
[ WorldServer ] <127.0.0.1:5556> Send GameMapMovementMessage
[ WorldServer ] <127.0.0.1:5556> Send SequenceEndMessage
[ WorldServer ] <127.0.0.1:59664> Receive GameActionAcknowledgementMessage
[ WorldServer ] <127.0.0.1:59664> Receive GameActionFightCastRequestMessage
[ WorldServer ] <127.0.0.1:5556> Send SequenceStartMessage
[ WorldServer ] <127.0.0.1:5556> Send GameActionFightSpellCastMessage
[ WorldServer ] <127.0.0.1:5556> Send GameActionFightPointsVariationMessage
[ WorldServer ] <127.0.0.1:5556> Send GameActionFightLifePointsVariationMessage
[ WorldServer ] <127.0.0.1:5556> Send SequenceStartMessage
[ WorldServer ] <127.0.0.1:5556> Send GameActionFightDeathMessage
[ WorldServer ] <127.0.0.1:5556> Send SequenceEndMessage
[ WorldServer ] <127.0.0.1:5556> Send SequenceEndMessage
[ WorldServer ] <127.0.0.1:5556> Send ObjectAddedMessage
[ WorldServer ] <127.0.0.1:5556> Send InventoryWeightMessage
[ WorldServer ] <127.0.0.1:5556> Send ObjectAddedMessage
[ WorldServer ] <127.0.0.1:5556> Send InventoryWeightMessage
[ WorldServer ] <127.0.0.1:5556> Send ObjectModifiedMessage
[ WorldServer ] <127.0.0.1:5556> Send InventoryWeightMessage
[ WorldServer ] <127.0.0.1:5556> Send QuestStepValidatedMessage
[ WorldServer ] <127.0.0.1:5556> Send GameFightEndMessage
[ WorldServer ] <127.0.0.1:5556> Send GameContextDestroyMessage
[ WorldServer ] <127.0.0.1:5556> Send GameContextCreateMessage
[ WorldServer ] <127.0.0.1:5556> Send CharacterStatsListMessage
[ WorldServer ] <127.0.0.1:5556> Send CurrentMapMessage
[ WorldServer ] <127.0.0.1:59664> Receive GameActionAcknowledgementMessage
[ WorldServer ] <127.0.0.1:59664> Receive MapInformationsRequestMessage
[ WorldServer ] <127.0.0.1:5556> Send MapComplementaryInformationsDataMessage
[ WorldServer ] <127.0.0.1:5556> Send GameRolePlayShowActorMessage
[ WorldServer ] <127.0.0.1:59664> Receive GameMapMovementRequestMessage
[ WorldServer ] <127.0.0.1:5556> Send GameMapMovementMessage
[ WorldServer ] <127.0.0.1:59664> Receive GameMapMovementConfirmMessage
[ WorldServer ] <127.0.0.1:5556> Send BasicNoOperationMessage
[ WorldServer ] <127.0.0.1:59664> Receive GameMapMovementRequestMessage
[ WorldServer ] <127.0.0.1:5556> Send GameMapMovementMessage
[ WorldServer ] <127.0.0.1:59664> Receive GameMapMovementConfirmMessage
[ WorldServer ] <127.0.0.1:5556> Send BasicNoOperationMessage
[ WorldServer ] <127.0.0.1:59664> Receive QuestListRequestMessage
[ WorldServer ] <127.0.0.1:5556> Send QuestListMessage
[ WorldServer ] <127.0.0.1:59664> Receive QuestStepInfoRequestMessage
