[ Info ] Starting IPC Auth 127.0.0.1:443
[ Info ] Starting IPC World 127.0.0.1:5556
[ Info ] Client <127.0.0.1:50201> connected to AuthServer...
[ AuthServer ] <127.0.0.1:443> Send ProtocolRequired
[ AuthServer ] <127.0.0.1:443> Send HelloConnectMessage
[ AuthServer ] <127.0.0.1:50201> Receive IdentificationMessage
[ AuthServer ] <127.0.0.1:443> Send IdentificationSuccessMessage
[ AuthServer ] <127.0.0.1:443> Send ServersListMessage
[ AuthServer ] <127.0.0.1:50201> Receive ServerSelectionMessage
[ AuthServer ] <127.0.0.1:443> Send SelectedServerDataMessage
[ Info ] Client <127.0.0.1:50201> disconnected from AuthServer...
[ Info ] Client <127.0.0.1:50203> connected to WorldServer...
[ WorldServer ] <127.0.0.1:5556> Send ProtocolRequired
[ WorldServer ] <127.0.0.1:5556> Send HelloGameMessage
[ WorldServer ] <127.0.0.1:50203> Receive AuthenticationTicketMessage
[ WorldServer ] <127.0.0.1:5556> Send AuthenticationTicketAcceptedMessage
[ WorldServer ] <127.0.0.1:5556> Send BasicTimeMessage
[ WorldServer ] <127.0.0.1:5556> Send AccountCapabilitiesMessage
[ WorldServer ] <127.0.0.1:5556> Send TrustStatusMessage
[ WorldServer ] <127.0.0.1:50203> Receive CharactersListRequestMessage
[ WorldServer ] <127.0.0.1:5556> Send CharactersListMessage
[ WorldServer ] <127.0.0.1:50203> Receive CharacterSelectionMessage
[ WorldServer ] <127.0.0.1:5556> Send CharacterSelectedSuccessMessage
[ WorldServer ] <127.0.0.1:5556> Send InventoryContentMessage
[ WorldServer ] <127.0.0.1:5556> Send ShortcutBarContentMessage
[ WorldServer ] <127.0.0.1:5556> Send ShortcutBarContentMessage
[ WorldServer ] <127.0.0.1:5556> Send EmoteListMessage
[ WorldServer ] <127.0.0.1:5556> Send EnabledChannelsMessage
[ WorldServer ] <127.0.0.1:5556> Send AlignmentRankUpdateMessage
[ WorldServer ] <127.0.0.1:5556> Send AlignmentSubAreasListMessage
[ WorldServer ] <127.0.0.1:5556> Send SpellListMessage
[ WorldServer ] <127.0.0.1:5556> Send InventoryWeightMessage
[ WorldServer ] <127.0.0.1:5556> Send CharacterStatsListMessage
[ WorldServer ] <127.0.0.1:5556> Send JobDescriptionMessage
[ WorldServer ] <127.0.0.1:5556> Send JobExperienceMultiUpdateMessage
[ WorldServer ] <127.0.0.1:5556> Send JobCrafterDirectorySettingsMessage
[ WorldServer ] <127.0.0.1:50203> Receive IgnoredGetListMessage
[ WorldServer ] <127.0.0.1:5556> Send IgnoredListMessage
[ WorldServer ] <127.0.0.1:50203> Receive GameContextCreateRequestMessage
[ WorldServer ] <127.0.0.1:5556> Send GameContextDestroyMessage
[ WorldServer ] <127.0.0.1:5556> Send GameContextCreateMessage
[ WorldServer ] <127.0.0.1:5556> Send CurrentMapMessage
[ WorldServer ] <127.0.0.1:50203> Receive ChannelEnablingMessage
[ WorldServer ] <127.0.0.1:50203> Receive ChannelEnablingMessage
[ WorldServer ] <127.0.0.1:50203> Receive QuestListRequestMessage
[ WorldServer ] <127.0.0.1:5556> Send QuestListMessage
[ WorldServer ] <127.0.0.1:50203> Receive MapInformationsRequestMessage
[ WorldServer ] <127.0.0.1:5556> Send MapComplementaryInformationsDataMessage
[ WorldServer ] <127.0.0.1:5556> Send GameRolePlayShowActorMessage
[ WorldServer ] <127.0.0.1:50203> Receive ChatClientMultiMessage
[ WorldServer ] <127.0.0.1:5556> Send CurrentMapMessage
[ WorldServer ] <127.0.0.1:50203> Receive MapInformationsRequestMessage
[ WorldServer ] <127.0.0.1:5556> Send MapComplementaryInformationsDataMessage
[ WorldServer ] <127.0.0.1:5556> Send GameRolePlayShowActorMessage
[ WorldServer ] <127.0.0.1:50203> Receive ChatClientMultiMessage
[ WorldServer ] <127.0.0.1:5556> Send CurrentMapMessage
[ WorldServer ] <127.0.0.1:50203> Receive MapInformationsRequestMessage
[ WorldServer ] <127.0.0.1:5556> Send MapComplementaryInformationsDataMessage
[ WorldServer ] <127.0.0.1:5556> Send GameRolePlayShowActorMessage
[ WorldServer ] <127.0.0.1:50203> Receive ChatClientMultiMessage
[ WorldServer ] <127.0.0.1:5556> Send CurrentMapMessage
[ WorldServer ] <127.0.0.1:50203> Receive MapInformationsRequestMessage
[ WorldServer ] <127.0.0.1:5556> Send MapComplementaryInformationsDataMessage
[ WorldServer ] <127.0.0.1:5556> Send GameRolePlayShowActorMessage
[ WorldServer ] <127.0.0.1:50203> Receive GameMapMovementRequestMessage
[ WorldServer ] <127.0.0.1:5556> Send GameMapMovementMessage
[ WorldServer ] <127.0.0.1:50203> Receive GameMapMovementConfirmMessage
[ WorldServer ] <127.0.0.1:5556> Send BasicNoOperationMessage
[ WorldServer ] <127.0.0.1:50203> Receive GameMapMovementRequestMessage
[ WorldServer ] <127.0.0.1:5556> Send GameMapMovementMessage
[ WorldServer ] <127.0.0.1:50203> Receive GameMapMovementConfirmMessage
[ WorldServer ] <127.0.0.1:5556> Send BasicNoOperationMessage
[ WorldServer ] <127.0.0.1:50203> Receive InteractiveUseRequestMessage
[ WorldServer ] <127.0.0.1:5556> Send NotificationByServerMessage
[ WorldServer ] <127.0.0.1:50203> Receive GameMapMovementRequestMessage
[ WorldServer ] <127.0.0.1:5556> Send GameMapMovementMessage
[ WorldServer ] <127.0.0.1:50203> Receive GameMapMovementConfirmMessage
[ WorldServer ] <127.0.0.1:5556> Send BasicNoOperationMessage
[ Info ] Client <127.0.0.1:50203> disconnected from WorldServer...
[ Info ] Starting IPC Auth 127.0.0.1:443
[ Info ] Starting IPC World 127.0.0.1:5556
[ Info ] Client <127.0.0.1:50818> connected to AuthServer...
[ AuthServer ] <127.0.0.1:443> Send ProtocolRequired
[ AuthServer ] <127.0.0.1:443> Send HelloConnectMessage
[ AuthServer ] <127.0.0.1:50818> Receive IdentificationMessage
[ AuthServer ] <127.0.0.1:443> Send IdentificationSuccessMessage
[ AuthServer ] <127.0.0.1:443> Send ServersListMessage
[ AuthServer ] <127.0.0.1:50818> Receive ServerSelectionMessage
[ AuthServer ] <127.0.0.1:443> Send SelectedServerDataMessage
[ Info ] Client <127.0.0.1:50818> disconnected from AuthServer...
[ Info ] Client <127.0.0.1:50830> connected to WorldServer...
[ WorldServer ] <127.0.0.1:5556> Send ProtocolRequired
[ WorldServer ] <127.0.0.1:5556> Send HelloGameMessage
[ WorldServer ] <127.0.0.1:50830> Receive AuthenticationTicketMessage
[ WorldServer ] <127.0.0.1:5556> Send AuthenticationTicketAcceptedMessage
[ WorldServer ] <127.0.0.1:5556> Send BasicTimeMessage
[ WorldServer ] <127.0.0.1:5556> Send AccountCapabilitiesMessage
[ WorldServer ] <127.0.0.1:5556> Send TrustStatusMessage
[ WorldServer ] <127.0.0.1:50830> Receive CharactersListRequestMessage
[ WorldServer ] <127.0.0.1:5556> Send CharactersListMessage
[ WorldServer ] <127.0.0.1:50830> Receive CharacterSelectionMessage
[ WorldServer ] <127.0.0.1:5556> Send CharacterSelectedSuccessMessage
[ WorldServer ] <127.0.0.1:5556> Send InventoryContentMessage
[ WorldServer ] <127.0.0.1:5556> Send ShortcutBarContentMessage
[ WorldServer ] <127.0.0.1:5556> Send ShortcutBarContentMessage
[ WorldServer ] <127.0.0.1:5556> Send EmoteListMessage
[ WorldServer ] <127.0.0.1:5556> Send EnabledChannelsMessage
[ WorldServer ] <127.0.0.1:5556> Send AlignmentRankUpdateMessage
[ WorldServer ] <127.0.0.1:5556> Send AlignmentSubAreasListMessage
[ WorldServer ] <127.0.0.1:5556> Send SpellListMessage
[ WorldServer ] <127.0.0.1:5556> Send InventoryWeightMessage
[ WorldServer ] <127.0.0.1:5556> Send CharacterStatsListMessage
[ WorldServer ] <127.0.0.1:5556> Send JobDescriptionMessage
[ WorldServer ] <127.0.0.1:5556> Send JobExperienceMultiUpdateMessage
[ WorldServer ] <127.0.0.1:5556> Send JobCrafterDirectorySettingsMessage
[ WorldServer ] <127.0.0.1:50830> Receive IgnoredGetListMessage
[ WorldServer ] <127.0.0.1:5556> Send IgnoredListMessage
[ WorldServer ] <127.0.0.1:50830> Receive GameContextCreateRequestMessage
[ WorldServer ] <127.0.0.1:5556> Send GameContextDestroyMessage
[ WorldServer ] <127.0.0.1:5556> Send GameContextCreateMessage
[ WorldServer ] <127.0.0.1:5556> Send CurrentMapMessage
[ WorldServer ] <127.0.0.1:50830> Receive ChannelEnablingMessage
[ WorldServer ] <127.0.0.1:50830> Receive ChannelEnablingMessage
[ WorldServer ] <127.0.0.1:50830> Receive QuestListRequestMessage
[ WorldServer ] <127.0.0.1:5556> Send QuestListMessage
[ WorldServer ] <127.0.0.1:50830> Receive MapInformationsRequestMessage
[ WorldServer ] <127.0.0.1:5556> Send MapComplementaryInformationsDataMessage
[ WorldServer ] <127.0.0.1:5556> Send GameRolePlayShowActorMessage
[ WorldServer ] <127.0.0.1:50830> Receive ChatClientMultiMessage
[ WorldServer ] <127.0.0.1:5556> Send CurrentMapMessage
[ WorldServer ] <127.0.0.1:50830> Receive MapInformationsRequestMessage
[ WorldServer ] <127.0.0.1:5556> Send MapComplementaryInformationsDataMessage
[ WorldServer ] <127.0.0.1:5556> Send GameRolePlayShowActorMessage
[ WorldServer ] <127.0.0.1:50830> Receive GameMapMovementRequestMessage
[ WorldServer ] <127.0.0.1:5556> Send GameMapMovementMessage
[ WorldServer ] <127.0.0.1:50830> Receive GameMapMovementConfirmMessage
[ WorldServer ] <127.0.0.1:5556> Send BasicNoOperationMessage
[ WorldServer ] <127.0.0.1:50830> Receive ChangeMapMessage
[ Info ] Starting IPC Auth 127.0.0.1:443
[ Info ] Starting IPC World 127.0.0.1:5556
[ Info ] Client <127.0.0.1:50984> connected to AuthServer...
[ AuthServer ] <127.0.0.1:443> Send ProtocolRequired
[ AuthServer ] <127.0.0.1:443> Send HelloConnectMessage
[ AuthServer ] <127.0.0.1:50984> Receive IdentificationMessage
[ AuthServer ] <127.0.0.1:443> Send IdentificationSuccessMessage
[ AuthServer ] <127.0.0.1:443> Send ServersListMessage
[ AuthServer ] <127.0.0.1:50984> Receive ServerSelectionMessage
[ AuthServer ] <127.0.0.1:443> Send SelectedServerDataMessage
[ Info ] Client <127.0.0.1:50984> disconnected from AuthServer...
[ Info ] Client <127.0.0.1:50988> connected to WorldServer...
[ WorldServer ] <127.0.0.1:5556> Send ProtocolRequired
[ WorldServer ] <127.0.0.1:5556> Send HelloGameMessage
[ WorldServer ] <127.0.0.1:50988> Receive AuthenticationTicketMessage
[ WorldServer ] <127.0.0.1:5556> Send AuthenticationTicketAcceptedMessage
[ WorldServer ] <127.0.0.1:5556> Send BasicTimeMessage
[ WorldServer ] <127.0.0.1:5556> Send AccountCapabilitiesMessage
[ WorldServer ] <127.0.0.1:5556> Send TrustStatusMessage
[ WorldServer ] <127.0.0.1:50988> Receive CharactersListRequestMessage
[ WorldServer ] <127.0.0.1:5556> Send CharactersListMessage
[ WorldServer ] <127.0.0.1:50988> Receive CharacterSelectionMessage
[ WorldServer ] <127.0.0.1:5556> Send CharacterSelectedSuccessMessage
[ WorldServer ] <127.0.0.1:5556> Send InventoryContentMessage
[ WorldServer ] <127.0.0.1:5556> Send ShortcutBarContentMessage
[ WorldServer ] <127.0.0.1:5556> Send ShortcutBarContentMessage
[ WorldServer ] <127.0.0.1:5556> Send EmoteListMessage
[ WorldServer ] <127.0.0.1:5556> Send EnabledChannelsMessage
[ WorldServer ] <127.0.0.1:5556> Send AlignmentRankUpdateMessage
[ WorldServer ] <127.0.0.1:5556> Send AlignmentSubAreasListMessage
[ WorldServer ] <127.0.0.1:5556> Send SpellListMessage
[ WorldServer ] <127.0.0.1:5556> Send InventoryWeightMessage
[ WorldServer ] <127.0.0.1:5556> Send CharacterStatsListMessage
[ WorldServer ] <127.0.0.1:5556> Send JobDescriptionMessage
[ WorldServer ] <127.0.0.1:5556> Send JobExperienceMultiUpdateMessage
[ WorldServer ] <127.0.0.1:5556> Send JobCrafterDirectorySettingsMessage
[ WorldServer ] <127.0.0.1:50988> Receive IgnoredGetListMessage
[ WorldServer ] <127.0.0.1:5556> Send IgnoredListMessage
[ WorldServer ] <127.0.0.1:50988> Receive GameContextCreateRequestMessage
[ WorldServer ] <127.0.0.1:5556> Send GameContextDestroyMessage
[ WorldServer ] <127.0.0.1:5556> Send GameContextCreateMessage
[ WorldServer ] <127.0.0.1:5556> Send CurrentMapMessage
[ WorldServer ] <127.0.0.1:50988> Receive ChannelEnablingMessage
[ WorldServer ] <127.0.0.1:50988> Receive ChannelEnablingMessage
[ WorldServer ] <127.0.0.1:50988> Receive QuestListRequestMessage
[ WorldServer ] <127.0.0.1:5556> Send QuestListMessage
[ WorldServer ] <127.0.0.1:50988> Receive MapInformationsRequestMessage
[ WorldServer ] <127.0.0.1:5556> Send MapComplementaryInformationsDataMessage
[ WorldServer ] <127.0.0.1:5556> Send GameRolePlayShowActorMessage
[ WorldServer ] <127.0.0.1:50988> Receive ChatClientMultiMessage
[ WorldServer ] <127.0.0.1:50988> Receive ChatClientMultiMessage
[ Info ] Starting IPC Auth 127.0.0.1:443
[ Info ] Starting IPC World 127.0.0.1:5556
[ Info ] Client <127.0.0.1:51120> connected to AuthServer...
[ AuthServer ] <127.0.0.1:443> Send ProtocolRequired
[ AuthServer ] <127.0.0.1:443> Send HelloConnectMessage
[ AuthServer ] <127.0.0.1:51120> Receive IdentificationMessage
[ AuthServer ] <127.0.0.1:443> Send IdentificationSuccessMessage
[ AuthServer ] <127.0.0.1:443> Send ServersListMessage
[ AuthServer ] <127.0.0.1:51120> Receive ServerSelectionMessage
[ AuthServer ] <127.0.0.1:443> Send SelectedServerDataMessage
[ Info ] Client <127.0.0.1:51120> disconnected from AuthServer...
[ Info ] Client <127.0.0.1:51121> connected to WorldServer...
[ WorldServer ] <127.0.0.1:5556> Send ProtocolRequired
[ WorldServer ] <127.0.0.1:5556> Send HelloGameMessage
[ WorldServer ] <127.0.0.1:51121> Receive AuthenticationTicketMessage
[ WorldServer ] <127.0.0.1:5556> Send AuthenticationTicketAcceptedMessage
[ WorldServer ] <127.0.0.1:5556> Send BasicTimeMessage
[ WorldServer ] <127.0.0.1:5556> Send AccountCapabilitiesMessage
[ WorldServer ] <127.0.0.1:5556> Send TrustStatusMessage
[ WorldServer ] <127.0.0.1:51121> Receive CharactersListRequestMessage
[ WorldServer ] <127.0.0.1:5556> Send CharactersListMessage
[ WorldServer ] <127.0.0.1:51121> Receive CharacterSelectionMessage
[ WorldServer ] <127.0.0.1:5556> Send CharacterSelectedSuccessMessage
[ WorldServer ] <127.0.0.1:5556> Send InventoryContentMessage
[ WorldServer ] <127.0.0.1:5556> Send ShortcutBarContentMessage
[ WorldServer ] <127.0.0.1:5556> Send ShortcutBarContentMessage
[ WorldServer ] <127.0.0.1:5556> Send EmoteListMessage
[ WorldServer ] <127.0.0.1:5556> Send EnabledChannelsMessage
[ WorldServer ] <127.0.0.1:5556> Send AlignmentRankUpdateMessage
[ WorldServer ] <127.0.0.1:5556> Send AlignmentSubAreasListMessage
[ WorldServer ] <127.0.0.1:5556> Send SpellListMessage
[ WorldServer ] <127.0.0.1:5556> Send InventoryWeightMessage
[ WorldServer ] <127.0.0.1:5556> Send CharacterStatsListMessage
[ WorldServer ] <127.0.0.1:5556> Send JobDescriptionMessage
[ WorldServer ] <127.0.0.1:5556> Send JobExperienceMultiUpdateMessage
[ WorldServer ] <127.0.0.1:5556> Send JobCrafterDirectorySettingsMessage
[ WorldServer ] <127.0.0.1:51121> Receive IgnoredGetListMessage
[ WorldServer ] <127.0.0.1:5556> Send IgnoredListMessage
[ WorldServer ] <127.0.0.1:51121> Receive GameContextCreateRequestMessage
[ WorldServer ] <127.0.0.1:5556> Send GameContextDestroyMessage
[ WorldServer ] <127.0.0.1:5556> Send GameContextCreateMessage
[ WorldServer ] <127.0.0.1:5556> Send CurrentMapMessage
[ WorldServer ] <127.0.0.1:51121> Receive QuestListRequestMessage
[ WorldServer ] <127.0.0.1:5556> Send QuestListMessage
[ WorldServer ] <127.0.0.1:51121> Receive ChannelEnablingMessage
[ WorldServer ] <127.0.0.1:51121> Receive ChannelEnablingMessage
[ WorldServer ] <127.0.0.1:51121> Receive MapInformationsRequestMessage
[ WorldServer ] <127.0.0.1:5556> Send MapComplementaryInformationsDataMessage
[ WorldServer ] <127.0.0.1:5556> Send GameRolePlayShowActorMessage
[ WorldServer ] <127.0.0.1:51121> Receive ChatClientMultiMessage
[ WorldServer ] <127.0.0.1:5556> Send GameContextRefreshEntityLookMessage
[ WorldServer ] <127.0.0.1:51121> Receive GameMapMovementRequestMessage
[ WorldServer ] <127.0.0.1:5556> Send GameMapMovementMessage
[ WorldServer ] <127.0.0.1:51121> Receive GameMapMovementConfirmMessage
[ WorldServer ] <127.0.0.1:5556> Send BasicNoOperationMessage
[ WorldServer ] <127.0.0.1:51121> Receive ChatClientMultiMessage
[ WorldServer ] <127.0.0.1:5556> Send GameContextRefreshEntityLookMessage
[ WorldServer ] <127.0.0.1:51121> Receive GameMapMovementRequestMessage
[ WorldServer ] <127.0.0.1:5556> Send GameMapMovementMessage
[ WorldServer ] <127.0.0.1:51121> Receive GameMapMovementConfirmMessage
[ WorldServer ] <127.0.0.1:5556> Send BasicNoOperationMessage
[ WorldServer ] <127.0.0.1:51121> Receive ChatClientMultiMessage
[ WorldServer ] <127.0.0.1:5556> Send GameContextRefreshEntityLookMessage
[ WorldServer ] <127.0.0.1:51121> Receive ChatClientMultiMessage
[ WorldServer ] <127.0.0.1:5556> Send TextInformationMessage
[ WorldServer ] <127.0.0.1:51121> Receive ChatClientMultiMessage
[ WorldServer ] <127.0.0.1:5556> Send GameContextRefreshEntityLookMessage
[ WorldServer ] <127.0.0.1:51121> Receive GameMapMovementRequestMessage
[ WorldServer ] <127.0.0.1:5556> Send GameMapMovementMessage
[ WorldServer ] <127.0.0.1:51121> Receive GameMapMovementConfirmMessage
[ WorldServer ] <127.0.0.1:5556> Send BasicNoOperationMessage
[ WorldServer ] <127.0.0.1:51121> Receive GameMapMovementRequestMessage
[ WorldServer ] <127.0.0.1:5556> Send GameMapMovementMessage
[ WorldServer ] <127.0.0.1:51121> Receive GameMapMovementConfirmMessage
[ WorldServer ] <127.0.0.1:5556> Send BasicNoOperationMessage
[ WorldServer ] <127.0.0.1:51121> Receive InteractiveUseRequestMessage
[ WorldServer ] <127.0.0.1:5556> Send CurrentMapMessage
[ WorldServer ] <127.0.0.1:51121> Receive MapInformationsRequestMessage
[ WorldServer ] <127.0.0.1:5556> Send MapComplementaryInformationsDataMessage
[ WorldServer ] <127.0.0.1:5556> Send GameRolePlayShowActorMessage
[ WorldServer ] <127.0.0.1:51121> Receive GameMapMovementRequestMessage
[ WorldServer ] <127.0.0.1:5556> Send GameMapMovementMessage
[ WorldServer ] <127.0.0.1:51121> Receive GameMapMovementConfirmMessage
[ WorldServer ] <127.0.0.1:5556> Send BasicNoOperationMessage
[ WorldServer ] <127.0.0.1:51121> Receive InteractiveUseRequestMessage
[ WorldServer ] <127.0.0.1:5556> Send InteractiveUsedMessage
[ WorldServer ] <127.0.0.1:5556> Send ExchangeStartOkCraftWithInformationMessage
[ WorldServer ] <127.0.0.1:51121> Receive ExchangeObjectMoveMessage
[ WorldServer ] <127.0.0.1:5556> Send ExchangeObjectAddedMessage
[ WorldServer ] <127.0.0.1:51121> Receive ExchangeObjectMoveMessage
[ WorldServer ] <127.0.0.1:5556> Send ExchangeObjectAddedMessage
[ WorldServer ] <127.0.0.1:51121> Receive ExchangeReadyMessage
[ WorldServer ] <127.0.0.1:5556> Send ObjectModifiedMessage
[ WorldServer ] <127.0.0.1:5556> Send InventoryWeightMessage
[ WorldServer ] <127.0.0.1:5556> Send ObjectModifiedMessage
[ WorldServer ] <127.0.0.1:5556> Send InventoryWeightMessage
[ WorldServer ] <127.0.0.1:5556> Send ObjectModifiedMessage
[ WorldServer ] <127.0.0.1:5556> Send InventoryWeightMessage
[ WorldServer ] <127.0.0.1:5556> Send ExchangeReplayCountModifiedMessage
[ WorldServer ] <127.0.0.1:5556> Send ExchangeCraftResultWithObjectDescMessage
[ WorldServer ] <127.0.0.1:5556> Send ExchangeItemAutoCraftStopedMessage
[ WorldServer ] <127.0.0.1:5556> Send ExchangeObjectRemovedMessage
[ WorldServer ] <127.0.0.1:5556> Send ExchangeObjectRemovedMessage
[ WorldServer ] <127.0.0.1:51121> Receive ExchangeObjectMoveMessage
[ WorldServer ] <127.0.0.1:5556> Send ExchangeObjectAddedMessage
[ WorldServer ] <127.0.0.1:51121> Receive ExchangeObjectMoveMessage
[ WorldServer ] <127.0.0.1:5556> Send ExchangeObjectAddedMessage
[ WorldServer ] <127.0.0.1:51121> Receive ExchangeReplayMessage
[ WorldServer ] <127.0.0.1:5556> Send ExchangeReplayCountModifiedMessage
[ WorldServer ] <127.0.0.1:51121> Receive ExchangeReadyMessage
[ WorldServer ] <127.0.0.1:5556> Send ObjectModifiedMessage
[ WorldServer ] <127.0.0.1:5556> Send InventoryWeightMessage
[ WorldServer ] <127.0.0.1:5556> Send ObjectModifiedMessage
[ WorldServer ] <127.0.0.1:5556> Send InventoryWeightMessage
[ WorldServer ] <127.0.0.1:5556> Send ObjectAddedMessage
[ WorldServer ] <127.0.0.1:5556> Send InventoryWeightMessage
[ WorldServer ] <127.0.0.1:5556> Send ExchangeReplayCountModifiedMessage
[ WorldServer ] <127.0.0.1:5556> Send ExchangeCraftResultWithObjectDescMessage
[ WorldServer ] <127.0.0.1:5556> Send ObjectModifiedMessage
[ WorldServer ] <127.0.0.1:5556> Send InventoryWeightMessage
[ WorldServer ] <127.0.0.1:5556> Send ObjectModifiedMessage
[ WorldServer ] <127.0.0.1:5556> Send InventoryWeightMessage
[ WorldServer ] <127.0.0.1:5556> Send ObjectAddedMessage
[ WorldServer ] <127.0.0.1:5556> Send InventoryWeightMessage
[ WorldServer ] <127.0.0.1:5556> Send ExchangeReplayCountModifiedMessage
[ WorldServer ] <127.0.0.1:5556> Send ExchangeCraftResultWithObjectDescMessage
[ WorldServer ] <127.0.0.1:5556> Send ObjectModifiedMessage
[ WorldServer ] <127.0.0.1:5556> Send InventoryWeightMessage
[ WorldServer ] <127.0.0.1:5556> Send ObjectModifiedMessage
[ WorldServer ] <127.0.0.1:5556> Send InventoryWeightMessage
[ WorldServer ] <127.0.0.1:5556> Send ObjectModifiedMessage
[ WorldServer ] <127.0.0.1:5556> Send InventoryWeightMessage
[ WorldServer ] <127.0.0.1:5556> Send ExchangeReplayCountModifiedMessage
[ WorldServer ] <127.0.0.1:5556> Send ExchangeCraftResultWithObjectDescMessage
[ WorldServer ] <127.0.0.1:5556> Send JobLevelUpMessage
[ WorldServer ] <127.0.0.1:5556> Send JobExperienceUpdateMessage
[ WorldServer ] <127.0.0.1:5556> Send ExchangeItemAutoCraftStopedMessage
[ WorldServer ] <127.0.0.1:5556> Send ExchangeObjectRemovedMessage
[ WorldServer ] <127.0.0.1:5556> Send ExchangeObjectRemovedMessage
[ WorldServer ] <127.0.0.1:51121> Receive LeaveDialogRequestMessage
[ WorldServer ] <127.0.0.1:5556> Send ExchangeLeaveMessage
[ WorldServer ] <127.0.0.1:5556> Send LeaveDialogMessage
[ WorldServer ] <127.0.0.1:51121> Receive LeaveDialogRequestMessage
[ WorldServer ] <127.0.0.1:5556> Send LeaveDialogMessage
[ WorldServer ] <127.0.0.1:51121> Receive LeaveDialogRequestMessage
[ WorldServer ] <127.0.0.1:51121> Receive GameMapMovementRequestMessage
[ WorldServer ] <127.0.0.1:5556> Send GameMapMovementMessage
[ WorldServer ] <127.0.0.1:51121> Receive GameMapMovementConfirmMessage
[ WorldServer ] <127.0.0.1:5556> Send BasicNoOperationMessage
[ WorldServer ] <127.0.0.1:51121> Receive GameMapMovementRequestMessage
[ WorldServer ] <127.0.0.1:5556> Send GameMapMovementMessage
[ WorldServer ] <127.0.0.1:51121> Receive GameMapMovementConfirmMessage
[ WorldServer ] <127.0.0.1:5556> Send BasicNoOperationMessage
[ WorldServer ] <127.0.0.1:51121> Receive AdminQuietCommandMessage
[ WorldServer ] <127.0.0.1:5556> Send CurrentMapMessage
[ WorldServer ] <127.0.0.1:51121> Receive MapInformationsRequestMessage
[ WorldServer ] <127.0.0.1:5556> Send MapComplementaryInformationsDataMessage
[ WorldServer ] <127.0.0.1:5556> Send GameRolePlayShowActorMessage
[ WorldServer ] <127.0.0.1:51121> Receive GameMapMovementRequestMessage
[ WorldServer ] <127.0.0.1:5556> Send GameMapMovementMessage
[ WorldServer ] <127.0.0.1:51121> Receive GameMapMovementConfirmMessage
[ WorldServer ] <127.0.0.1:5556> Send BasicNoOperationMessage
[ WorldServer ] <127.0.0.1:51121> Receive InteractiveUseRequestMessage
[ WorldServer ] <127.0.0.1:5556> Send InteractiveUsedMessage
[ WorldServer ] <127.0.0.1:5556> Send StatedElementUpdatedMessage
[ WorldServer ] <127.0.0.1:5556> Send MapObstacleUpdateMessage
[ WorldServer ] <127.0.0.1:5556> Send StatedElementUpdatedMessage
[ WorldServer ] <127.0.0.1:5556> Send MapObstacleUpdateMessage
[ WorldServer ] <127.0.0.1:5556> Send InteractiveUseEndedMessage
[ WorldServer ] <127.0.0.1:5556> Send ObjectAddedMessage
[ WorldServer ] <127.0.0.1:5556> Send InventoryWeightMessage
[ WorldServer ] <127.0.0.1:5556> Send ObjectFoundWhileRecoltingMessage
[ WorldServer ] <127.0.0.1:51121> Receive GameMapMovementRequestMessage
[ WorldServer ] <127.0.0.1:5556> Send GameMapMovementMessage
[ WorldServer ] <127.0.0.1:51121> Receive GameMapMovementConfirmMessage
[ WorldServer ] <127.0.0.1:5556> Send BasicNoOperationMessage
[ WorldServer ] <127.0.0.1:51121> Receive InteractiveUseRequestMessage
[ WorldServer ] <127.0.0.1:5556> Send InteractiveUsedMessage
[ WorldServer ] <127.0.0.1:5556> Send StatedElementUpdatedMessage
[ WorldServer ] <127.0.0.1:5556> Send MapObstacleUpdateMessage
[ WorldServer ] <127.0.0.1:5556> Send StatedElementUpdatedMessage
[ WorldServer ] <127.0.0.1:5556> Send MapObstacleUpdateMessage
[ WorldServer ] <127.0.0.1:5556> Send InteractiveUseEndedMessage
[ WorldServer ] <127.0.0.1:5556> Send ObjectModifiedMessage
[ WorldServer ] <127.0.0.1:5556> Send InventoryWeightMessage
[ WorldServer ] <127.0.0.1:5556> Send ObjectFoundWhileRecoltingMessage
[ WorldServer ] <127.0.0.1:51121> Receive GameMapMovementRequestMessage
[ WorldServer ] <127.0.0.1:5556> Send GameMapMovementMessage
[ WorldServer ] <127.0.0.1:51121> Receive GameMapMovementConfirmMessage
[ WorldServer ] <127.0.0.1:5556> Send BasicNoOperationMessage
[ WorldServer ] <127.0.0.1:51121> Receive GameMapMovementRequestMessage
[ WorldServer ] <127.0.0.1:5556> Send GameMapMovementMessage
[ WorldServer ] <127.0.0.1:51121> Receive GameMapMovementConfirmMessage
[ WorldServer ] <127.0.0.1:5556> Send BasicNoOperationMessage
[ WorldServer ] <127.0.0.1:5556> Send StatedElementUpdatedMessage
[ WorldServer ] <127.0.0.1:5556> Send MapObstacleUpdateMessage
[ WorldServer ] <127.0.0.1:5556> Send StatedElementUpdatedMessage
[ WorldServer ] <127.0.0.1:5556> Send MapObstacleUpdateMessage
[ WorldServer ] <127.0.0.1:51121> Receive GameMapMovementRequestMessage
[ WorldServer ] <127.0.0.1:5556> Send GameMapMovementMessage
[ WorldServer ] <127.0.0.1:51121> Receive GameMapMovementConfirmMessage
[ WorldServer ] <127.0.0.1:5556> Send BasicNoOperationMessage
[ WorldServer ] <127.0.0.1:51121> Receive ChangeMapMessage
[ WorldServer ] <127.0.0.1:5556> Send CurrentMapMessage
[ WorldServer ] <127.0.0.1:51121> Receive MapInformationsRequestMessage
[ WorldServer ] <127.0.0.1:5556> Send MapComplementaryInformationsDataMessage
[ WorldServer ] <127.0.0.1:5556> Send GameRolePlayShowActorMessage
[ WorldServer ] <127.0.0.1:51121> Receive GameMapMovementRequestMessage
[ WorldServer ] <127.0.0.1:5556> Send GameMapMovementMessage
[ WorldServer ] <127.0.0.1:51121> Receive GameMapMovementConfirmMessage
[ WorldServer ] <127.0.0.1:5556> Send BasicNoOperationMessage
[ WorldServer ] <127.0.0.1:51121> Receive ChangeMapMessage
[ WorldServer ] <127.0.0.1:5556> Send CurrentMapMessage
[ WorldServer ] <127.0.0.1:51121> Receive MapInformationsRequestMessage
[ WorldServer ] <127.0.0.1:5556> Send MapComplementaryInformationsDataMessage
[ WorldServer ] <127.0.0.1:5556> Send GameRolePlayShowActorMessage
[ WorldServer ] <127.0.0.1:51121> Receive GameMapMovementRequestMessage
[ WorldServer ] <127.0.0.1:5556> Send GameMapMovementMessage
[ WorldServer ] <127.0.0.1:51121> Receive GameMapMovementConfirmMessage
[ WorldServer ] <127.0.0.1:5556> Send BasicNoOperationMessage
[ WorldServer ] <127.0.0.1:51121> Receive InteractiveUseRequestMessage
[ WorldServer ] <127.0.0.1:5556> Send InteractiveUsedMessage
[ WorldServer ] <127.0.0.1:5556> Send StatedElementUpdatedMessage
[ WorldServer ] <127.0.0.1:5556> Send MapObstacleUpdateMessage
[ WorldServer ] <127.0.0.1:5556> Send StatedElementUpdatedMessage
[ WorldServer ] <127.0.0.1:5556> Send MapObstacleUpdateMessage
[ WorldServer ] <127.0.0.1:5556> Send InteractiveUseEndedMessage
[ WorldServer ] <127.0.0.1:5556> Send ObjectAddedMessage
[ WorldServer ] <127.0.0.1:5556> Send InventoryWeightMessage
[ WorldServer ] <127.0.0.1:5556> Send ObjectFoundWhileRecoltingMessage
[ WorldServer ] <127.0.0.1:51121> Receive GameMapMovementRequestMessage
[ WorldServer ] <127.0.0.1:5556> Send GameMapMovementMessage
[ WorldServer ] <127.0.0.1:51121> Receive GameMapMovementConfirmMessage
[ WorldServer ] <127.0.0.1:5556> Send BasicNoOperationMessage
[ WorldServer ] <127.0.0.1:51121> Receive GameMapMovementRequestMessage
[ WorldServer ] <127.0.0.1:5556> Send GameMapMovementMessage
[ WorldServer ] <127.0.0.1:51121> Receive GameMapMovementConfirmMessage
[ WorldServer ] <127.0.0.1:5556> Send BasicNoOperationMessage
[ WorldServer ] <127.0.0.1:5556> Send StatedElementUpdatedMessage
[ WorldServer ] <127.0.0.1:5556> Send MapObstacleUpdateMessage
[ Info ] Starting IPC Auth 127.0.0.1:443
[ Info ] Starting IPC World 127.0.0.1:5556
[ Info ] Client <127.0.0.1:53425> connected to AuthServer...
[ AuthServer ] <127.0.0.1:443> Send ProtocolRequired
[ AuthServer ] <127.0.0.1:443> Send HelloConnectMessage
[ AuthServer ] <127.0.0.1:53425> Receive IdentificationMessage
[ AuthServer ] <127.0.0.1:443> Send IdentificationSuccessMessage
[ AuthServer ] <127.0.0.1:443> Send ServersListMessage
[ AuthServer ] <127.0.0.1:53425> Receive ServerSelectionMessage
[ AuthServer ] <127.0.0.1:443> Send SelectedServerDataMessage
[ Info ] Client <127.0.0.1:53425> disconnected from AuthServer...
[ Info ] Client <127.0.0.1:53427> connected to WorldServer...
[ WorldServer ] <127.0.0.1:5556> Send ProtocolRequired
[ WorldServer ] <127.0.0.1:5556> Send HelloGameMessage
[ WorldServer ] <127.0.0.1:53427> Receive AuthenticationTicketMessage
[ WorldServer ] <127.0.0.1:5556> Send AuthenticationTicketAcceptedMessage
[ WorldServer ] <127.0.0.1:5556> Send BasicTimeMessage
[ WorldServer ] <127.0.0.1:5556> Send AccountCapabilitiesMessage
[ WorldServer ] <127.0.0.1:5556> Send TrustStatusMessage
[ WorldServer ] <127.0.0.1:53427> Receive CharactersListRequestMessage
[ WorldServer ] <127.0.0.1:5556> Send CharactersListMessage
[ WorldServer ] <127.0.0.1:53427> Receive CharacterSelectionMessage
[ WorldServer ] <127.0.0.1:5556> Send CharacterSelectedSuccessMessage
[ WorldServer ] <127.0.0.1:5556> Send InventoryContentMessage
[ WorldServer ] <127.0.0.1:5556> Send ShortcutBarContentMessage
[ WorldServer ] <127.0.0.1:5556> Send ShortcutBarContentMessage
[ WorldServer ] <127.0.0.1:5556> Send EmoteListMessage
[ WorldServer ] <127.0.0.1:5556> Send EnabledChannelsMessage
[ WorldServer ] <127.0.0.1:5556> Send AlignmentRankUpdateMessage
[ WorldServer ] <127.0.0.1:5556> Send AlignmentSubAreasListMessage
[ WorldServer ] <127.0.0.1:5556> Send SpellListMessage
[ WorldServer ] <127.0.0.1:5556> Send InventoryWeightMessage
[ WorldServer ] <127.0.0.1:5556> Send CharacterStatsListMessage
[ WorldServer ] <127.0.0.1:5556> Send JobDescriptionMessage
[ WorldServer ] <127.0.0.1:5556> Send JobExperienceMultiUpdateMessage
[ WorldServer ] <127.0.0.1:5556> Send JobCrafterDirectorySettingsMessage
[ WorldServer ] <127.0.0.1:53427> Receive IgnoredGetListMessage
[ WorldServer ] <127.0.0.1:5556> Send IgnoredListMessage
[ WorldServer ] <127.0.0.1:53427> Receive GameContextCreateRequestMessage
[ WorldServer ] <127.0.0.1:5556> Send GameContextDestroyMessage
[ WorldServer ] <127.0.0.1:5556> Send GameContextCreateMessage
[ WorldServer ] <127.0.0.1:5556> Send CurrentMapMessage
[ WorldServer ] <127.0.0.1:53427> Receive ChannelEnablingMessage
[ WorldServer ] <127.0.0.1:53427> Receive ChannelEnablingMessage
[ WorldServer ] <127.0.0.1:53427> Receive QuestListRequestMessage
[ WorldServer ] <127.0.0.1:5556> Send QuestListMessage
[ WorldServer ] <127.0.0.1:53427> Receive MapInformationsRequestMessage
[ WorldServer ] <127.0.0.1:5556> Send MapComplementaryInformationsDataMessage
[ WorldServer ] <127.0.0.1:5556> Send GameRolePlayShowActorMessage
[ WorldServer ] <127.0.0.1:53427> Receive AdminQuietCommandMessage
[ WorldServer ] <127.0.0.1:5556> Send CurrentMapMessage
[ WorldServer ] <127.0.0.1:53427> Receive MapInformationsRequestMessage
[ WorldServer ] <127.0.0.1:5556> Send MapComplementaryInformationsDataMessage
[ WorldServer ] <127.0.0.1:5556> Send GameRolePlayShowActorMessage
[ WorldServer ] <127.0.0.1:53427> Receive GameMapMovementRequestMessage
[ WorldServer ] <127.0.0.1:5556> Send GameMapMovementMessage
[ WorldServer ] <127.0.0.1:53427> Receive GameMapMovementConfirmMessage
[ WorldServer ] <127.0.0.1:5556> Send BasicNoOperationMessage
[ WorldServer ] <127.0.0.1:53427> Receive ChangeMapMessage
[ WorldServer ] <127.0.0.1:5556> Send CurrentMapMessage
[ WorldServer ] <127.0.0.1:53427> Receive MapInformationsRequestMessage
[ WorldServer ] <127.0.0.1:5556> Send MapComplementaryInformationsDataMessage
[ WorldServer ] <127.0.0.1:5556> Send GameRolePlayShowActorMessage
[ WorldServer ] <127.0.0.1:53427> Receive GameMapMovementRequestMessage
[ WorldServer ] <127.0.0.1:5556> Send GameMapMovementMessage
[ WorldServer ] <127.0.0.1:53427> Receive GameMapMovementCancelMessage
[ WorldServer ] <127.0.0.1:5556> Send BasicNoOperationMessage
[ WorldServer ] <127.0.0.1:53427> Receive GameMapMovementRequestMessage
[ WorldServer ] <127.0.0.1:5556> Send GameMapMovementMessage
[ WorldServer ] <127.0.0.1:53427> Receive GameMapMovementCancelMessage
[ WorldServer ] <127.0.0.1:5556> Send BasicNoOperationMessage
[ WorldServer ] <127.0.0.1:53427> Receive GameMapMovementRequestMessage
[ WorldServer ] <127.0.0.1:5556> Send GameMapMovementMessage
[ WorldServer ] <127.0.0.1:53427> Receive GameMapMovementConfirmMessage
[ WorldServer ] <127.0.0.1:5556> Send BasicNoOperationMessage
[ WorldServer ] <127.0.0.1:53427> Receive GameMapMovementRequestMessage
[ WorldServer ] <127.0.0.1:5556> Send GameMapMovementMessage
[ WorldServer ] <127.0.0.1:53427> Receive GameMapMovementConfirmMessage
[ WorldServer ] <127.0.0.1:5556> Send BasicNoOperationMessage
[ WorldServer ] <127.0.0.1:53427> Receive InteractiveUseRequestMessage
[ WorldServer ] <127.0.0.1:5556> Send InteractiveUsedMessage
[ WorldServer ] <127.0.0.1:5556> Send StatedElementUpdatedMessage
[ WorldServer ] <127.0.0.1:5556> Send MapObstacleUpdateMessage
[ WorldServer ] <127.0.0.1:5556> Send StatedElementUpdatedMessage
[ WorldServer ] <127.0.0.1:5556> Send MapObstacleUpdateMessage
[ WorldServer ] <127.0.0.1:5556> Send InteractiveUseEndedMessage
[ WorldServer ] <127.0.0.1:5556> Send ObjectAddedMessage
[ WorldServer ] <127.0.0.1:5556> Send InventoryWeightMessage
[ WorldServer ] <127.0.0.1:5556> Send ObjectFoundWhileRecoltingMessage
[ WorldServer ] <127.0.0.1:53427> Receive GameMapMovementRequestMessage
[ WorldServer ] <127.0.0.1:5556> Send GameMapMovementMessage
[ WorldServer ] <127.0.0.1:53427> Receive GameMapMovementConfirmMessage
[ WorldServer ] <127.0.0.1:5556> Send BasicNoOperationMessage
[ WorldServer ] <127.0.0.1:5556> Send StatedElementUpdatedMessage
[ WorldServer ] <127.0.0.1:5556> Send MapObstacleUpdateMessage
[ WorldServer ] <127.0.0.1:53427> Receive GameMapMovementRequestMessage
[ WorldServer ] <127.0.0.1:5556> Send GameMapMovementMessage
[ WorldServer ] <127.0.0.1:53427> Receive GameMapMovementConfirmMessage
[ WorldServer ] <127.0.0.1:5556> Send BasicNoOperationMessage
[ WorldServer ] <127.0.0.1:53427> Receive InteractiveUseRequestMessage
[ WorldServer ] <127.0.0.1:5556> Send InteractiveUsedMessage
[ WorldServer ] <127.0.0.1:5556> Send StatedElementUpdatedMessage
[ WorldServer ] <127.0.0.1:5556> Send MapObstacleUpdateMessage
[ WorldServer ] <127.0.0.1:5556> Send StatedElementUpdatedMessage
[ WorldServer ] <127.0.0.1:5556> Send MapObstacleUpdateMessage
[ WorldServer ] <127.0.0.1:5556> Send InteractiveUseEndedMessage
[ WorldServer ] <127.0.0.1:5556> Send ObjectModifiedMessage
[ WorldServer ] <127.0.0.1:5556> Send InventoryWeightMessage
[ WorldServer ] <127.0.0.1:53427> Receive GameMapMovementRequestMessage
[ WorldServer ] <127.0.0.1:5556> Send ObjectFoundWhileRecoltingMessage
[ WorldServer ] <127.0.0.1:5556> Send GameMapMovementMessage
[ WorldServer ] <127.0.0.1:53427> Receive GameMapMovementConfirmMessage
[ WorldServer ] <127.0.0.1:5556> Send BasicNoOperationMessage
[ WorldServer ] <127.0.0.1:53427> Receive InteractiveUseRequestMessage
[ WorldServer ] <127.0.0.1:5556> Send InteractiveUsedMessage
[ WorldServer ] <127.0.0.1:5556> Send StatedElementUpdatedMessage
[ WorldServer ] <127.0.0.1:5556> Send MapObstacleUpdateMessage
[ WorldServer ] <127.0.0.1:5556> Send StatedElementUpdatedMessage
[ WorldServer ] <127.0.0.1:5556> Send MapObstacleUpdateMessage
[ WorldServer ] <127.0.0.1:5556> Send StatedElementUpdatedMessage
[ WorldServer ] <127.0.0.1:5556> Send InteractiveUseEndedMessage
[ WorldServer ] <127.0.0.1:5556> Send MapObstacleUpdateMessage
[ WorldServer ] <127.0.0.1:5556> Send ObjectAddedMessage
[ WorldServer ] <127.0.0.1:53427> Receive GameMapMovementRequestMessage
[ WorldServer ] <127.0.0.1:5556> Send GameMapMovementMessage
[ WorldServer ] <127.0.0.1:5556> Send InventoryWeightMessage
[ WorldServer ] <127.0.0.1:5556> Send ObjectFoundWhileRecoltingMessage
[ WorldServer ] <127.0.0.1:53427> Receive GameMapMovementConfirmMessage
[ WorldServer ] <127.0.0.1:5556> Send BasicNoOperationMessage
[ WorldServer ] <127.0.0.1:53427> Receive InteractiveUseRequestMessage
[ WorldServer ] <127.0.0.1:5556> Send StatedElementUpdatedMessage
[ WorldServer ] <127.0.0.1:5556> Send MapObstacleUpdateMessage
[ Info ] Starting IPC Auth 127.0.0.1:443
[ Info ] Starting IPC World 127.0.0.1:5556
[ Info ] Client <127.0.0.1:53815> connected to AuthServer...
[ AuthServer ] <127.0.0.1:443> Send ProtocolRequired
[ AuthServer ] <127.0.0.1:443> Send HelloConnectMessage
[ AuthServer ] <127.0.0.1:53815> Receive IdentificationMessage
[ AuthServer ] <127.0.0.1:443> Send IdentificationSuccessMessage
[ AuthServer ] <127.0.0.1:443> Send ServersListMessage
[ AuthServer ] <127.0.0.1:53815> Receive ServerSelectionMessage
[ AuthServer ] <127.0.0.1:443> Send SelectedServerDataMessage
[ Info ] Client <127.0.0.1:53815> disconnected from AuthServer...
[ Info ] Client <127.0.0.1:53817> connected to WorldServer...
[ WorldServer ] <127.0.0.1:5556> Send ProtocolRequired
[ WorldServer ] <127.0.0.1:5556> Send HelloGameMessage
[ WorldServer ] <127.0.0.1:53817> Receive AuthenticationTicketMessage
[ WorldServer ] <127.0.0.1:5556> Send AuthenticationTicketAcceptedMessage
[ WorldServer ] <127.0.0.1:5556> Send BasicTimeMessage
[ WorldServer ] <127.0.0.1:5556> Send AccountCapabilitiesMessage
[ WorldServer ] <127.0.0.1:5556> Send TrustStatusMessage
[ WorldServer ] <127.0.0.1:53817> Receive CharactersListRequestMessage
[ WorldServer ] <127.0.0.1:5556> Send CharactersListMessage
[ WorldServer ] <127.0.0.1:53817> Receive CharacterSelectionMessage
[ WorldServer ] <127.0.0.1:5556> Send CharacterSelectedSuccessMessage
[ WorldServer ] <127.0.0.1:5556> Send InventoryContentMessage
[ WorldServer ] <127.0.0.1:5556> Send ShortcutBarContentMessage
[ WorldServer ] <127.0.0.1:5556> Send ShortcutBarContentMessage
[ WorldServer ] <127.0.0.1:5556> Send EmoteListMessage
[ WorldServer ] <127.0.0.1:5556> Send EnabledChannelsMessage
[ WorldServer ] <127.0.0.1:5556> Send AlignmentRankUpdateMessage
[ WorldServer ] <127.0.0.1:5556> Send AlignmentSubAreasListMessage
[ WorldServer ] <127.0.0.1:5556> Send SpellListMessage
[ WorldServer ] <127.0.0.1:5556> Send InventoryWeightMessage
[ WorldServer ] <127.0.0.1:5556> Send CharacterStatsListMessage
[ WorldServer ] <127.0.0.1:5556> Send JobDescriptionMessage
[ WorldServer ] <127.0.0.1:5556> Send JobExperienceMultiUpdateMessage
[ WorldServer ] <127.0.0.1:5556> Send JobCrafterDirectorySettingsMessage
[ WorldServer ] <127.0.0.1:53817> Receive IgnoredGetListMessage
[ WorldServer ] <127.0.0.1:5556> Send IgnoredListMessage
[ WorldServer ] <127.0.0.1:53817> Receive GameContextCreateRequestMessage
[ WorldServer ] <127.0.0.1:5556> Send GameContextDestroyMessage
[ WorldServer ] <127.0.0.1:5556> Send GameContextCreateMessage
[ WorldServer ] <127.0.0.1:5556> Send CurrentMapMessage
[ WorldServer ] <127.0.0.1:53817> Receive ChannelEnablingMessage
[ WorldServer ] <127.0.0.1:53817> Receive ChannelEnablingMessage
[ WorldServer ] <127.0.0.1:53817> Receive QuestListRequestMessage
[ WorldServer ] <127.0.0.1:5556> Send QuestListMessage
[ WorldServer ] <127.0.0.1:53817> Receive MapInformationsRequestMessage
[ WorldServer ] <127.0.0.1:5556> Send MapComplementaryInformationsDataMessage
[ WorldServer ] <127.0.0.1:5556> Send GameRolePlayShowActorMessage
[ WorldServer ] <127.0.0.1:53817> Receive GameMapMovementRequestMessage
[ WorldServer ] <127.0.0.1:5556> Send GameMapMovementMessage
[ WorldServer ] <127.0.0.1:53817> Receive GameMapMovementConfirmMessage
[ WorldServer ] <127.0.0.1:5556> Send BasicNoOperationMessage
[ Info ] Client <127.0.0.1:53817> disconnected from WorldServer...
[ Info ] Starting IPC Auth 127.0.0.1:443
[ Info ] Starting IPC World 127.0.0.1:5556
[ Info ] Client <127.0.0.1:54122> connected to AuthServer...
[ AuthServer ] <127.0.0.1:443> Send ProtocolRequired
[ AuthServer ] <127.0.0.1:443> Send HelloConnectMessage
[ AuthServer ] <127.0.0.1:54122> Receive IdentificationMessage
[ AuthServer ] <127.0.0.1:443> Send IdentificationSuccessMessage
[ AuthServer ] <127.0.0.1:443> Send ServersListMessage
[ AuthServer ] <127.0.0.1:54122> Receive ServerSelectionMessage
[ AuthServer ] <127.0.0.1:443> Send SelectedServerDataMessage
[ Info ] Client <127.0.0.1:54122> disconnected from AuthServer...
[ Info ] Client <127.0.0.1:54124> connected to WorldServer...
[ WorldServer ] <127.0.0.1:5556> Send ProtocolRequired
[ WorldServer ] <127.0.0.1:5556> Send HelloGameMessage
[ WorldServer ] <127.0.0.1:54124> Receive AuthenticationTicketMessage
[ WorldServer ] <127.0.0.1:5556> Send AuthenticationTicketAcceptedMessage
[ WorldServer ] <127.0.0.1:5556> Send BasicTimeMessage
[ WorldServer ] <127.0.0.1:5556> Send AccountCapabilitiesMessage
[ WorldServer ] <127.0.0.1:5556> Send TrustStatusMessage
[ WorldServer ] <127.0.0.1:54124> Receive CharactersListRequestMessage
[ WorldServer ] <127.0.0.1:5556> Send CharactersListMessage
[ WorldServer ] <127.0.0.1:54124> Receive CharacterSelectionMessage
[ WorldServer ] <127.0.0.1:5556> Send CharacterSelectedSuccessMessage
[ WorldServer ] <127.0.0.1:5556> Send InventoryContentMessage
[ WorldServer ] <127.0.0.1:5556> Send ShortcutBarContentMessage
[ WorldServer ] <127.0.0.1:5556> Send ShortcutBarContentMessage
[ WorldServer ] <127.0.0.1:5556> Send EmoteListMessage
[ WorldServer ] <127.0.0.1:5556> Send EnabledChannelsMessage
[ WorldServer ] <127.0.0.1:5556> Send AlignmentRankUpdateMessage
[ WorldServer ] <127.0.0.1:5556> Send AlignmentSubAreasListMessage
[ WorldServer ] <127.0.0.1:5556> Send SpellListMessage
[ WorldServer ] <127.0.0.1:5556> Send InventoryWeightMessage
[ WorldServer ] <127.0.0.1:5556> Send CharacterStatsListMessage
[ WorldServer ] <127.0.0.1:5556> Send JobDescriptionMessage
[ WorldServer ] <127.0.0.1:5556> Send JobExperienceMultiUpdateMessage
[ WorldServer ] <127.0.0.1:5556> Send JobCrafterDirectorySettingsMessage
[ WorldServer ] <127.0.0.1:54124> Receive IgnoredGetListMessage
[ WorldServer ] <127.0.0.1:5556> Send IgnoredListMessage
[ WorldServer ] <127.0.0.1:54124> Receive GameContextCreateRequestMessage
[ WorldServer ] <127.0.0.1:5556> Send GameContextDestroyMessage
[ WorldServer ] <127.0.0.1:5556> Send GameContextCreateMessage
[ WorldServer ] <127.0.0.1:5556> Send CurrentMapMessage
[ WorldServer ] <127.0.0.1:54124> Receive ChannelEnablingMessage
[ WorldServer ] <127.0.0.1:54124> Receive ChannelEnablingMessage
[ WorldServer ] <127.0.0.1:54124> Receive QuestListRequestMessage
[ WorldServer ] <127.0.0.1:5556> Send QuestListMessage
[ WorldServer ] <127.0.0.1:54124> Receive MapInformationsRequestMessage
[ WorldServer ] <127.0.0.1:5556> Send MapComplementaryInformationsDataMessage
[ WorldServer ] <127.0.0.1:5556> Send GameRolePlayShowActorMessage
[ WorldServer ] <127.0.0.1:54124> Receive ChatClientMultiMessage
[ WorldServer ] <127.0.0.1:5556> Send CurrentMapMessage
[ WorldServer ] <127.0.0.1:54124> Receive MapInformationsRequestMessage
[ WorldServer ] <127.0.0.1:5556> Send MapComplementaryInformationsDataMessage
[ WorldServer ] <127.0.0.1:5556> Send GameRolePlayShowActorMessage
[ WorldServer ] <127.0.0.1:54124> Receive GameMapMovementRequestMessage
[ WorldServer ] <127.0.0.1:5556> Send GameMapMovementMessage
[ WorldServer ] <127.0.0.1:54124> Receive GameMapMovementConfirmMessage
[ WorldServer ] <127.0.0.1:5556> Send BasicNoOperationMessage
[ Info ] Client <127.0.0.1:54148> connected to AuthServer...
[ AuthServer ] <127.0.0.1:443> Send ProtocolRequired
[ AuthServer ] <127.0.0.1:443> Send HelloConnectMessage
[ AuthServer ] <127.0.0.1:54148> Receive IdentificationMessage
[ AuthServer ] <127.0.0.1:443> Send IdentificationSuccessMessage
[ AuthServer ] <127.0.0.1:443> Send ServersListMessage
[ WorldServer ] <127.0.0.1:54124> Receive GameMapMovementRequestMessage
[ WorldServer ] <127.0.0.1:5556> Send GameMapMovementMessage
[ WorldServer ] <127.0.0.1:54124> Receive GameMapMovementConfirmMessage
[ WorldServer ] <127.0.0.1:5556> Send BasicNoOperationMessage
[ AuthServer ] <127.0.0.1:54148> Receive ServerSelectionMessage
[ AuthServer ] <127.0.0.1:443> Send SelectedServerDataMessage
[ Info ] Client <127.0.0.1:54148> disconnected from AuthServer...
[ Info ] Client <127.0.0.1:54149> connected to WorldServer...
[ WorldServer ] <127.0.0.1:5556> Send ProtocolRequired
[ WorldServer ] <127.0.0.1:5556> Send HelloGameMessage
[ WorldServer ] <127.0.0.1:54149> Receive AuthenticationTicketMessage
[ WorldServer ] <127.0.0.1:5556> Send AuthenticationTicketAcceptedMessage
[ WorldServer ] <127.0.0.1:5556> Send BasicTimeMessage
[ WorldServer ] <127.0.0.1:5556> Send AccountCapabilitiesMessage
[ WorldServer ] <127.0.0.1:5556> Send TrustStatusMessage
[ WorldServer ] <127.0.0.1:54149> Receive CharactersListRequestMessage
[ WorldServer ] <127.0.0.1:5556> Send CharactersListMessage
[ WorldServer ] <127.0.0.1:54149> Receive CharacterSelectionMessage
[ WorldServer ] <127.0.0.1:5556> Send CharacterSelectedSuccessMessage
[ WorldServer ] <127.0.0.1:5556> Send InventoryContentMessage
[ WorldServer ] <127.0.0.1:5556> Send ShortcutBarContentMessage
[ WorldServer ] <127.0.0.1:5556> Send ShortcutBarContentMessage
[ WorldServer ] <127.0.0.1:5556> Send EmoteListMessage
[ WorldServer ] <127.0.0.1:5556> Send EnabledChannelsMessage
[ WorldServer ] <127.0.0.1:5556> Send AlignmentRankUpdateMessage
[ WorldServer ] <127.0.0.1:5556> Send AlignmentSubAreasListMessage
[ WorldServer ] <127.0.0.1:5556> Send SpellListMessage
[ WorldServer ] <127.0.0.1:5556> Send InventoryWeightMessage
[ WorldServer ] <127.0.0.1:5556> Send CharacterStatsListMessage
[ WorldServer ] <127.0.0.1:5556> Send JobDescriptionMessage
[ WorldServer ] <127.0.0.1:5556> Send JobExperienceMultiUpdateMessage
[ WorldServer ] <127.0.0.1:5556> Send JobCrafterDirectorySettingsMessage
[ WorldServer ] <127.0.0.1:54149> Receive IgnoredGetListMessage
[ WorldServer ] <127.0.0.1:5556> Send IgnoredListMessage
[ WorldServer ] <127.0.0.1:54149> Receive GameContextCreateRequestMessage
[ WorldServer ] <127.0.0.1:5556> Send GameContextDestroyMessage
[ WorldServer ] <127.0.0.1:5556> Send GameContextCreateMessage
[ WorldServer ] <127.0.0.1:5556> Send CurrentMapMessage
[ WorldServer ] <127.0.0.1:54149> Receive ChannelEnablingMessage
[ WorldServer ] <127.0.0.1:54149> Receive ChannelEnablingMessage
[ WorldServer ] <127.0.0.1:54149> Receive QuestListRequestMessage
[ WorldServer ] <127.0.0.1:5556> Send QuestListMessage
[ WorldServer ] <127.0.0.1:54149> Receive MapInformationsRequestMessage
[ WorldServer ] <127.0.0.1:5556> Send MapComplementaryInformationsDataMessage
[ WorldServer ] <127.0.0.1:5556> Send GameRolePlayShowActorMessage
[ WorldServer ] <127.0.0.1:54149> Receive ChatClientMultiMessage
[ WorldServer ] <127.0.0.1:5556> Send CurrentMapMessage
[ WorldServer ] <127.0.0.1:54149> Receive MapInformationsRequestMessage
[ WorldServer ] <127.0.0.1:5556> Send MapComplementaryInformationsDataMessage
[ WorldServer ] <127.0.0.1:5556> Send GameRolePlayShowActorMessage
[ WorldServer ] <127.0.0.1:5556> Send GameRolePlayShowActorMessage
[ WorldServer ] <127.0.0.1:5556> Send GameRolePlayShowActorMessage
[ WorldServer ] <127.0.0.1:54149> Receive GameMapMovementRequestMessage
[ WorldServer ] <127.0.0.1:5556> Send GameMapMovementMessage
[ WorldServer ] <127.0.0.1:5556> Send GameMapMovementMessage
[ WorldServer ] <127.0.0.1:54149> Receive GameMapMovementConfirmMessage
[ WorldServer ] <127.0.0.1:5556> Send BasicNoOperationMessage
[ WorldServer ] <127.0.0.1:54149> Receive GameMapMovementRequestMessage
[ WorldServer ] <127.0.0.1:5556> Send GameMapMovementMessage
[ WorldServer ] <127.0.0.1:5556> Send GameMapMovementMessage
[ WorldServer ] <127.0.0.1:54149> Receive GameMapMovementConfirmMessage
[ WorldServer ] <127.0.0.1:5556> Send BasicNoOperationMessage
[ Info ] Client <127.0.0.1:54166> connected to AuthServer...
[ AuthServer ] <127.0.0.1:443> Send ProtocolRequired
[ AuthServer ] <127.0.0.1:443> Send HelloConnectMessage
[ AuthServer ] <127.0.0.1:54166> Receive IdentificationMessage
[ AuthServer ] <127.0.0.1:443> Send IdentificationSuccessMessage
[ AuthServer ] <127.0.0.1:443> Send ServersListMessage
[ AuthServer ] <127.0.0.1:54166> Receive ServerSelectionMessage
[ AuthServer ] <127.0.0.1:443> Send SelectedServerDataMessage
[ Info ] Client <127.0.0.1:54166> disconnected from AuthServer...
[ Info ] Client <127.0.0.1:54167> connected to WorldServer...
[ WorldServer ] <127.0.0.1:5556> Send ProtocolRequired
[ WorldServer ] <127.0.0.1:5556> Send HelloGameMessage
[ WorldServer ] <127.0.0.1:54167> Receive AuthenticationTicketMessage
[ WorldServer ] <127.0.0.1:5556> Send AuthenticationTicketAcceptedMessage
[ WorldServer ] <127.0.0.1:5556> Send BasicTimeMessage
[ WorldServer ] <127.0.0.1:5556> Send AccountCapabilitiesMessage
[ WorldServer ] <127.0.0.1:5556> Send TrustStatusMessage
[ WorldServer ] <127.0.0.1:54167> Receive CharactersListRequestMessage
[ WorldServer ] <127.0.0.1:5556> Send CharactersListMessage
[ WorldServer ] <127.0.0.1:54167> Receive CharacterCreationRequestMessage
[ Info ] Character Coucou was create...
[ WorldServer ] <127.0.0.1:5556> Send CharacterCreationResultMessage
[ WorldServer ] <127.0.0.1:5556> Send CharactersListMessage
[ WorldServer ] <127.0.0.1:54167> Receive CharacterSelectionMessage
[ WorldServer ] <127.0.0.1:5556> Send CharacterSelectedSuccessMessage
[ WorldServer ] <127.0.0.1:5556> Send InventoryContentMessage
[ WorldServer ] <127.0.0.1:5556> Send ShortcutBarContentMessage
[ WorldServer ] <127.0.0.1:5556> Send ShortcutBarContentMessage
[ WorldServer ] <127.0.0.1:5556> Send EmoteListMessage
[ WorldServer ] <127.0.0.1:5556> Send EnabledChannelsMessage
[ WorldServer ] <127.0.0.1:5556> Send AlignmentRankUpdateMessage
[ WorldServer ] <127.0.0.1:5556> Send AlignmentSubAreasListMessage
[ WorldServer ] <127.0.0.1:5556> Send SpellListMessage
[ WorldServer ] <127.0.0.1:5556> Send InventoryWeightMessage
[ WorldServer ] <127.0.0.1:5556> Send CharacterStatsListMessage
[ WorldServer ] <127.0.0.1:5556> Send JobDescriptionMessage
[ WorldServer ] <127.0.0.1:5556> Send JobExperienceMultiUpdateMessage
[ WorldServer ] <127.0.0.1:5556> Send JobCrafterDirectorySettingsMessage
[ WorldServer ] <127.0.0.1:54167> Receive IgnoredGetListMessage
[ WorldServer ] <127.0.0.1:5556> Send IgnoredListMessage
[ WorldServer ] <127.0.0.1:54167> Receive GameContextCreateRequestMessage
[ WorldServer ] <127.0.0.1:5556> Send GameContextDestroyMessage
[ WorldServer ] <127.0.0.1:5556> Send GameContextCreateMessage
[ WorldServer ] <127.0.0.1:5556> Send CurrentMapMessage
[ WorldServer ] <127.0.0.1:54167> Receive ChannelEnablingMessage
[ WorldServer ] <127.0.0.1:54167> Receive ChannelEnablingMessage
[ WorldServer ] <127.0.0.1:54167> Receive QuestListRequestMessage
[ WorldServer ] <127.0.0.1:5556> Send QuestListMessage
[ WorldServer ] <127.0.0.1:54167> Receive MapInformationsRequestMessage
[ WorldServer ] <127.0.0.1:5556> Send MapComplementaryInformationsDataMessage
[ WorldServer ] <127.0.0.1:5556> Send GameRolePlayShowActorMessage
[ WorldServer ] <127.0.0.1:54167> Receive ChatClientMultiMessage
[ WorldServer ] <127.0.0.1:5556> Send CurrentMapMessage
[ WorldServer ] <127.0.0.1:54167> Receive MapInformationsRequestMessage
[ WorldServer ] <127.0.0.1:5556> Send MapComplementaryInformationsDataMessage
[ WorldServer ] <127.0.0.1:5556> Send GameRolePlayShowActorMessage
[ WorldServer ] <127.0.0.1:5556> Send GameRolePlayShowActorMessage
[ WorldServer ] <127.0.0.1:5556> Send GameRolePlayShowActorMessage
[ WorldServer ] <127.0.0.1:5556> Send GameRolePlayShowActorMessage
[ WorldServer ] <127.0.0.1:5556> Send GameRolePlayShowActorMessage
[ WorldServer ] <127.0.0.1:54167> Receive GameMapMovementRequestMessage
[ WorldServer ] <127.0.0.1:5556> Send GameMapMovementMessage
[ WorldServer ] <127.0.0.1:5556> Send GameMapMovementMessage
[ WorldServer ] <127.0.0.1:5556> Send GameMapMovementMessage
[ WorldServer ] <127.0.0.1:54167> Receive GameMapMovementConfirmMessage
[ WorldServer ] <127.0.0.1:5556> Send BasicNoOperationMessage
[ WorldServer ] <127.0.0.1:5556> Send StatedElementUpdatedMessage
[ WorldServer ] <127.0.0.1:5556> Send StatedElementUpdatedMessage
[ WorldServer ] <127.0.0.1:5556> Send StatedElementUpdatedMessage
[ WorldServer ] <127.0.0.1:5556> Send MapObstacleUpdateMessage
[ WorldServer ] <127.0.0.1:5556> Send MapObstacleUpdateMessage
[ WorldServer ] <127.0.0.1:5556> Send MapObstacleUpdateMessage
[ WorldServer ] <127.0.0.1:54167> Receive GameMapMovementRequestMessage
[ WorldServer ] <127.0.0.1:5556> Send GameMapMovementMessage
[ WorldServer ] <127.0.0.1:5556> Send GameMapMovementMessage
[ WorldServer ] <127.0.0.1:5556> Send GameMapMovementMessage
[ WorldServer ] <127.0.0.1:54167> Receive GameMapMovementConfirmMessage
[ WorldServer ] <127.0.0.1:5556> Send BasicNoOperationMessage
[ Info ] Client <127.0.0.1:54149> disconnected from WorldServer...
[ WorldServer ] <127.0.0.1:5556> Send GameContextRemoveElementMessage
[ WorldServer ] <127.0.0.1:5556> Send GameContextRemoveElementMessage
[ Info ] Client <127.0.0.1:54167> disconnected from WorldServer...
[ WorldServer ] <127.0.0.1:5556> Send GameContextRemoveElementMessage
[ WorldServer ] <127.0.0.1:5556> Send StatedElementUpdatedMessage
[ WorldServer ] <127.0.0.1:5556> Send MapObstacleUpdateMessage
[ WorldServer ] <127.0.0.1:54124> Receive GameMapMovementRequestMessage
[ WorldServer ] <127.0.0.1:5556> Send GameMapMovementMessage
[ WorldServer ] <127.0.0.1:54124> Receive GameMapMovementConfirmMessage
[ WorldServer ] <127.0.0.1:5556> Send BasicNoOperationMessage
[ WorldServer ] <127.0.0.1:54124> Receive ChatClientMultiMessage
[ WorldServer ] <127.0.0.1:5556> Send TextInformationMessage
[ WorldServer ] <127.0.0.1:54124> Receive ChatClientMultiMessage
[ WorldServer ] <127.0.0.1:5556> Send CurrentMapMessage
[ WorldServer ] <127.0.0.1:54124> Receive MapInformationsRequestMessage
[ WorldServer ] <127.0.0.1:5556> Send MapComplementaryInformationsDataMessage
[ WorldServer ] <127.0.0.1:5556> Send GameRolePlayShowActorMessage
[ WorldServer ] <127.0.0.1:54124> Receive ChatClientMultiMessage
[ WorldServer ] <127.0.0.1:5556> Send CurrentMapMessage
[ WorldServer ] <127.0.0.1:54124> Receive MapInformationsRequestMessage
[ WorldServer ] <127.0.0.1:5556> Send MapComplementaryInformationsDataMessage
[ WorldServer ] <127.0.0.1:5556> Send GameRolePlayShowActorMessage
[ WorldServer ] <127.0.0.1:54124> Receive GameMapMovementRequestMessage
[ WorldServer ] <127.0.0.1:5556> Send GameMapMovementMessage
[ WorldServer ] <127.0.0.1:54124> Receive GameMapMovementConfirmMessage
[ WorldServer ] <127.0.0.1:5556> Send BasicNoOperationMessage
[ WorldServer ] <127.0.0.1:54124> Receive InteractiveUseRequestMessage
[ WorldServer ] <127.0.0.1:5556> Send InteractiveUsedMessage
[ WorldServer ] <127.0.0.1:5556> Send StatedElementUpdatedMessage
[ WorldServer ] <127.0.0.1:5556> Send MapObstacleUpdateMessage
[ WorldServer ] <127.0.0.1:5556> Send InteractiveUseEndedMessage
[ WorldServer ] <127.0.0.1:54124> Receive GameMapMovementRequestMessage
[ WorldServer ] <127.0.0.1:5556> Send GameMapMovementMessage
[ WorldServer ] <127.0.0.1:54124> Receive GameMapMovementConfirmMessage
[ WorldServer ] <127.0.0.1:5556> Send BasicNoOperationMessage
[ WorldServer ] <127.0.0.1:5556> Send StatedElementUpdatedMessage
[ WorldServer ] <127.0.0.1:5556> Send MapObstacleUpdateMessage
[ WorldServer ] <127.0.0.1:54124> Receive GameMapMovementRequestMessage
[ WorldServer ] <127.0.0.1:5556> Send GameMapMovementMessage
[ WorldServer ] <127.0.0.1:54124> Receive GameMapMovementConfirmMessage
[ WorldServer ] <127.0.0.1:5556> Send BasicNoOperationMessage
[ Info ] Client <127.0.0.1:54124> disconnected from WorldServer...
