[ Info ] Starting IPC Auth 127.0.0.1:443
[ Info ] Starting IPC World 127.0.0.1:5556
[ Info ] Client <127.0.0.1:52724> connected to AuthServer...
[ AuthServer ] <127.0.0.1:443> Send ProtocolRequired
[ AuthServer ] <127.0.0.1:443> Send HelloConnectMessage
[ AuthServer ] <127.0.0.1:52724> Receive IdentificationMessage
[ AuthServer ] <127.0.0.1:443> Send IdentificationSuccessMessage
[ AuthServer ] <127.0.0.1:443> Send ServersListMessage
[ AuthServer ] <127.0.0.1:52724> Receive ServerSelectionMessage
[ AuthServer ] <127.0.0.1:443> Send SelectedServerDataMessage
[ Info ] Client <127.0.0.1:52724> disconnected from AuthServer...
[ Info ] Client <127.0.0.1:52725> connected to WorldServer...
[ WorldServer ] <127.0.0.1:5556> Send ProtocolRequired
[ WorldServer ] <127.0.0.1:5556> Send HelloGameMessage
[ WorldServer ] <127.0.0.1:52725> Receive AuthenticationTicketMessage
[ WorldServer ] <127.0.0.1:5556> Send AuthenticationTicketAcceptedMessage
[ WorldServer ] <127.0.0.1:5556> Send BasicTimeMessage
[ WorldServer ] <127.0.0.1:5556> Send AccountCapabilitiesMessage
[ WorldServer ] <127.0.0.1:5556> Send TrustStatusMessage
[ WorldServer ] <127.0.0.1:52725> Receive CharactersListRequestMessage
[ WorldServer ] <127.0.0.1:5556> Send CharactersListMessage
[ WorldServer ] <127.0.0.1:52725> Receive CharacterSelectionMessage
[ WorldServer ] <127.0.0.1:5556> Send CharacterSelectedSuccessMessage
[ WorldServer ] <127.0.0.1:5556> Send InventoryContentMessage
[ WorldServer ] <127.0.0.1:5556> Send ShortcutBarContentMessage
[ WorldServer ] <127.0.0.1:5556> Send ShortcutBarContentMessage
[ WorldServer ] <127.0.0.1:5556> Send EmoteListMessage
[ WorldServer ] <127.0.0.1:5556> Send EnabledChannelsMessage
[ WorldServer ] <127.0.0.1:5556> Send AlignmentRankUpdateMessage
[ WorldServer ] <127.0.0.1:5556> Send AlignmentSubAreasListMessage
[ WorldServer ] <127.0.0.1:5556> Send SpellListMessage
[ WorldServer ] <127.0.0.1:5556> Send InventoryWeightMessage
[ WorldServer ] <127.0.0.1:5556> Send CharacterStatsListMessage
[ WorldServer ] <127.0.0.1:5556> Send JobDescriptionMessage
[ WorldServer ] <127.0.0.1:5556> Send JobExperienceMultiUpdateMessage
[ WorldServer ] <127.0.0.1:5556> Send JobCrafterDirectorySettingsMessage
[ WorldServer ] <127.0.0.1:52725> Receive IgnoredGetListMessage
[ WorldServer ] <127.0.0.1:5556> Send IgnoredListMessage
[ WorldServer ] <127.0.0.1:52725> Receive GameContextCreateRequestMessage
[ WorldServer ] <127.0.0.1:5556> Send GameContextDestroyMessage
[ WorldServer ] <127.0.0.1:5556> Send GameContextCreateMessage
[ WorldServer ] <127.0.0.1:5556> Send CurrentMapMessage
[ WorldServer ] <127.0.0.1:52725> Receive ChannelEnablingMessage
[ WorldServer ] <127.0.0.1:52725> Receive ChannelEnablingMessage
[ WorldServer ] <127.0.0.1:52725> Receive ChannelEnablingMessage
[ WorldServer ] <127.0.0.1:52725> Receive QuestListRequestMessage
[ WorldServer ] <127.0.0.1:5556> Send QuestListMessage
[ WorldServer ] <127.0.0.1:52725> Receive MapInformationsRequestMessage
[ WorldServer ] <127.0.0.1:5556> Send MapComplementaryInformationsDataMessage
[ WorldServer ] <127.0.0.1:5556> Send GameRolePlayShowActorMessage
[ WorldServer ] <127.0.0.1:52725> Receive ChatClientMultiMessage
[ WorldServer ] <127.0.0.1:5556> Send ObjectAddedMessage
[ WorldServer ] <127.0.0.1:5556> Send InventoryWeightMessage
[ WorldServer ] <127.0.0.1:5556> Send TextInformationMessage
[ WorldServer ] <127.0.0.1:52725> Receive ObjectSetPositionMessage
[ WorldServer ] <127.0.0.1:5556> Send ObjectMovementMessage
[ WorldServer ] <127.0.0.1:5556> Send CharacterStatsListMessage
[ WorldServer ] <127.0.0.1:5556> Send InventoryWeightMessage
[ WorldServer ] <127.0.0.1:52725> Receive ChatClientMultiMessage
[ WorldServer ] <127.0.0.1:5556> Send ObjectAddedMessage
[ WorldServer ] <127.0.0.1:5556> Send InventoryWeightMessage
[ WorldServer ] <127.0.0.1:5556> Send TextInformationMessage
[ WorldServer ] <127.0.0.1:52725> Receive ObjectSetPositionMessage
[ WorldServer ] <127.0.0.1:5556> Send ObjectMovementMessage
[ WorldServer ] <127.0.0.1:5556> Send CharacterStatsListMessage
[ WorldServer ] <127.0.0.1:5556> Send CharacterStatsListMessage
[ WorldServer ] <127.0.0.1:5556> Send InventoryWeightMessage
[ WorldServer ] <127.0.0.1:52725> Receive ObjectSetPositionMessage
[ WorldServer ] <127.0.0.1:5556> Send ObjectMovementMessage
[ WorldServer ] <127.0.0.1:5556> Send CharacterStatsListMessage
[ WorldServer ] <127.0.0.1:5556> Send CharacterStatsListMessage
[ WorldServer ] <127.0.0.1:5556> Send InventoryWeightMessage
[ Info ] Client <127.0.0.1:52725> disconnected from WorldServer...
