[ Info ] Starting IPC Auth 127.0.0.1:443
[ Info ] Starting IPC World 127.0.0.1:5556
[ Info ] Client <127.0.0.1:59196> connected to AuthServer...
[ AuthServer ] <127.0.0.1:443> Send ProtocolRequired
[ AuthServer ] <127.0.0.1:443> Send HelloConnectMessage
[ AuthServer ] <127.0.0.1:59196> Receive IdentificationMessage
[ AuthServer ] <127.0.0.1:443> Send IdentificationFailedMessage
[ Info ] Client <127.0.0.1:59196> disconnected from AuthServer...
[ Info ] Client <127.0.0.1:59197> connected to AuthServer...
[ AuthServer ] <127.0.0.1:443> Send ProtocolRequired
[ AuthServer ] <127.0.0.1:443> Send HelloConnectMessage
[ AuthServer ] <127.0.0.1:59197> Receive IdentificationMessage
[ AuthServer ] <127.0.0.1:443> Send IdentificationSuccessMessage
[ AuthServer ] <127.0.0.1:443> Send ServersListMessage
[ AuthServer ] <127.0.0.1:59197> Receive ServerSelectionMessage
[ AuthServer ] <127.0.0.1:443> Send SelectedServerDataMessage
[ Info ] Client <127.0.0.1:59197> disconnected from AuthServer...
[ Info ] Client <127.0.0.1:59198> connected to WorldServer...
[ WorldServer ] <127.0.0.1:5556> Send ProtocolRequired
[ WorldServer ] <127.0.0.1:5556> Send HelloGameMessage
[ WorldServer ] <127.0.0.1:59198> Receive AuthenticationTicketMessage
[ WorldServer ] <127.0.0.1:5556> Send AuthenticationTicketAcceptedMessage
[ WorldServer ] <127.0.0.1:5556> Send BasicTimeMessage
[ WorldServer ] <127.0.0.1:5556> Send AccountCapabilitiesMessage
[ WorldServer ] <127.0.0.1:5556> Send TrustStatusMessage
[ WorldServer ] <127.0.0.1:59198> Receive CharactersListRequestMessage
[ WorldServer ] <127.0.0.1:5556> Send CharactersListMessage
[ WorldServer ] <127.0.0.1:59198> Receive CharacterSelectionMessage
[ WorldServer ] <127.0.0.1:5556> Send CharacterSelectedSuccessMessage
[ WorldServer ] <127.0.0.1:5556> Send InventoryContentMessage
[ WorldServer ] <127.0.0.1:5556> Send ShortcutBarContentMessage
[ WorldServer ] <127.0.0.1:5556> Send ShortcutBarContentMessage
[ WorldServer ] <127.0.0.1:5556> Send EmoteListMessage
[ WorldServer ] <127.0.0.1:5556> Send EnabledChannelsMessage
[ WorldServer ] <127.0.0.1:5556> Send AlignmentRankUpdateMessage
[ WorldServer ] <127.0.0.1:5556> Send AlignmentSubAreasListMessage
[ WorldServer ] <127.0.0.1:5556> Send SpellListMessage
[ WorldServer ] <127.0.0.1:5556> Send InventoryWeightMessage
[ WorldServer ] <127.0.0.1:5556> Send CharacterStatsListMessage
[ WorldServer ] <127.0.0.1:5556> Send JobDescriptionMessage
[ WorldServer ] <127.0.0.1:5556> Send JobExperienceMultiUpdateMessage
[ WorldServer ] <127.0.0.1:5556> Send JobCrafterDirectorySettingsMessage
[ WorldServer ] <127.0.0.1:5556> Send TextInformationMessage
[ WorldServer ] <127.0.0.1:5556> Send LifePointsRegenBeginMessage
[ WorldServer ] <127.0.0.1:59198> Receive IgnoredGetListMessage
[ WorldServer ] <127.0.0.1:5556> Send IgnoredListMessage
[ WorldServer ] <127.0.0.1:59198> Receive GameContextCreateRequestMessage
[ WorldServer ] <127.0.0.1:5556> Send GameContextDestroyMessage
[ WorldServer ] <127.0.0.1:5556> Send GameContextCreateMessage
[ WorldServer ] <127.0.0.1:5556> Send CurrentMapMessage
[ WorldServer ] <127.0.0.1:59198> Receive ChannelEnablingMessage
[ WorldServer ] <127.0.0.1:59198> Receive ChannelEnablingMessage
[ WorldServer ] <127.0.0.1:59198> Receive QuestListRequestMessage
[ WorldServer ] <127.0.0.1:5556> Send QuestListMessage
[ WorldServer ] <127.0.0.1:59198> Receive MapInformationsRequestMessage
[ WorldServer ] <127.0.0.1:5556> Send MapComplementaryInformationsDataMessage
[ WorldServer ] <127.0.0.1:5556> Send GameRolePlayShowActorMessage
[ WorldServer ] <127.0.0.1:59198> Receive ChatClientMultiMessage
[ WorldServer ] <127.0.0.1:5556> Send CurrentMapMessage
[ WorldServer ] <127.0.0.1:59198> Receive MapInformationsRequestMessage
[ WorldServer ] <127.0.0.1:5556> Send MapComplementaryInformationsDataMessage
[ WorldServer ] <127.0.0.1:5556> Send GameRolePlayShowActorMessage
[ WorldServer ] <127.0.0.1:59198> Receive GameMapMovementRequestMessage
[ WorldServer ] <127.0.0.1:5556> Send GameMapMovementMessage
[ WorldServer ] <127.0.0.1:59198> Receive GameMapMovementCancelMessage
[ WorldServer ] <127.0.0.1:5556> Send BasicNoOperationMessage
[ WorldServer ] <127.0.0.1:59198> Receive NpcGenericActionRequestMessage
[ WorldServer ] <127.0.0.1:5556> Send NpcDialogCreationMessage
[ WorldServer ] <127.0.0.1:5556> Send NpcDialogQuestionMessage
[ WorldServer ] <127.0.0.1:59198> Receive NpcDialogReplyMessage
[ WorldServer ] <127.0.0.1:5556> Send NpcDialogQuestionMessage
[ WorldServer ] <127.0.0.1:59198> Receive NpcDialogReplyMessage
[ WorldServer ] <127.0.0.1:5556> Send TextInformationMessage
[ WorldServer ] <127.0.0.1:5556> Send QuestStartedMessage
[ WorldServer ] <127.0.0.1:5556> Send MapNpcsQuestStatusUpdateMessage
[ WorldServer ] <127.0.0.1:5556> Send LeaveDialogMessage
[ WorldServer ] <127.0.0.1:59198> Receive QuestListRequestMessage
[ WorldServer ] <127.0.0.1:5556> Send QuestListMessage
[ WorldServer ] <127.0.0.1:59198> Receive QuestStepInfoRequestMessage
[ Info ] Client <127.0.0.1:59198> disconnected from WorldServer...
[ Info ] Starting IPC Auth 127.0.0.1:443
[ Info ] Starting IPC World 127.0.0.1:5556
[ Info ] Client <127.0.0.1:59413> connected to AuthServer...
[ AuthServer ] <127.0.0.1:443> Send ProtocolRequired
[ AuthServer ] <127.0.0.1:443> Send HelloConnectMessage
[ AuthServer ] <127.0.0.1:59413> Receive IdentificationMessage
[ AuthServer ] <127.0.0.1:443> Send IdentificationSuccessMessage
[ AuthServer ] <127.0.0.1:443> Send ServersListMessage
[ AuthServer ] <127.0.0.1:59413> Receive ServerSelectionMessage
[ AuthServer ] <127.0.0.1:443> Send SelectedServerDataMessage
[ Info ] Client <127.0.0.1:59413> disconnected from AuthServer...
[ Info ] Client <127.0.0.1:59414> connected to WorldServer...
[ WorldServer ] <127.0.0.1:5556> Send ProtocolRequired
[ WorldServer ] <127.0.0.1:5556> Send HelloGameMessage
[ WorldServer ] <127.0.0.1:59414> Receive AuthenticationTicketMessage
[ WorldServer ] <127.0.0.1:5556> Send AuthenticationTicketAcceptedMessage
[ WorldServer ] <127.0.0.1:5556> Send BasicTimeMessage
[ WorldServer ] <127.0.0.1:5556> Send AccountCapabilitiesMessage
[ WorldServer ] <127.0.0.1:5556> Send TrustStatusMessage
[ WorldServer ] <127.0.0.1:59414> Receive CharactersListRequestMessage
[ WorldServer ] <127.0.0.1:5556> Send CharactersListMessage
[ WorldServer ] <127.0.0.1:59414> Receive CharacterSelectionMessage
[ WorldServer ] <127.0.0.1:5556> Send CharacterSelectedSuccessMessage
[ WorldServer ] <127.0.0.1:5556> Send InventoryContentMessage
[ WorldServer ] <127.0.0.1:5556> Send ShortcutBarContentMessage
[ WorldServer ] <127.0.0.1:5556> Send ShortcutBarContentMessage
[ WorldServer ] <127.0.0.1:5556> Send EmoteListMessage
[ WorldServer ] <127.0.0.1:5556> Send EnabledChannelsMessage
[ WorldServer ] <127.0.0.1:5556> Send AlignmentRankUpdateMessage
[ WorldServer ] <127.0.0.1:5556> Send AlignmentSubAreasListMessage
[ WorldServer ] <127.0.0.1:5556> Send SpellListMessage
[ WorldServer ] <127.0.0.1:5556> Send InventoryWeightMessage
[ WorldServer ] <127.0.0.1:5556> Send CharacterStatsListMessage
[ WorldServer ] <127.0.0.1:5556> Send JobDescriptionMessage
[ WorldServer ] <127.0.0.1:5556> Send JobExperienceMultiUpdateMessage
[ WorldServer ] <127.0.0.1:5556> Send JobCrafterDirectorySettingsMessage
[ WorldServer ] <127.0.0.1:5556> Send TextInformationMessage
[ WorldServer ] <127.0.0.1:5556> Send LifePointsRegenBeginMessage
[ WorldServer ] <127.0.0.1:59414> Receive IgnoredGetListMessage
[ WorldServer ] <127.0.0.1:5556> Send IgnoredListMessage
[ WorldServer ] <127.0.0.1:59414> Receive GameContextCreateRequestMessage
[ WorldServer ] <127.0.0.1:5556> Send GameContextDestroyMessage
[ WorldServer ] <127.0.0.1:5556> Send GameContextCreateMessage
[ WorldServer ] <127.0.0.1:5556> Send CurrentMapMessage
[ WorldServer ] <127.0.0.1:59414> Receive QuestListRequestMessage
[ WorldServer ] <127.0.0.1:5556> Send QuestListMessage
[ WorldServer ] <127.0.0.1:59414> Receive ChannelEnablingMessage
[ WorldServer ] <127.0.0.1:59414> Receive ChannelEnablingMessage
[ WorldServer ] <127.0.0.1:59414> Receive MapInformationsRequestMessage
[ WorldServer ] <127.0.0.1:5556> Send MapComplementaryInformationsDataMessage
[ WorldServer ] <127.0.0.1:5556> Send GameRolePlayShowActorMessage
[ WorldServer ] <127.0.0.1:59414> Receive ChatClientMultiMessage
[ WorldServer ] <127.0.0.1:5556> Send CurrentMapMessage
[ WorldServer ] <127.0.0.1:59414> Receive MapInformationsRequestMessage
[ WorldServer ] <127.0.0.1:5556> Send MapComplementaryInformationsDataMessage
[ WorldServer ] <127.0.0.1:5556> Send GameRolePlayShowActorMessage
[ WorldServer ] <127.0.0.1:59414> Receive GameMapMovementRequestMessage
[ WorldServer ] <127.0.0.1:5556> Send GameMapMovementMessage
[ WorldServer ] <127.0.0.1:59414> Receive GameMapMovementCancelMessage
[ WorldServer ] <127.0.0.1:5556> Send BasicNoOperationMessage
[ WorldServer ] <127.0.0.1:59414> Receive GameMapMovementRequestMessage
[ WorldServer ] <127.0.0.1:5556> Send GameMapMovementMessage
[ WorldServer ] <127.0.0.1:59414> Receive GameMapMovementConfirmMessage
[ WorldServer ] <127.0.0.1:5556> Send BasicNoOperationMessage
[ WorldServer ] <127.0.0.1:59414> Receive NpcGenericActionRequestMessage
[ WorldServer ] <127.0.0.1:5556> Send NpcDialogCreationMessage
[ WorldServer ] <127.0.0.1:5556> Send NpcDialogQuestionMessage
[ WorldServer ] <127.0.0.1:59414> Receive NpcDialogReplyMessage
[ WorldServer ] <127.0.0.1:5556> Send NpcDialogQuestionMessage
[ WorldServer ] <127.0.0.1:59414> Receive NpcDialogReplyMessage
[ WorldServer ] <127.0.0.1:5556> Send TextInformationMessage
[ WorldServer ] <127.0.0.1:5556> Send QuestStartedMessage
[ WorldServer ] <127.0.0.1:5556> Send MapNpcsQuestStatusUpdateMessage
[ WorldServer ] <127.0.0.1:5556> Send LeaveDialogMessage
[ WorldServer ] <127.0.0.1:59414> Receive QuestListRequestMessage
[ WorldServer ] <127.0.0.1:5556> Send QuestListMessage
[ WorldServer ] <127.0.0.1:59414> Receive QuestStepInfoRequestMessage
[ Info ] Starting IPC Auth 127.0.0.1:443
[ Info ] Starting IPC World 127.0.0.1:5556
[ Info ] Client <127.0.0.1:59443> connected to AuthServer...
[ AuthServer ] <127.0.0.1:443> Send ProtocolRequired
[ AuthServer ] <127.0.0.1:443> Send HelloConnectMessage
[ AuthServer ] <127.0.0.1:59443> Receive IdentificationMessage
[ AuthServer ] <127.0.0.1:443> Send IdentificationSuccessMessage
[ AuthServer ] <127.0.0.1:443> Send ServersListMessage
[ AuthServer ] <127.0.0.1:59443> Receive ServerSelectionMessage
[ AuthServer ] <127.0.0.1:443> Send SelectedServerDataMessage
[ Info ] Client <127.0.0.1:59443> disconnected from AuthServer...
[ Info ] Client <127.0.0.1:59444> connected to WorldServer...
[ WorldServer ] <127.0.0.1:5556> Send ProtocolRequired
[ WorldServer ] <127.0.0.1:5556> Send HelloGameMessage
[ WorldServer ] <127.0.0.1:59444> Receive AuthenticationTicketMessage
[ WorldServer ] <127.0.0.1:5556> Send AuthenticationTicketAcceptedMessage
[ WorldServer ] <127.0.0.1:5556> Send BasicTimeMessage
[ WorldServer ] <127.0.0.1:5556> Send AccountCapabilitiesMessage
[ WorldServer ] <127.0.0.1:5556> Send TrustStatusMessage
[ WorldServer ] <127.0.0.1:59444> Receive CharactersListRequestMessage
[ WorldServer ] <127.0.0.1:5556> Send CharactersListMessage
[ WorldServer ] <127.0.0.1:59444> Receive CharacterSelectionMessage
[ WorldServer ] <127.0.0.1:5556> Send CharacterSelectedSuccessMessage
[ WorldServer ] <127.0.0.1:5556> Send InventoryContentMessage
[ WorldServer ] <127.0.0.1:5556> Send ShortcutBarContentMessage
[ WorldServer ] <127.0.0.1:5556> Send ShortcutBarContentMessage
[ WorldServer ] <127.0.0.1:5556> Send EmoteListMessage
[ WorldServer ] <127.0.0.1:5556> Send EnabledChannelsMessage
[ WorldServer ] <127.0.0.1:5556> Send AlignmentRankUpdateMessage
[ WorldServer ] <127.0.0.1:5556> Send AlignmentSubAreasListMessage
[ WorldServer ] <127.0.0.1:5556> Send SpellListMessage
[ WorldServer ] <127.0.0.1:5556> Send InventoryWeightMessage
[ WorldServer ] <127.0.0.1:5556> Send CharacterStatsListMessage
[ WorldServer ] <127.0.0.1:5556> Send JobDescriptionMessage
[ WorldServer ] <127.0.0.1:5556> Send JobExperienceMultiUpdateMessage
[ WorldServer ] <127.0.0.1:5556> Send JobCrafterDirectorySettingsMessage
[ WorldServer ] <127.0.0.1:5556> Send TextInformationMessage
[ WorldServer ] <127.0.0.1:5556> Send LifePointsRegenBeginMessage
[ WorldServer ] <127.0.0.1:59444> Receive IgnoredGetListMessage
[ WorldServer ] <127.0.0.1:5556> Send IgnoredListMessage
[ WorldServer ] <127.0.0.1:59444> Receive GameContextCreateRequestMessage
[ WorldServer ] <127.0.0.1:5556> Send GameContextDestroyMessage
[ WorldServer ] <127.0.0.1:5556> Send GameContextCreateMessage
[ WorldServer ] <127.0.0.1:5556> Send CurrentMapMessage
[ WorldServer ] <127.0.0.1:59444> Receive QuestListRequestMessage
[ WorldServer ] <127.0.0.1:5556> Send QuestListMessage
[ WorldServer ] <127.0.0.1:59444> Receive ChannelEnablingMessage
[ WorldServer ] <127.0.0.1:59444> Receive ChannelEnablingMessage
[ WorldServer ] <127.0.0.1:59444> Receive MapInformationsRequestMessage
[ WorldServer ] <127.0.0.1:5556> Send MapComplementaryInformationsDataMessage
[ WorldServer ] <127.0.0.1:5556> Send GameRolePlayShowActorMessage
[ WorldServer ] <127.0.0.1:59444> Receive ChatClientMultiMessage
[ WorldServer ] <127.0.0.1:5556> Send CurrentMapMessage
[ WorldServer ] <127.0.0.1:59444> Receive MapInformationsRequestMessage
[ WorldServer ] <127.0.0.1:5556> Send MapComplementaryInformationsDataMessage
[ WorldServer ] <127.0.0.1:5556> Send GameRolePlayShowActorMessage
[ WorldServer ] <127.0.0.1:59444> Receive NpcGenericActionRequestMessage
[ WorldServer ] <127.0.0.1:5556> Send NpcDialogCreationMessage
[ WorldServer ] <127.0.0.1:5556> Send NpcDialogQuestionMessage
[ WorldServer ] <127.0.0.1:59444> Receive NpcDialogReplyMessage
[ WorldServer ] <127.0.0.1:5556> Send NpcDialogQuestionMessage
[ WorldServer ] <127.0.0.1:59444> Receive NpcDialogReplyMessage
[ WorldServer ] <127.0.0.1:5556> Send TextInformationMessage
[ WorldServer ] <127.0.0.1:5556> Send QuestStartedMessage
[ WorldServer ] <127.0.0.1:5556> Send MapNpcsQuestStatusUpdateMessage
[ WorldServer ] <127.0.0.1:5556> Send LeaveDialogMessage
[ WorldServer ] <127.0.0.1:59444> Receive QuestListRequestMessage
[ WorldServer ] <127.0.0.1:5556> Send QuestListMessage
[ WorldServer ] <127.0.0.1:59444> Receive QuestStepInfoRequestMessage
[ Info ] Starting IPC Auth 127.0.0.1:443
[ Info ] Starting IPC World 127.0.0.1:5556
[ Info ] Client <127.0.0.1:59476> connected to AuthServer...
[ AuthServer ] <127.0.0.1:443> Send ProtocolRequired
[ AuthServer ] <127.0.0.1:443> Send HelloConnectMessage
[ AuthServer ] <127.0.0.1:59476> Receive IdentificationMessage
[ AuthServer ] <127.0.0.1:443> Send IdentificationSuccessMessage
[ AuthServer ] <127.0.0.1:443> Send ServersListMessage
[ AuthServer ] <127.0.0.1:59476> Receive ServerSelectionMessage
[ AuthServer ] <127.0.0.1:443> Send SelectedServerDataMessage
[ Info ] Client <127.0.0.1:59476> disconnected from AuthServer...
[ Info ] Client <127.0.0.1:59479> connected to WorldServer...
[ WorldServer ] <127.0.0.1:5556> Send ProtocolRequired
[ WorldServer ] <127.0.0.1:5556> Send HelloGameMessage
[ WorldServer ] <127.0.0.1:59479> Receive AuthenticationTicketMessage
[ WorldServer ] <127.0.0.1:5556> Send AuthenticationTicketAcceptedMessage
[ WorldServer ] <127.0.0.1:5556> Send BasicTimeMessage
[ WorldServer ] <127.0.0.1:5556> Send AccountCapabilitiesMessage
[ WorldServer ] <127.0.0.1:5556> Send TrustStatusMessage
[ WorldServer ] <127.0.0.1:59479> Receive CharactersListRequestMessage
[ WorldServer ] <127.0.0.1:5556> Send CharactersListMessage
[ WorldServer ] <127.0.0.1:59479> Receive CharacterSelectionMessage
[ WorldServer ] <127.0.0.1:5556> Send CharacterSelectedSuccessMessage
[ WorldServer ] <127.0.0.1:5556> Send InventoryContentMessage
[ WorldServer ] <127.0.0.1:5556> Send ShortcutBarContentMessage
[ WorldServer ] <127.0.0.1:5556> Send ShortcutBarContentMessage
[ WorldServer ] <127.0.0.1:5556> Send EmoteListMessage
[ WorldServer ] <127.0.0.1:5556> Send EnabledChannelsMessage
[ WorldServer ] <127.0.0.1:5556> Send AlignmentRankUpdateMessage
[ WorldServer ] <127.0.0.1:5556> Send AlignmentSubAreasListMessage
[ WorldServer ] <127.0.0.1:5556> Send SpellListMessage
[ WorldServer ] <127.0.0.1:5556> Send InventoryWeightMessage
[ WorldServer ] <127.0.0.1:5556> Send CharacterStatsListMessage
[ WorldServer ] <127.0.0.1:5556> Send JobDescriptionMessage
[ WorldServer ] <127.0.0.1:5556> Send JobExperienceMultiUpdateMessage
[ WorldServer ] <127.0.0.1:5556> Send JobCrafterDirectorySettingsMessage
[ WorldServer ] <127.0.0.1:5556> Send TextInformationMessage
[ WorldServer ] <127.0.0.1:5556> Send LifePointsRegenBeginMessage
[ WorldServer ] <127.0.0.1:59479> Receive IgnoredGetListMessage
[ WorldServer ] <127.0.0.1:5556> Send IgnoredListMessage
[ WorldServer ] <127.0.0.1:59479> Receive GameContextCreateRequestMessage
[ WorldServer ] <127.0.0.1:5556> Send GameContextDestroyMessage
[ WorldServer ] <127.0.0.1:5556> Send GameContextCreateMessage
[ WorldServer ] <127.0.0.1:5556> Send CurrentMapMessage
[ WorldServer ] <127.0.0.1:59479> Receive QuestListRequestMessage
[ WorldServer ] <127.0.0.1:5556> Send QuestListMessage
[ WorldServer ] <127.0.0.1:59479> Receive ChannelEnablingMessage
[ WorldServer ] <127.0.0.1:59479> Receive ChannelEnablingMessage
[ WorldServer ] <127.0.0.1:59479> Receive MapInformationsRequestMessage
[ WorldServer ] <127.0.0.1:5556> Send MapComplementaryInformationsDataMessage
[ WorldServer ] <127.0.0.1:5556> Send GameRolePlayShowActorMessage
[ WorldServer ] <127.0.0.1:59479> Receive ChatClientMultiMessage
[ WorldServer ] <127.0.0.1:5556> Send CurrentMapMessage
[ WorldServer ] <127.0.0.1:59479> Receive MapInformationsRequestMessage
[ WorldServer ] <127.0.0.1:5556> Send MapComplementaryInformationsDataMessage
[ WorldServer ] <127.0.0.1:5556> Send GameRolePlayShowActorMessage
[ WorldServer ] <127.0.0.1:59479> Receive GameMapMovementRequestMessage
[ WorldServer ] <127.0.0.1:5556> Send GameMapMovementMessage
[ WorldServer ] <127.0.0.1:59479> Receive GameMapMovementConfirmMessage
[ WorldServer ] <127.0.0.1:5556> Send BasicNoOperationMessage
[ WorldServer ] <127.0.0.1:59479> Receive NpcGenericActionRequestMessage
[ WorldServer ] <127.0.0.1:5556> Send NpcDialogCreationMessage
[ WorldServer ] <127.0.0.1:5556> Send NpcDialogQuestionMessage
[ WorldServer ] <127.0.0.1:59479> Receive NpcDialogReplyMessage
[ WorldServer ] <127.0.0.1:5556> Send NpcDialogQuestionMessage
[ WorldServer ] <127.0.0.1:59479> Receive NpcDialogReplyMessage
[ WorldServer ] <127.0.0.1:5556> Send TextInformationMessage
[ WorldServer ] <127.0.0.1:5556> Send QuestStartedMessage
[ WorldServer ] <127.0.0.1:5556> Send MapNpcsQuestStatusUpdateMessage
[ WorldServer ] <127.0.0.1:5556> Send LeaveDialogMessage
[ WorldServer ] <127.0.0.1:59479> Receive QuestListRequestMessage
[ WorldServer ] <127.0.0.1:5556> Send QuestListMessage
[ WorldServer ] <127.0.0.1:59479> Receive QuestStepInfoRequestMessage
[ Info ] Starting IPC Auth 127.0.0.1:443
[ Info ] Starting IPC World 127.0.0.1:5556
[ Info ] Client <127.0.0.1:59523> connected to AuthServer...
[ AuthServer ] <127.0.0.1:443> Send ProtocolRequired
[ AuthServer ] <127.0.0.1:443> Send HelloConnectMessage
[ AuthServer ] <127.0.0.1:59523> Receive IdentificationMessage
[ AuthServer ] <127.0.0.1:443> Send IdentificationSuccessMessage
[ AuthServer ] <127.0.0.1:443> Send ServersListMessage
[ AuthServer ] <127.0.0.1:59523> Receive ServerSelectionMessage
[ AuthServer ] <127.0.0.1:443> Send SelectedServerDataMessage
[ Info ] Client <127.0.0.1:59523> disconnected from AuthServer...
[ Info ] Client <127.0.0.1:59524> connected to WorldServer...
[ WorldServer ] <127.0.0.1:5556> Send ProtocolRequired
[ WorldServer ] <127.0.0.1:5556> Send HelloGameMessage
[ WorldServer ] <127.0.0.1:59524> Receive AuthenticationTicketMessage
[ WorldServer ] <127.0.0.1:5556> Send AuthenticationTicketAcceptedMessage
[ WorldServer ] <127.0.0.1:5556> Send BasicTimeMessage
[ WorldServer ] <127.0.0.1:5556> Send AccountCapabilitiesMessage
[ WorldServer ] <127.0.0.1:5556> Send TrustStatusMessage
[ WorldServer ] <127.0.0.1:59524> Receive CharactersListRequestMessage
[ WorldServer ] <127.0.0.1:5556> Send CharactersListMessage
[ WorldServer ] <127.0.0.1:59524> Receive CharacterSelectionMessage
[ WorldServer ] <127.0.0.1:5556> Send CharacterSelectedSuccessMessage
[ WorldServer ] <127.0.0.1:5556> Send InventoryContentMessage
[ WorldServer ] <127.0.0.1:5556> Send ShortcutBarContentMessage
[ WorldServer ] <127.0.0.1:5556> Send ShortcutBarContentMessage
[ WorldServer ] <127.0.0.1:5556> Send EmoteListMessage
[ WorldServer ] <127.0.0.1:5556> Send EnabledChannelsMessage
[ WorldServer ] <127.0.0.1:5556> Send AlignmentRankUpdateMessage
[ WorldServer ] <127.0.0.1:5556> Send AlignmentSubAreasListMessage
[ WorldServer ] <127.0.0.1:5556> Send SpellListMessage
[ WorldServer ] <127.0.0.1:5556> Send InventoryWeightMessage
[ WorldServer ] <127.0.0.1:5556> Send CharacterStatsListMessage
[ WorldServer ] <127.0.0.1:5556> Send JobDescriptionMessage
[ WorldServer ] <127.0.0.1:5556> Send JobExperienceMultiUpdateMessage
[ WorldServer ] <127.0.0.1:5556> Send JobCrafterDirectorySettingsMessage
[ WorldServer ] <127.0.0.1:5556> Send TextInformationMessage
[ WorldServer ] <127.0.0.1:5556> Send LifePointsRegenBeginMessage
[ WorldServer ] <127.0.0.1:59524> Receive IgnoredGetListMessage
[ WorldServer ] <127.0.0.1:5556> Send IgnoredListMessage
[ WorldServer ] <127.0.0.1:59524> Receive GameContextCreateRequestMessage
[ WorldServer ] <127.0.0.1:5556> Send GameContextDestroyMessage
[ WorldServer ] <127.0.0.1:5556> Send GameContextCreateMessage
[ WorldServer ] <127.0.0.1:5556> Send CurrentMapMessage
[ WorldServer ] <127.0.0.1:59524> Receive QuestListRequestMessage
[ WorldServer ] <127.0.0.1:5556> Send QuestListMessage
[ WorldServer ] <127.0.0.1:59524> Receive ChannelEnablingMessage
[ WorldServer ] <127.0.0.1:59524> Receive ChannelEnablingMessage
[ WorldServer ] <127.0.0.1:59524> Receive MapInformationsRequestMessage
[ WorldServer ] <127.0.0.1:5556> Send MapComplementaryInformationsDataMessage
[ WorldServer ] <127.0.0.1:5556> Send GameRolePlayShowActorMessage
[ WorldServer ] <127.0.0.1:59524> Receive ChatClientMultiMessage
[ WorldServer ] <127.0.0.1:5556> Send CurrentMapMessage
[ WorldServer ] <127.0.0.1:59524> Receive MapInformationsRequestMessage
[ WorldServer ] <127.0.0.1:5556> Send MapComplementaryInformationsDataMessage
[ WorldServer ] <127.0.0.1:5556> Send GameRolePlayShowActorMessage
[ WorldServer ] <127.0.0.1:59524> Receive GameMapMovementRequestMessage
[ WorldServer ] <127.0.0.1:5556> Send GameMapMovementMessage
[ WorldServer ] <127.0.0.1:59524> Receive GameMapMovementConfirmMessage
[ WorldServer ] <127.0.0.1:5556> Send BasicNoOperationMessage
[ WorldServer ] <127.0.0.1:59524> Receive NpcGenericActionRequestMessage
[ WorldServer ] <127.0.0.1:5556> Send NpcDialogCreationMessage
[ WorldServer ] <127.0.0.1:5556> Send NpcDialogQuestionMessage
[ WorldServer ] <127.0.0.1:59524> Receive NpcDialogReplyMessage
[ WorldServer ] <127.0.0.1:5556> Send NpcDialogQuestionMessage
[ WorldServer ] <127.0.0.1:59524> Receive NpcDialogReplyMessage
[ WorldServer ] <127.0.0.1:5556> Send TextInformationMessage
[ WorldServer ] <127.0.0.1:5556> Send QuestStartedMessage
[ WorldServer ] <127.0.0.1:5556> Send MapNpcsQuestStatusUpdateMessage
[ WorldServer ] <127.0.0.1:5556> Send LeaveDialogMessage
[ WorldServer ] <127.0.0.1:59524> Receive QuestListRequestMessage
[ WorldServer ] <127.0.0.1:5556> Send QuestListMessage
[ WorldServer ] <127.0.0.1:59524> Receive QuestStepInfoRequestMessage
[ Info ] Starting IPC Auth 127.0.0.1:443
[ Info ] Starting IPC World 127.0.0.1:5556
[ Info ] Client <127.0.0.1:59544> connected to AuthServer...
[ AuthServer ] <127.0.0.1:443> Send ProtocolRequired
[ AuthServer ] <127.0.0.1:443> Send HelloConnectMessage
[ AuthServer ] <127.0.0.1:59544> Receive IdentificationMessage
[ AuthServer ] <127.0.0.1:443> Send IdentificationSuccessMessage
[ AuthServer ] <127.0.0.1:443> Send ServersListMessage
[ AuthServer ] <127.0.0.1:59544> Receive ServerSelectionMessage
[ AuthServer ] <127.0.0.1:443> Send SelectedServerDataMessage
[ Info ] Client <127.0.0.1:59544> disconnected from AuthServer...
[ Info ] Client <127.0.0.1:59545> connected to WorldServer...
[ WorldServer ] <127.0.0.1:5556> Send ProtocolRequired
[ WorldServer ] <127.0.0.1:5556> Send HelloGameMessage
[ WorldServer ] <127.0.0.1:59545> Receive AuthenticationTicketMessage
[ WorldServer ] <127.0.0.1:5556> Send AuthenticationTicketAcceptedMessage
[ WorldServer ] <127.0.0.1:5556> Send BasicTimeMessage
[ WorldServer ] <127.0.0.1:5556> Send AccountCapabilitiesMessage
[ WorldServer ] <127.0.0.1:5556> Send TrustStatusMessage
[ WorldServer ] <127.0.0.1:59545> Receive CharactersListRequestMessage
[ WorldServer ] <127.0.0.1:5556> Send CharactersListMessage
[ WorldServer ] <127.0.0.1:59545> Receive CharacterSelectionMessage
[ WorldServer ] <127.0.0.1:5556> Send CharacterSelectedSuccessMessage
[ WorldServer ] <127.0.0.1:5556> Send InventoryContentMessage
[ WorldServer ] <127.0.0.1:5556> Send ShortcutBarContentMessage
[ WorldServer ] <127.0.0.1:5556> Send ShortcutBarContentMessage
[ WorldServer ] <127.0.0.1:5556> Send EmoteListMessage
[ WorldServer ] <127.0.0.1:5556> Send EnabledChannelsMessage
[ WorldServer ] <127.0.0.1:5556> Send AlignmentRankUpdateMessage
[ WorldServer ] <127.0.0.1:5556> Send AlignmentSubAreasListMessage
[ WorldServer ] <127.0.0.1:5556> Send SpellListMessage
[ WorldServer ] <127.0.0.1:5556> Send InventoryWeightMessage
[ WorldServer ] <127.0.0.1:5556> Send CharacterStatsListMessage
[ WorldServer ] <127.0.0.1:5556> Send JobDescriptionMessage
[ WorldServer ] <127.0.0.1:5556> Send JobExperienceMultiUpdateMessage
[ WorldServer ] <127.0.0.1:5556> Send JobCrafterDirectorySettingsMessage
[ WorldServer ] <127.0.0.1:5556> Send TextInformationMessage
[ WorldServer ] <127.0.0.1:5556> Send LifePointsRegenBeginMessage
[ WorldServer ] <127.0.0.1:59545> Receive IgnoredGetListMessage
[ WorldServer ] <127.0.0.1:5556> Send IgnoredListMessage
[ WorldServer ] <127.0.0.1:59545> Receive GameContextCreateRequestMessage
[ WorldServer ] <127.0.0.1:5556> Send GameContextDestroyMessage
[ WorldServer ] <127.0.0.1:5556> Send GameContextCreateMessage
[ WorldServer ] <127.0.0.1:5556> Send CurrentMapMessage
[ WorldServer ] <127.0.0.1:59545> Receive QuestListRequestMessage
[ WorldServer ] <127.0.0.1:5556> Send QuestListMessage
[ WorldServer ] <127.0.0.1:59545> Receive ChannelEnablingMessage
[ WorldServer ] <127.0.0.1:59545> Receive ChannelEnablingMessage
[ WorldServer ] <127.0.0.1:59545> Receive MapInformationsRequestMessage
[ WorldServer ] <127.0.0.1:5556> Send MapComplementaryInformationsDataMessage
[ WorldServer ] <127.0.0.1:5556> Send GameRolePlayShowActorMessage
[ WorldServer ] <127.0.0.1:59545> Receive ChatClientMultiMessage
[ WorldServer ] <127.0.0.1:5556> Send CurrentMapMessage
[ WorldServer ] <127.0.0.1:59545> Receive MapInformationsRequestMessage
[ WorldServer ] <127.0.0.1:5556> Send MapComplementaryInformationsDataMessage
[ WorldServer ] <127.0.0.1:5556> Send GameRolePlayShowActorMessage
[ WorldServer ] <127.0.0.1:59545> Receive NpcGenericActionRequestMessage
[ WorldServer ] <127.0.0.1:5556> Send NpcDialogCreationMessage
[ WorldServer ] <127.0.0.1:5556> Send NpcDialogQuestionMessage
[ WorldServer ] <127.0.0.1:59545> Receive NpcDialogReplyMessage
[ WorldServer ] <127.0.0.1:5556> Send NpcDialogQuestionMessage
[ WorldServer ] <127.0.0.1:59545> Receive NpcDialogReplyMessage
[ WorldServer ] <127.0.0.1:5556> Send TextInformationMessage
[ WorldServer ] <127.0.0.1:5556> Send QuestStartedMessage
[ WorldServer ] <127.0.0.1:5556> Send MapNpcsQuestStatusUpdateMessage
[ WorldServer ] <127.0.0.1:5556> Send LeaveDialogMessage
[ WorldServer ] <127.0.0.1:59545> Receive QuestListRequestMessage
[ WorldServer ] <127.0.0.1:5556> Send QuestListMessage
[ WorldServer ] <127.0.0.1:59545> Receive QuestStepInfoRequestMessage
[ Info ] Starting IPC Auth 127.0.0.1:443
[ Info ] Starting IPC World 127.0.0.1:5556
[ Info ] Client <127.0.0.1:59879> connected to AuthServer...
[ AuthServer ] <127.0.0.1:443> Send ProtocolRequired
[ AuthServer ] <127.0.0.1:443> Send HelloConnectMessage
[ AuthServer ] <127.0.0.1:59879> Receive IdentificationMessage
[ AuthServer ] <127.0.0.1:443> Send IdentificationSuccessMessage
[ AuthServer ] <127.0.0.1:443> Send ServersListMessage
[ AuthServer ] <127.0.0.1:59879> Receive ServerSelectionMessage
[ AuthServer ] <127.0.0.1:443> Send SelectedServerDataMessage
[ Info ] Client <127.0.0.1:59879> disconnected from AuthServer...
[ Info ] Client <127.0.0.1:59880> connected to WorldServer...
[ WorldServer ] <127.0.0.1:5556> Send ProtocolRequired
[ WorldServer ] <127.0.0.1:5556> Send HelloGameMessage
[ WorldServer ] <127.0.0.1:59880> Receive AuthenticationTicketMessage
[ WorldServer ] <127.0.0.1:5556> Send AuthenticationTicketAcceptedMessage
[ WorldServer ] <127.0.0.1:5556> Send BasicTimeMessage
[ WorldServer ] <127.0.0.1:5556> Send AccountCapabilitiesMessage
[ WorldServer ] <127.0.0.1:5556> Send TrustStatusMessage
[ WorldServer ] <127.0.0.1:59880> Receive CharactersListRequestMessage
[ WorldServer ] <127.0.0.1:5556> Send CharactersListMessage
[ Info ] Starting IPC Auth 127.0.0.1:443
[ Info ] Starting IPC World 127.0.0.1:5556
[ Info ] Client <127.0.0.1:60041> connected to AuthServer...
[ AuthServer ] <127.0.0.1:443> Send ProtocolRequired
[ AuthServer ] <127.0.0.1:443> Send HelloConnectMessage
[ AuthServer ] <127.0.0.1:60041> Receive IdentificationMessage
[ AuthServer ] <127.0.0.1:443> Send IdentificationSuccessMessage
[ AuthServer ] <127.0.0.1:443> Send ServersListMessage
[ AuthServer ] <127.0.0.1:60041> Receive ServerSelectionMessage
[ AuthServer ] <127.0.0.1:443> Send SelectedServerDataMessage
[ Info ] Client <127.0.0.1:60041> disconnected from AuthServer...
[ Info ] Client <127.0.0.1:60042> connected to WorldServer...
[ WorldServer ] <127.0.0.1:5556> Send ProtocolRequired
[ WorldServer ] <127.0.0.1:5556> Send HelloGameMessage
[ WorldServer ] <127.0.0.1:60042> Receive AuthenticationTicketMessage
[ WorldServer ] <127.0.0.1:5556> Send AuthenticationTicketAcceptedMessage
[ WorldServer ] <127.0.0.1:5556> Send BasicTimeMessage
[ WorldServer ] <127.0.0.1:5556> Send AccountCapabilitiesMessage
[ WorldServer ] <127.0.0.1:5556> Send TrustStatusMessage
[ WorldServer ] <127.0.0.1:60042> Receive CharactersListRequestMessage
[ WorldServer ] <127.0.0.1:5556> Send CharactersListMessage
[ WorldServer ] <127.0.0.1:60042> Receive CharacterSelectionMessage
[ WorldServer ] <127.0.0.1:5556> Send CharacterSelectedSuccessMessage
[ WorldServer ] <127.0.0.1:5556> Send InventoryContentMessage
[ WorldServer ] <127.0.0.1:5556> Send ShortcutBarContentMessage
[ WorldServer ] <127.0.0.1:5556> Send ShortcutBarContentMessage
[ WorldServer ] <127.0.0.1:5556> Send EmoteListMessage
[ WorldServer ] <127.0.0.1:5556> Send EnabledChannelsMessage
[ WorldServer ] <127.0.0.1:5556> Send AlignmentRankUpdateMessage
[ WorldServer ] <127.0.0.1:5556> Send AlignmentSubAreasListMessage
[ WorldServer ] <127.0.0.1:5556> Send SpellListMessage
[ WorldServer ] <127.0.0.1:5556> Send InventoryWeightMessage
[ WorldServer ] <127.0.0.1:5556> Send CharacterStatsListMessage
[ WorldServer ] <127.0.0.1:5556> Send JobDescriptionMessage
[ WorldServer ] <127.0.0.1:5556> Send JobExperienceMultiUpdateMessage
[ WorldServer ] <127.0.0.1:5556> Send JobCrafterDirectorySettingsMessage
[ WorldServer ] <127.0.0.1:5556> Send TextInformationMessage
[ WorldServer ] <127.0.0.1:5556> Send LifePointsRegenBeginMessage
[ WorldServer ] <127.0.0.1:60042> Receive IgnoredGetListMessage
[ WorldServer ] <127.0.0.1:5556> Send IgnoredListMessage
[ WorldServer ] <127.0.0.1:60042> Receive GameContextCreateRequestMessage
[ WorldServer ] <127.0.0.1:5556> Send GameContextDestroyMessage
[ WorldServer ] <127.0.0.1:5556> Send GameContextCreateMessage
[ WorldServer ] <127.0.0.1:5556> Send CurrentMapMessage
[ WorldServer ] <127.0.0.1:60042> Receive ChannelEnablingMessage
[ WorldServer ] <127.0.0.1:60042> Receive ChannelEnablingMessage
[ WorldServer ] <127.0.0.1:60042> Receive QuestListRequestMessage
[ WorldServer ] <127.0.0.1:5556> Send QuestListMessage
[ WorldServer ] <127.0.0.1:60042> Receive MapInformationsRequestMessage
[ WorldServer ] <127.0.0.1:5556> Send MapComplementaryInformationsDataMessage
[ WorldServer ] <127.0.0.1:5556> Send GameRolePlayShowActorMessage
[ WorldServer ] <127.0.0.1:60042> Receive ChatClientMultiMessage
[ WorldServer ] <127.0.0.1:5556> Send CurrentMapMessage
[ WorldServer ] <127.0.0.1:60042> Receive MapInformationsRequestMessage
[ WorldServer ] <127.0.0.1:5556> Send MapComplementaryInformationsDataMessage
[ WorldServer ] <127.0.0.1:5556> Send GameRolePlayShowActorMessage
[ WorldServer ] <127.0.0.1:60042> Receive GameMapMovementRequestMessage
[ WorldServer ] <127.0.0.1:5556> Send GameMapMovementMessage
[ WorldServer ] <127.0.0.1:60042> Receive GameMapMovementConfirmMessage
[ WorldServer ] <127.0.0.1:5556> Send BasicNoOperationMessage
[ WorldServer ] <127.0.0.1:60042> Receive NpcGenericActionRequestMessage
[ WorldServer ] <127.0.0.1:5556> Send NpcDialogCreationMessage
[ WorldServer ] <127.0.0.1:5556> Send NpcDialogQuestionMessage
[ WorldServer ] <127.0.0.1:60042> Receive NpcDialogReplyMessage
[ WorldServer ] <127.0.0.1:5556> Send NpcDialogQuestionMessage
[ WorldServer ] <127.0.0.1:60042> Receive NpcDialogReplyMessage
[ WorldServer ] <127.0.0.1:5556> Send TextInformationMessage
[ WorldServer ] <127.0.0.1:5556> Send QuestStartedMessage
[ WorldServer ] <127.0.0.1:5556> Send MapNpcsQuestStatusUpdateMessage
[ WorldServer ] <127.0.0.1:5556> Send LeaveDialogMessage
[ WorldServer ] <127.0.0.1:60042> Receive QuestListRequestMessage
[ WorldServer ] <127.0.0.1:5556> Send QuestListMessage
[ WorldServer ] <127.0.0.1:60042> Receive QuestStepInfoRequestMessage
[ WorldServer ] <127.0.0.1:60042> Receive QuestListRequestMessage
[ WorldServer ] <127.0.0.1:5556> Send QuestListMessage
[ WorldServer ] <127.0.0.1:60042> Receive QuestStepInfoRequestMessage
[ Info ] Starting IPC Auth 127.0.0.1:443
[ Info ] Starting IPC World 127.0.0.1:5556
[ Info ] Client <127.0.0.1:60085> connected to AuthServer...
[ AuthServer ] <127.0.0.1:443> Send ProtocolRequired
[ AuthServer ] <127.0.0.1:443> Send HelloConnectMessage
[ AuthServer ] <127.0.0.1:60085> Receive IdentificationMessage
[ AuthServer ] <127.0.0.1:443> Send IdentificationSuccessMessage
[ AuthServer ] <127.0.0.1:443> Send ServersListMessage
[ AuthServer ] <127.0.0.1:60085> Receive ServerSelectionMessage
[ AuthServer ] <127.0.0.1:443> Send SelectedServerDataMessage
[ Info ] Client <127.0.0.1:60085> disconnected from AuthServer...
[ Info ] Client <127.0.0.1:60087> connected to WorldServer...
[ WorldServer ] <127.0.0.1:5556> Send ProtocolRequired
[ WorldServer ] <127.0.0.1:5556> Send HelloGameMessage
[ WorldServer ] <127.0.0.1:60087> Receive AuthenticationTicketMessage
[ WorldServer ] <127.0.0.1:5556> Send AuthenticationTicketAcceptedMessage
[ WorldServer ] <127.0.0.1:5556> Send BasicTimeMessage
[ WorldServer ] <127.0.0.1:5556> Send AccountCapabilitiesMessage
[ WorldServer ] <127.0.0.1:5556> Send TrustStatusMessage
[ WorldServer ] <127.0.0.1:60087> Receive CharactersListRequestMessage
[ WorldServer ] <127.0.0.1:5556> Send CharactersListMessage
[ WorldServer ] <127.0.0.1:60087> Receive CharacterSelectionMessage
[ WorldServer ] <127.0.0.1:5556> Send CharacterSelectedSuccessMessage
[ WorldServer ] <127.0.0.1:5556> Send InventoryContentMessage
[ WorldServer ] <127.0.0.1:5556> Send ShortcutBarContentMessage
[ WorldServer ] <127.0.0.1:5556> Send ShortcutBarContentMessage
[ WorldServer ] <127.0.0.1:5556> Send EmoteListMessage
[ WorldServer ] <127.0.0.1:5556> Send EnabledChannelsMessage
[ WorldServer ] <127.0.0.1:5556> Send AlignmentRankUpdateMessage
[ WorldServer ] <127.0.0.1:5556> Send AlignmentSubAreasListMessage
[ WorldServer ] <127.0.0.1:5556> Send SpellListMessage
[ WorldServer ] <127.0.0.1:5556> Send InventoryWeightMessage
[ WorldServer ] <127.0.0.1:5556> Send CharacterStatsListMessage
[ WorldServer ] <127.0.0.1:5556> Send JobDescriptionMessage
[ WorldServer ] <127.0.0.1:5556> Send JobExperienceMultiUpdateMessage
[ WorldServer ] <127.0.0.1:5556> Send JobCrafterDirectorySettingsMessage
[ WorldServer ] <127.0.0.1:5556> Send TextInformationMessage
[ WorldServer ] <127.0.0.1:5556> Send LifePointsRegenBeginMessage
[ WorldServer ] <127.0.0.1:60087> Receive IgnoredGetListMessage
[ WorldServer ] <127.0.0.1:5556> Send IgnoredListMessage
[ WorldServer ] <127.0.0.1:60087> Receive GameContextCreateRequestMessage
[ WorldServer ] <127.0.0.1:5556> Send GameContextDestroyMessage
[ WorldServer ] <127.0.0.1:5556> Send GameContextCreateMessage
[ WorldServer ] <127.0.0.1:5556> Send CurrentMapMessage
[ WorldServer ] <127.0.0.1:60087> Receive QuestListRequestMessage
[ WorldServer ] <127.0.0.1:5556> Send QuestListMessage
[ WorldServer ] <127.0.0.1:60087> Receive ChannelEnablingMessage
[ WorldServer ] <127.0.0.1:60087> Receive ChannelEnablingMessage
[ WorldServer ] <127.0.0.1:60087> Receive MapInformationsRequestMessage
[ WorldServer ] <127.0.0.1:5556> Send MapComplementaryInformationsDataMessage
[ WorldServer ] <127.0.0.1:5556> Send GameRolePlayShowActorMessage
[ WorldServer ] <127.0.0.1:60087> Receive GameMapMovementRequestMessage
[ WorldServer ] <127.0.0.1:5556> Send GameMapMovementMessage
[ WorldServer ] <127.0.0.1:60087> Receive GameMapMovementConfirmMessage
[ WorldServer ] <127.0.0.1:5556> Send BasicNoOperationMessage
[ WorldServer ] <127.0.0.1:60087> Receive ChatClientMultiMessage
[ WorldServer ] <127.0.0.1:5556> Send CurrentMapMessage
[ WorldServer ] <127.0.0.1:60087> Receive MapInformationsRequestMessage
[ WorldServer ] <127.0.0.1:5556> Send MapComplementaryInformationsDataMessage
[ WorldServer ] <127.0.0.1:5556> Send GameRolePlayShowActorMessage
[ WorldServer ] <127.0.0.1:60087> Receive GameMapMovementRequestMessage
[ WorldServer ] <127.0.0.1:5556> Send GameMapMovementMessage
[ WorldServer ] <127.0.0.1:60087> Receive GameMapMovementCancelMessage
[ WorldServer ] <127.0.0.1:5556> Send BasicNoOperationMessage
[ WorldServer ] <127.0.0.1:60087> Receive NpcGenericActionRequestMessage
[ WorldServer ] <127.0.0.1:5556> Send NpcDialogCreationMessage
[ WorldServer ] <127.0.0.1:5556> Send NpcDialogQuestionMessage
[ WorldServer ] <127.0.0.1:60087> Receive NpcDialogReplyMessage
[ WorldServer ] <127.0.0.1:5556> Send NpcDialogQuestionMessage
[ WorldServer ] <127.0.0.1:60087> Receive NpcDialogReplyMessage
[ WorldServer ] <127.0.0.1:5556> Send TextInformationMessage
[ WorldServer ] <127.0.0.1:5556> Send QuestStartedMessage
[ WorldServer ] <127.0.0.1:5556> Send MapNpcsQuestStatusUpdateMessage
[ WorldServer ] <127.0.0.1:5556> Send LeaveDialogMessage
[ WorldServer ] <127.0.0.1:60087> Receive QuestListRequestMessage
[ WorldServer ] <127.0.0.1:5556> Send QuestListMessage
[ WorldServer ] <127.0.0.1:60087> Receive QuestStepInfoRequestMessage
[ Info ] Starting IPC Auth 127.0.0.1:443
[ Info ] Starting IPC World 127.0.0.1:5556
[ Info ] Client <127.0.0.1:60097> connected to AuthServer...
[ AuthServer ] <127.0.0.1:443> Send ProtocolRequired
[ AuthServer ] <127.0.0.1:443> Send HelloConnectMessage
[ AuthServer ] <127.0.0.1:60097> Receive IdentificationMessage
[ AuthServer ] <127.0.0.1:443> Send IdentificationSuccessMessage
[ AuthServer ] <127.0.0.1:443> Send ServersListMessage
[ AuthServer ] <127.0.0.1:60097> Receive ServerSelectionMessage
[ AuthServer ] <127.0.0.1:443> Send SelectedServerDataMessage
[ Info ] Client <127.0.0.1:60097> disconnected from AuthServer...
[ Info ] Client <127.0.0.1:60098> connected to WorldServer...
[ WorldServer ] <127.0.0.1:5556> Send ProtocolRequired
[ WorldServer ] <127.0.0.1:5556> Send HelloGameMessage
[ WorldServer ] <127.0.0.1:60098> Receive AuthenticationTicketMessage
[ WorldServer ] <127.0.0.1:5556> Send AuthenticationTicketAcceptedMessage
[ WorldServer ] <127.0.0.1:5556> Send BasicTimeMessage
[ WorldServer ] <127.0.0.1:5556> Send AccountCapabilitiesMessage
[ WorldServer ] <127.0.0.1:5556> Send TrustStatusMessage
[ WorldServer ] <127.0.0.1:60098> Receive CharactersListRequestMessage
[ WorldServer ] <127.0.0.1:5556> Send CharactersListMessage
[ WorldServer ] <127.0.0.1:60098> Receive CharacterSelectionMessage
[ WorldServer ] <127.0.0.1:5556> Send CharacterSelectedSuccessMessage
[ WorldServer ] <127.0.0.1:5556> Send InventoryContentMessage
[ WorldServer ] <127.0.0.1:5556> Send ShortcutBarContentMessage
[ WorldServer ] <127.0.0.1:5556> Send ShortcutBarContentMessage
[ WorldServer ] <127.0.0.1:5556> Send EmoteListMessage
[ WorldServer ] <127.0.0.1:5556> Send EnabledChannelsMessage
[ WorldServer ] <127.0.0.1:5556> Send AlignmentRankUpdateMessage
[ WorldServer ] <127.0.0.1:5556> Send AlignmentSubAreasListMessage
[ WorldServer ] <127.0.0.1:5556> Send SpellListMessage
[ WorldServer ] <127.0.0.1:5556> Send InventoryWeightMessage
[ WorldServer ] <127.0.0.1:5556> Send CharacterStatsListMessage
[ WorldServer ] <127.0.0.1:5556> Send JobDescriptionMessage
[ WorldServer ] <127.0.0.1:5556> Send JobExperienceMultiUpdateMessage
[ WorldServer ] <127.0.0.1:5556> Send JobCrafterDirectorySettingsMessage
[ WorldServer ] <127.0.0.1:5556> Send TextInformationMessage
[ WorldServer ] <127.0.0.1:5556> Send LifePointsRegenBeginMessage
[ WorldServer ] <127.0.0.1:60098> Receive IgnoredGetListMessage
[ WorldServer ] <127.0.0.1:5556> Send IgnoredListMessage
[ WorldServer ] <127.0.0.1:60098> Receive GameContextCreateRequestMessage
[ WorldServer ] <127.0.0.1:5556> Send GameContextDestroyMessage
[ WorldServer ] <127.0.0.1:5556> Send GameContextCreateMessage
[ WorldServer ] <127.0.0.1:5556> Send CurrentMapMessage
[ WorldServer ] <127.0.0.1:60098> Receive QuestListRequestMessage
[ WorldServer ] <127.0.0.1:5556> Send QuestListMessage
[ WorldServer ] <127.0.0.1:60098> Receive ChannelEnablingMessage
[ WorldServer ] <127.0.0.1:60098> Receive ChannelEnablingMessage
[ WorldServer ] <127.0.0.1:60098> Receive MapInformationsRequestMessage
[ WorldServer ] <127.0.0.1:5556> Send MapComplementaryInformationsDataMessage
[ WorldServer ] <127.0.0.1:5556> Send GameRolePlayShowActorMessage
[ WorldServer ] <127.0.0.1:60098> Receive ChatClientMultiMessage
[ WorldServer ] <127.0.0.1:5556> Send CurrentMapMessage
[ WorldServer ] <127.0.0.1:60098> Receive MapInformationsRequestMessage
[ WorldServer ] <127.0.0.1:5556> Send MapComplementaryInformationsDataMessage
[ WorldServer ] <127.0.0.1:5556> Send GameRolePlayShowActorMessage
[ WorldServer ] <127.0.0.1:60098> Receive NpcGenericActionRequestMessage
[ WorldServer ] <127.0.0.1:5556> Send NpcDialogCreationMessage
[ WorldServer ] <127.0.0.1:5556> Send NpcDialogQuestionMessage
[ WorldServer ] <127.0.0.1:60098> Receive NpcDialogReplyMessage
[ WorldServer ] <127.0.0.1:5556> Send NpcDialogQuestionMessage
[ WorldServer ] <127.0.0.1:60098> Receive NpcDialogReplyMessage
[ WorldServer ] <127.0.0.1:5556> Send TextInformationMessage
[ WorldServer ] <127.0.0.1:5556> Send QuestStartedMessage
[ WorldServer ] <127.0.0.1:5556> Send MapNpcsQuestStatusUpdateMessage
[ WorldServer ] <127.0.0.1:5556> Send LeaveDialogMessage
[ WorldServer ] <127.0.0.1:60098> Receive QuestListRequestMessage
[ WorldServer ] <127.0.0.1:5556> Send QuestListMessage
[ WorldServer ] <127.0.0.1:60098> Receive QuestStepInfoRequestMessage
[ Info ] Starting IPC Auth 127.0.0.1:443
[ Info ] Starting IPC World 127.0.0.1:5556
[ Info ] Client <127.0.0.1:60100> connected to AuthServer...
[ AuthServer ] <127.0.0.1:443> Send ProtocolRequired
[ AuthServer ] <127.0.0.1:443> Send HelloConnectMessage
[ AuthServer ] <127.0.0.1:60100> Receive IdentificationMessage
[ AuthServer ] <127.0.0.1:443> Send IdentificationSuccessMessage
[ AuthServer ] <127.0.0.1:443> Send ServersListMessage
[ AuthServer ] <127.0.0.1:60100> Receive ServerSelectionMessage
[ AuthServer ] <127.0.0.1:443> Send SelectedServerDataMessage
[ Info ] Client <127.0.0.1:60100> disconnected from AuthServer...
[ Info ] Client <127.0.0.1:60101> connected to WorldServer...
[ WorldServer ] <127.0.0.1:5556> Send ProtocolRequired
[ WorldServer ] <127.0.0.1:5556> Send HelloGameMessage
[ WorldServer ] <127.0.0.1:60101> Receive AuthenticationTicketMessage
[ WorldServer ] <127.0.0.1:5556> Send AuthenticationTicketAcceptedMessage
[ WorldServer ] <127.0.0.1:5556> Send BasicTimeMessage
[ WorldServer ] <127.0.0.1:5556> Send AccountCapabilitiesMessage
[ WorldServer ] <127.0.0.1:5556> Send TrustStatusMessage
[ WorldServer ] <127.0.0.1:60101> Receive CharactersListRequestMessage
[ WorldServer ] <127.0.0.1:5556> Send CharactersListMessage
[ WorldServer ] <127.0.0.1:60101> Receive CharacterSelectionMessage
[ WorldServer ] <127.0.0.1:5556> Send CharacterSelectedSuccessMessage
[ WorldServer ] <127.0.0.1:5556> Send InventoryContentMessage
[ WorldServer ] <127.0.0.1:5556> Send ShortcutBarContentMessage
[ WorldServer ] <127.0.0.1:5556> Send ShortcutBarContentMessage
[ WorldServer ] <127.0.0.1:5556> Send EmoteListMessage
[ WorldServer ] <127.0.0.1:5556> Send EnabledChannelsMessage
[ WorldServer ] <127.0.0.1:5556> Send AlignmentRankUpdateMessage
[ WorldServer ] <127.0.0.1:5556> Send AlignmentSubAreasListMessage
[ WorldServer ] <127.0.0.1:5556> Send SpellListMessage
[ WorldServer ] <127.0.0.1:5556> Send InventoryWeightMessage
[ WorldServer ] <127.0.0.1:5556> Send CharacterStatsListMessage
[ WorldServer ] <127.0.0.1:5556> Send JobDescriptionMessage
[ WorldServer ] <127.0.0.1:5556> Send JobExperienceMultiUpdateMessage
[ WorldServer ] <127.0.0.1:5556> Send JobCrafterDirectorySettingsMessage
[ WorldServer ] <127.0.0.1:5556> Send TextInformationMessage
[ WorldServer ] <127.0.0.1:5556> Send LifePointsRegenBeginMessage
[ WorldServer ] <127.0.0.1:60101> Receive IgnoredGetListMessage
[ WorldServer ] <127.0.0.1:5556> Send IgnoredListMessage
[ WorldServer ] <127.0.0.1:60101> Receive GameContextCreateRequestMessage
[ WorldServer ] <127.0.0.1:5556> Send GameContextDestroyMessage
[ WorldServer ] <127.0.0.1:5556> Send GameContextCreateMessage
[ WorldServer ] <127.0.0.1:5556> Send CurrentMapMessage
[ WorldServer ] <127.0.0.1:60101> Receive QuestListRequestMessage
[ WorldServer ] <127.0.0.1:5556> Send QuestListMessage
[ WorldServer ] <127.0.0.1:60101> Receive ChannelEnablingMessage
[ WorldServer ] <127.0.0.1:60101> Receive ChannelEnablingMessage
[ WorldServer ] <127.0.0.1:60101> Receive MapInformationsRequestMessage
[ WorldServer ] <127.0.0.1:5556> Send MapComplementaryInformationsDataMessage
[ WorldServer ] <127.0.0.1:5556> Send GameRolePlayShowActorMessage
[ WorldServer ] <127.0.0.1:60101> Receive ChatClientMultiMessage
[ WorldServer ] <127.0.0.1:5556> Send CurrentMapMessage
[ WorldServer ] <127.0.0.1:60101> Receive MapInformationsRequestMessage
[ WorldServer ] <127.0.0.1:5556> Send MapComplementaryInformationsDataMessage
[ WorldServer ] <127.0.0.1:5556> Send GameRolePlayShowActorMessage
[ WorldServer ] <127.0.0.1:60101> Receive GameMapMovementRequestMessage
[ WorldServer ] <127.0.0.1:5556> Send GameMapMovementMessage
[ WorldServer ] <127.0.0.1:60101> Receive GameMapMovementConfirmMessage
[ WorldServer ] <127.0.0.1:5556> Send BasicNoOperationMessage
[ WorldServer ] <127.0.0.1:60101> Receive NpcGenericActionRequestMessage
[ WorldServer ] <127.0.0.1:5556> Send NpcDialogCreationMessage
[ WorldServer ] <127.0.0.1:5556> Send NpcDialogQuestionMessage
[ WorldServer ] <127.0.0.1:60101> Receive NpcDialogReplyMessage
[ WorldServer ] <127.0.0.1:5556> Send NpcDialogQuestionMessage
[ WorldServer ] <127.0.0.1:60101> Receive NpcDialogReplyMessage
[ WorldServer ] <127.0.0.1:5556> Send TextInformationMessage
[ WorldServer ] <127.0.0.1:5556> Send QuestStartedMessage
[ WorldServer ] <127.0.0.1:5556> Send MapNpcsQuestStatusUpdateMessage
[ WorldServer ] <127.0.0.1:5556> Send LeaveDialogMessage
[ WorldServer ] <127.0.0.1:60101> Receive QuestListRequestMessage
[ WorldServer ] <127.0.0.1:5556> Send QuestListMessage
[ WorldServer ] <127.0.0.1:60101> Receive QuestStepInfoRequestMessage
[ WorldServer ] <127.0.0.1:5556> Send QuestStepInfoMessage
[ WorldServer ] <127.0.0.1:60101> Receive QuestListRequestMessage
[ WorldServer ] <127.0.0.1:5556> Send QuestListMessage
[ WorldServer ] <127.0.0.1:60101> Receive QuestStepInfoRequestMessage
[ WorldServer ] <127.0.0.1:5556> Send QuestStepInfoMessage
[ WorldServer ] <127.0.0.1:60101> Receive QuestListRequestMessage
[ WorldServer ] <127.0.0.1:5556> Send QuestListMessage
[ WorldServer ] <127.0.0.1:60101> Receive QuestStepInfoRequestMessage
[ WorldServer ] <127.0.0.1:5556> Send QuestStepInfoMessage
[ WorldServer ] <127.0.0.1:60101> Receive GameMapMovementRequestMessage
[ WorldServer ] <127.0.0.1:5556> Send GameMapMovementMessage
[ WorldServer ] <127.0.0.1:60101> Receive GameMapMovementConfirmMessage
[ WorldServer ] <127.0.0.1:5556> Send BasicNoOperationMessage
[ WorldServer ] <127.0.0.1:60101> Receive QuestListRequestMessage
[ WorldServer ] <127.0.0.1:5556> Send QuestListMessage
[ WorldServer ] <127.0.0.1:60101> Receive QuestStepInfoRequestMessage
[ WorldServer ] <127.0.0.1:5556> Send QuestStepInfoMessage
